%time,field.header.seq,field.header.frame_id,field.point_id,field.x,field.y,field.z,field.velocity,field.intensity,normalized_x,normalized_y,normalized_z,normalized_intensity,normalized_velocity,normalized_range,range
1648383117701882045,19256,0,0,0.00770498206839,0.0454158857465,0.00870923697948,0.0,13.5,0.0025769170797290968,0.015189259446989964,0.0029127882874515044,13.5,0.0,0.015620326687351098,0.0468809154729096
1648383117701890799,19257,0,1,0.0317974686623,0.0161153152585,-0.0304472967982,0.0,13.5,0.010634604903779264,0.005389737544648829,-0.010183042407424748,13.5,0.0,0.015976198350019604,0.04688091596298513
1648383117701897297,19258,0,2,0.796898424625,-0.0,0.0110894218087,0.0,13.5,0.26652121224916386,-0.0,0.0037088367253177252,13.5,0.0,0.3769179130228858,0.7969755795793608
1648383117701900833,19259,0,3,0.135979637504,0.0805765762925,-0.49086984992,-0.485512852669,13.5,0.04547813963344481,0.026948687723244144,-0.16417051836789295,13.5,-0.06560984495527027,0.06973345064632279,0.5156900774915333
1648383117702079886,19260,0,4,0.434495955706,0.273960351944,0.0457738898695,-0.485512852669,13.5,0.14531637314581938,0.09162553576722407,0.015308993267391302,13.5,-0.06560984495527027,0.22500874519258335,0.5156900803350165
1648383117807274516,19261,1,0,0.00770498206839,0.0454158857465,0.00870923697948,0.0,32.2000007629,0.0025769170797290968,0.015189259446989964,0.0029127882874515044,32.2000007629,0.0,0.015620326687351098,0.0468809154729096
1648383117807302281,19262,1,1,0.0317974686623,0.0161153152585,-0.0304472967982,0.0,32.2000007629,0.010634604903779264,0.005389737544648829,-0.010183042407424748,32.2000007629,0.0,0.015976198350019604,0.04688091596298513
1648383117807315557,19263,1,2,0.795886933804,-0.0,0.041641805321,0.0,32.2000007629,0.26618292100468227,-0.0,0.013927025190969899,32.2000007629,0.0,0.37643949695690787,0.7969755650898745
1648383117807324283,19264,1,3,0.475656807423,0.380907416344,0.00957841053605,-0.566431701183,32.2000007629,0.15908254428862875,0.12739378473043478,0.003203481784632107,32.2000007629,-0.07654482448418919,0.25854146317879345,0.6094518883571527
1648383117807352841,19265,1,4,0.512969851494,0.175803437829,0.447732776403,-0.566431701183,32.2000007629,0.17156182324214045,0.05879713639765886,0.1497434034792642,32.2000007629,-0.07654482448418919,0.24964779517732533,0.7032137344789352
1648383117807404047,19266,1,5,0.143063694239,0.0952268540859,0.584718942642,-0.404594063759,32.2000007629,0.04784738937759197,0.03184844618257525,0.1955581747966555,32.2000007629,-0.05467487348094594,0.07478682280152162,0.6094518982108316
1648383117807489145,19267,1,6,0.516313016415,0.323771327734,0.00495779467747,-0.404594063759,32.2000007629,0.17267993860033445,0.10828472499464883,0.0016581253101906354,32.2000007629,-0.05467487348094594,0.26713723824505875,0.6094518712008827
1648383118002146530,19268,3,0,0.00764473620802,0.0454158857465,0.00876216683537,0.0,33.4000015259,0.0025567679625484946,0.015189259446989964,0.0029304905803913045,33.4000015259,0.0,0.015613703192279614,0.046880915493196285
1648383118002205706,19269,3,1,0.0317974686623,0.0161153152585,-0.0304472967982,0.0,33.4000015259,0.010634604903779264,0.005389737544648829,-0.010183042407424748,33.4000015259,0.0,0.015976198350019604,0.04688091596298513
1648383118002217957,19270,3,2,0.796585321426,0.0249054860324,-0.00126753712539,0.0,33.4000015259,0.2664164954602007,0.00832959399076923,-0.0004239254599966555,33.4000015259,0.0,0.3768618848366618,0.7969755731490382
1648383118002223366,19271,3,3,0.701471686363,0.257845044136,-0.0639953017235,0.404594063759,33.4000015259,0.23460591517157187,0.08623580071438126,-0.02140311094431438,33.4000015259,0.05467487348094594,0.34280677384181313,0.7500946554916442
