%time,field.header.seq,field.header.frame_id,field.point_id,field.x,field.y,field.z,field.velocity,field.intensity,normalized_x,normalized_y,normalized_z,normalized_intensity,normalized_velocity,normalized_range,range
1648383537112002930,28065,0,0,0.00780410459265,0.0454158857465,0.00862052850425,0.0,29.2999992371,0.0026100684256354515,0.015189259446989964,0.0028831199010869563,29.2999992371,0.0,0.01563133125875631,0.046880915502203545
1648383537112009265,28066,0,1,0.0316167213023,0.0161153152585,-0.0306349415332,0.0,29.2999992371,0.010574154281705684,0.005389737544648829,-0.010245799843879598,29.2999992371,0.0,0.01589574623434919,0.04688091396859425
1648383537112135594,28067,0,2,0.554651200771,-0.949338555336,-0.238878309727,0.0,29.2999992371,0.18550207383645487,-0.3175045335571906,-0.0798924112799331,29.2999992371,0.0,0.4118630447425701,1.1251419883828815
1648383537112140527,28068,0,3,0.65626680851,-0.0,0.0093133142218,0.485512852669,29.2999992371,0.21948722692642136,-0.0,0.003114820809966555,29.2999992371,0.06560984495527027,0.31040181308700626,0.6563328894499307
1648383537112154520,28069,0,4,0.702613353729,-0.0,0.0290533490479,0.566431701183,29.2999992371,0.23498774372207357,-0.0,0.009716839146454848,29.2999992371,0.07654482448418919,0.33232285416320956,0.7032137811001801
1648383537112158617,28070,0,5,0.805813610554,0.237334623933,0.0801896229386,-0.647350490093,29.2999992371,0.2695028797839465,0.07937612840568561,0.0268192718858194,29.2999992371,-0.08747979595851352,0.38931243774680063,0.8438564299088601
1648383537112271994,28071,0,6,0.0532187372446,-0.0439508594573,-0.699818313122,-0.566431701183,29.2999992371,0.017798908777458194,-0.014699284099431437,-0.23405294753244146,29.2999992371,-0.07654482448418919,0.029149121090906917,0.7032137537206357
1648383537112276642,28072,0,7,0.660359680653,0.241729721427,0.00118479353841,-0.566431701183,29.2999992371,0.22085608048595315,0.08084606067792642,0.000396252019535117,29.2999992371,-0.07654482448418919,0.3226312168752035,0.7032137440274016
1648383537307411923,28073,2,0,0.00772431911901,0.0454158857465,0.00869209133089,0.0,26.1000003815,0.0025833843207391303,0.015189259446989964,0.0029070539568193977,26.1000003815,0.0,0.015622463046691949,0.04688091547416686
1648383537307435657,28074,2,1,0.0317103527486,0.0161153152585,-0.0305380169302,0.0,26.1000003815,0.010605469146688962,0.005389737544648829,-0.010213383588695652,26.1000003815,0.0,0.01593741580190905,0.046880916537016086
1648383537307445699,28075,2,2,1.11631548405,0.140642747283,-0.00191842892673,0.0,26.1000003815,0.3733496602173913,0.047037708121404675,-0.0006416150256622073,26.1000003815,0.0,0.5300872414557792,1.1251419122326938
1648383537307492001,28076,2,3,0.792686522007,-0.0249054860324,-0.0787262842059,0.566431701183,26.1000003815,0.2651125491662207,-0.00832959399076923,-0.026329860938428092,26.1000003815,0.07654482448418919,0.3750182790036702,0.7969755537222784
1648383537412594676,28077,3,0,0.00780410459265,0.0454158857465,0.00862052850425,0.0,32.5999984741,0.0026100684256354515,0.015189259446989964,0.0028831199010869563,32.5999984741,0.0,0.01563133125875631,0.046880915502203545
1648383537412629094,28078,3,1,0.031720533967,0.0161153152585,-0.0305274389684,0.0,32.5999984741,0.01060887423645485,0.005389737544648829,-0.010209845808829431,32.5999984741,0.0,0.015941947683079008,0.04688091499748945
1648383537412661015,28079,3,2,1.06597304344,0.101086974144,0.127002626657,0.0,32.5999984741,0.3565127235585284,0.03380835255652174,0.042475794868561866,32.5999984741,0.0,0.5053173743508385,1.0782609947782138
1648383537412699339,28080,3,3,0.888992488384,-0.0,-0.0557273775339,0.404594063759,32.5999984741,0.2973219024695652,-0.0,-0.01863791890765886,32.5999984741,0.05467487348094594,0.4204766668630297,0.8907374388729724
1648383537607391022,28081,5,0,0.00780410459265,0.0454158857465,0.00862052850425,0.0,37.7999992371,0.0026100684256354515,0.015189259446989964,0.0028831199010869563,37.7999992371,0.0,0.01563133125875631,0.046880915502203545
1648383537607415705,28082,5,1,0.0316167213023,0.0161153152585,-0.0306349415332,0.0,37.7999992371,0.010574154281705684,0.005389737544648829,-0.010245799843879598,37.7999992371,0.0,0.01589574623434919,0.04688091396859425
1648383537607442707,28083,5,2,1.00516068935,0.193383783102,-0.12649038434,0.0,37.7999992371,0.3361741435953177,0.06467685053578595,-0.04230447636789298,37.7999992371,0.0,0.4798012136701188,1.0313801996896632
1648383537607701829,28084,5,3,0.93571805954,-0.0293005723506,-0.0519734919071,0.242756426334,37.7999992371,0.31294918379264214,-0.009799522525284281,-0.017382438764916387,37.7999992371,0.03280492247756756,0.44268545708514684,0.9376182881910917
1648383537712642389,28085,6,0,0.00782407168299,0.0454158857465,0.00860241055489,0.0,28.8999996185,0.002616746382270903,0.015189259446989964,0.002877060386250836,28.8999996185,0.0,0.01563356407880908,0.04688091555414197
1648383537712688703,28086,6,1,0.0316940024495,0.0161153152585,-0.0305549837649,0.0,28.8999996185,0.010600000819230768,0.005389737544648829,-0.01021905811535117,28.8999996185,0.0,0.01593013827735287,0.046880915200356935
1648383537712719016,28087,6,2,1.01266932487,0.193383783102,-0.0291296262294,0.0,28.8999996185,0.33868539293311034,0.06467685053578595,-0.009742349909498328,28.8999996185,0.0,0.48332047935892297,1.03138013565502
1648383537712726599,28088,6,3,0.936976253986,-0.0293005723506,0.0185753535479,0.161837622523,28.8999996185,0.3133699846107023,-0.009799522525284281,0.006212492825384615,28.8999996185,0.021869948989594594,0.4432804136791374,0.9376182953809825
