%time,field.header.seq,field.header.frame_id,field.point_id,field.x,field.y,field.z,field.velocity,field.intensity,normalized_x,normalized_y,normalized_z,normalized_intensity,normalized_velocity,normalized_range,range
1648383963913119392,38819,0,0,0.00782809499651,0.0454158857465,0.00859874952585,0.0,11.3999996185,0.0026180919720769228,0.015189259446989964,0.0028758359618227423,11.3999996185,0.0,0.01563401463784914,0.04688091555016638
1648383963913126053,38820,0,1,0.0316235758364,0.0161153152585,-0.0306278709322,0.0,11.3999996185,0.010576446768026755,0.005389737544648829,-0.01024343509438127,11.3999996185,0.0,0.015898796283807286,0.04688091735878135
1648383963913130028,38821,0,2,0.907631576061,-0.205104008317,0.115175463259,0.0809188112617,11.3999996185,0.3035557110571906,-0.06859665829999999,0.0385202218257525,11.3999996185,0.010934974494824324,0.4347385892243753,0.937618322894556
1648383963913132493,38822,0,3,0.320660978556,-0.0205104015768,0.0667013600469,0.242756426334,11.3999996185,0.10724447443344481,-0.006859666079197324,0.022308147172876252,11.3999996185,0.03280492247756756,0.15182163749521901,0.32816643821914404
1648383963913135697,38823,0,4,0.656290471554,-0.0,0.0074581601657,0.485512852669,11.3999996185,0.21949514098795986,-0.0,0.0024943679483946488,11.3999996185,0.06560984495527027,0.31041300526016746,0.6563328478795106
1648383964018092113,38824,1,0,0.007848078385,0.0454158857465,0.00858051422983,0.0,14.8000001907,0.002624775379598662,0.015189259446989964,0.00286973720061204,14.8000001907,0.0,0.015636255758162455,0.046880915487270094
1648383964018100201,38825,1,1,0.031545933336,0.0161153152585,-0.0307078305632,0.0,14.8000001907,0.010550479376588626,0.005389737544648829,-0.010270177445886286,14.8000001907,0.0,0.015864252297282753,0.04688091460091621
1648383964018108378,38826,1,2,0.818731606007,-0.22268435359,0.271115154028,0.0809188112617,14.8000001907,0.27382327960100333,-0.07447637243812709,0.09067396455785953,14.8000001907,0.010934974494824324,0.3943413584122785,0.89073744209628
1648383964018139482,38827,1,3,0.353529661894,-0.105482056737,0.0674596652389,0.404594063759,14.8000001907,0.11823734511505016,-0.035278279845150494,0.022561760949464882,14.8000001907,0.05467487348094594,0.17089381670658452,0.37504732043636585
1648383964018143849,38828,1,4,0.195509389043,0.0351606868207,0.318119943142,0.404594063759,14.8000001907,0.06538775553277591,0.011759427030334446,0.10639462981337791,14.8000001907,0.05467487348094594,0.09321695806724169,0.3750473214493603
1648383964018156653,38829,1,5,0.708215177059,0.210964113474,0.128714546561,-0.647350490093,14.8000001907,0.23686126323043474,0.07055655969030099,0.04304834333143813,14.8000001907,-0.08747979595851352,0.34232257324571164,0.7500946798151453
1648383964018218311,38830,1,6,0.282750695944,-0.046880915761,-0.693178355694,-0.647350490093,14.8000001907,0.09456545014849498,-0.015679236040468225,-0.23183222598461536,14.8000001907,-0.08747979595851352,0.13465172544898077,0.7500946667734972
1648383964213173977,38831,3,0,0.00782809499651,0.0454158857465,0.00859874952585,0.0,18.6000003815,0.0026180919720769228,0.015189259446989964,0.0028758359618227423,18.6000003815,0.0,0.01563401463784914,0.04688091555016638
1648383964213177706,38832,3,1,0.0317173525691,0.0161153152585,-0.0305307433009,0.0,18.6000003815,0.010607810223779263,0.005389737544648829,-0.010210950936755852,18.6000003815,0.0,0.015940531555993637,0.04688091430826501
1648383964213192769,38833,3,2,0.85195851326,-0.22268435359,0.134132504463,0.0809188112617,18.6000003815,0.2849359576120401,-0.07447637243812709,0.04486036938561873,18.6000003815,0.010934974494824324,0.40978498012021286,0.8907374239378867
1648383964213303863,38834,3,3,0.271528929472,-0.594801664352,0.0570597313344,0.485512852669,18.6000003815,0.09081235099397994,-0.1989303225257525,0.01908352218541806,18.6000003815,0.06560984495527027,0.2367847955556005,0.6563328365974641
1648383964213310788,38835,3,4,0.465686947107,-0.0,0.0540156774223,0.566431701183,18.6000003815,0.15574814284515048,-0.0,0.018065443953946488,18.6000003815,0.07654482448418919,0.22026113592603394,0.46880915745453156
1648383964213314585,38836,3,5,1.21127009392,0.316446185112,-0.18680909276,-0.647350490093,18.6000003815,0.40510705482274245,0.10583484451906354,-0.062477957444816046,18.6000003815,-0.08747979595851352,0.5826014641662749,1.2657847627597347
1648383964213352772,38837,3,6,0.796570599079,-0.158223092556,0.970902502537,-0.647350490093,18.6000003815,0.26641157159832773,-0.05291742225953177,0.32471655603244143,18.6000003815,-0.08747979595851352,0.3804609106617596,1.265784711460709
1648383964513113705,38838,6,0,0.0077650481835,0.0454158857465,0.00865572597831,0.0,12.6999998093,0.002597006081438127,0.015189259446989964,0.002894891631541806,12.6999998093,0.0,0.015626979353733948,0.04688091555892236
1648383964513117235,38839,6,1,0.0316999517381,0.0161153152585,-0.0305488090962,0.0,12.6999998093,0.010601990547859532,0.005389737544648829,-0.01021699300876254,12.6999998093,0.0,0.015932786258341724,0.046880913635239496
1648383964513121861,38840,6,2,0.885534107685,-0.234404578805,0.200029835105,0.0809188112617,12.6999998093,0.29616525340635447,-0.07839618020234114,0.06689961040301003,12.6999998093,0.010934974494824324,0.4261146274429197,0.937618311132175
1648383964513127904,38841,6,3,0.394704580307,-0.0615312047303,-0.520763874054,-0.647350490093,12.6999998093,0.13200822083846153,-0.020578998237558526,-0.17416851975050168,12.6999998093,-0.08747979595851352,0.18781862502513827,0.6563328480204366
1648383964513327800,38842,6,4,0.606775820255,0.184593617916,0.168881848454,-0.647350490093,12.6999998093,0.20293505694147154,0.061736995958528426,0.0564822235632107,12.6999998093,-0.08747979595851352,0.29355873576110786,0.6563328260560233
