%time,field.header.seq,field.header.frame_id,field.point_id,field.x,field.y,field.z,field.velocity,field.intensity,normalized_x,normalized_y,normalized_z,normalized_intensity,normalized_velocity,normalized_range,range
1648383137502326178,19503,0,0,0.00780487013981,0.0454158857465,0.00861983560026,0.0,13.8999996185,0.0026103244614749162,0.015189259446989964,0.0028828881606220735,13.8999996185,0.0,0.015631416766765657,0.046880915539416985
1648383137502439183,19504,0,1,0.0317215062678,0.0161153152585,-0.0305264294147,0.0,13.8999996185,0.010609199420668895,0.005389737544648829,-0.010209508165451504,13.8999996185,0.0,0.015942380483956582,0.04688091550502805
1648383137502444858,19505,0,2,0.118585385382,0.123062409461,0.633692324162,-0.161837622523,13.8999996185,0.039660664007357856,0.041157996475250834,0.21193723216120403,13.8999996185,-0.021869948989594594,0.06956951353046693,0.656332851494104
1648383137502468171,19506,0,3,0.542229175568,0.369187235832,0.0214735474437,-0.161837622523,13.8999996185,0.1813475503571906,0.12347399191705685,0.00718178844270903,13.8999996185,-0.021869948989594594,0.28463958741018613,0.6563328478586475
1648383137802285861,19507,3,0,0.00770498206839,0.0454158857465,0.00870923697948,0.0,25.1000003815,0.0025769170797290968,0.015189259446989964,0.0029127882874515044,25.1000003815,0.0,0.015620326687351098,0.0468809154729096
1648383137802293088,19508,3,1,0.0317043736577,0.0161153152585,-0.0305442232639,0.0,25.1000003815,0.010603469450735785,0.005389737544648829,-0.010215459285585284,25.1000003815,0.0,0.01593475445639409,0.04688091583686132
1648383137802298418,19509,3,2,0.88910984993,-0.0,-0.0538223274052,0.0,25.1000003815,0.2973611538227424,-0.0,-0.01800077839638796,25.1000003815,0.0,0.4205321766590345,0.8907374294200618
