%time,field.header.seq,field.header.frame_id,field.point_id,field.x,field.y,field.z,field.velocity,field.intensity,normalized_x,normalized_y,normalized_z,normalized_intensity,normalized_velocity,normalized_range,range
1648383196903312514,20275,0,0,0.00772531237453,0.0454158857465,0.00869120843709,0.0,16.1000003815,0.0025837165132207357,0.015189259446989964,0.00290675867461204,16.1000003815,0.0,0.015622572918356083,0.04688091545096098
1648383196903318252,20276,0,1,0.0317044146359,0.0161153152585,-0.0305441785604,0.0,16.1000003815,0.010603483155819398,0.005389737544648829,-0.01021544433458194,16.1000003815,0.0,0.01593477269595298,0.0468809144238411
1648383196903327705,20277,0,2,0.411708414555,0.0922968015075,0.000958693155553,0.0,16.1000003815,0.13769512192474917,0.03086849548745819,0.0003206331623923077,16.1000003815,0.0,0.1971617539417884,0.42192823711677924
1648383196903348947,20278,0,3,0.793692350388,0.0498109720647,0.0523576363921,0.0,16.1000003815,0.2654489466180602,0.016659187981505015,0.017510915181304345,16.1000003815,0.0,0.37577096091299905,0.7969755341859783
1648383197203685868,20279,3,0,0.00772531237453,0.0454158857465,0.00869120843709,0.0,11.8000001907,0.0025837165132207357,0.015189259446989964,0.00290675867461204,11.8000001907,0.0,0.015622572918356083,0.04688091545096098
1648383197203720264,20280,3,1,0.031780462712,0.0161153152585,-0.0304650459439,0.0,11.8000001907,0.010628917294983277,0.005389737544648829,-0.010188978576555183,11.8000001907,0.0,0.01596862663247489,0.04688091531138874
1648383197203735749,20281,3,2,0.79340749979,0.0747164562345,0.00959216803312,0.0,11.8000001907,0.26535367885953176,0.024988781349331104,0.0032080829542207355,11.8000001907,0.0,0.37609784493120896,0.7969755449465413
1648383197503987777,20282,6,0,0.795409679413,0.0498109720647,-0.00350349629298,0.0,16.0,0.266023304151505,0.016659187981505015,-0.0011717378906287625,16.0,0.0,0.376582428224647,0.7969755112474891
1648383197504017359,20283,6,1,0.450541198254,0.102552004158,0.0792322456837,0.0809188112617,16.0,0.15068267500133778,0.034298329149832774,0.02649907882397993,16.0,0.010934974494824324,0.2158400159228771,0.46880916547893425
