%time,field.header.seq,field.header.frame_id,field.point_id,field.x,field.y,field.z,field.velocity,field.intensity,normalized_x,normalized_y,normalized_z,normalized_intensity,normalized_velocity,normalized_range,range
1648383227803847078,20710,0,0,0.00770498206839,0.0454158857465,0.00870923697948,0.0,17.1000003815,0.0025769170797290968,0.015189259446989964,0.0029127882874515044,17.1000003815,0.0,0.015620326687351098,0.0468809154729096
1648383227803856741,20711,0,1,0.031780462712,0.0161153152585,-0.0304650459439,0.0,17.1000003815,0.010628917294983277,0.005389737544648829,-0.010188978576555183,17.1000003815,0.0,0.01596862663247489,0.04688091531138874
1648383227803863814,20712,0,2,0.788063526154,0.0996219441295,0.0648176148534,0.0,17.1000003815,0.26356639670702336,0.033318375963043476,0.02167813205799331,17.1000003815,0.0,0.37422534003333174,0.7969755179437453
1648383227803921365,20713,0,3,0.257986187935,0.096691891551,0.435924381018,-0.485512852669,17.1000003815,0.08628300599832775,0.032338425267892976,0.1457941073638796,17.1000003815,-0.06560984495527027,0.12623505058826578,0.5156900823390633
1648383227803928067,20714,0,4,0.436719805002,0.273960351944,0.0125613193959,-0.485512852669,17.1000003815,0.14606013545217392,0.09162553576722407,0.004201110165852843,17.1000003815,-0.06560984495527027,0.2259698323698224,0.5156900709372162
1648383227803956994,20715,0,5,0.291476279497,0.032230630517,-0.42419219017,-0.161837622523,17.1000003815,0.0974837055173913,0.010779475089297658,-0.14187029771571905,17.1000003815,-0.021869948989594594,0.13828355927587244,0.5156900709284192
1648383227803963758,20716,0,6,0.461674749851,0.225614413619,0.0434836558998,-0.161837622523,17.1000003815,0.15440627085317724,0.07545632562508361,0.0145430287290301,17.1000003815,-0.021869948989594594,0.2310330063744315,0.5156900877591509
1648383227909113470,20717,1,0,0.00768462568521,0.0454158857465,0.00872720405459,0.0,18.0,0.002570108924819398,0.015189259446989964,0.0029187973426722403,18.0,0.0,0.01561808318324776,0.04688091552723115
1648383227909143655,20718,1,1,0.031780462712,0.0161153152585,-0.0304650459439,0.0,18.0,0.010628917294983277,0.005389737544648829,-0.010188978576555183,18.0,0.0,0.01596862663247489,0.04688091531138874
1648383227909146215,20719,1,2,0.371255099773,0.123062409461,-0.527065575123,0.0,18.0,0.12416558520836118,0.041157996475250834,-0.1762761120812709,18.0,0.0,0.1803556646577156,0.6563328623568576
1648383227909183523,20720,1,3,0.537111878395,0.34867683053,0.143903061748,0.0,18.0,0.1796360797307692,0.11661432459197323,0.04812811429698996,18.0,0.0,0.27953021837025177,0.6563328372418221
1648383227909206084,20721,1,4,0.790590107441,0.0996219441295,-0.0145878698677,-0.0809188112617,18.0,0.264411407170903,0.033318375963043476,-0.004878886243377926,18.0,-0.010934974494824324,0.37541563454524485,0.7969755678080666
1648383228103831027,20722,3,0,0.00780487013981,0.0454158857465,0.00861983560026,0.0,21.0,0.0026103244614749162,0.015189259446989964,0.0028828881606220735,21.0,0.0,0.015631416766765657,0.046880915539416985
1648383228103833320,20723,3,1,0.031780462712,0.0161153152585,-0.0304650459439,0.0,21.0,0.010628917294983277,0.005389737544648829,-0.010188978576555183,21.0,0.0,0.01596862663247489,0.04688091531138874
1648383228103841080,20724,3,2,0.790507018566,0.0996219441295,0.0185511726886,0.0,21.0,0.2643836182494983,0.033318375963043476,0.006204405581471572,21.0,0.0,0.3753764901724768,0.7969755480329179
1648383228103884496,20725,3,3,0.201194062829,0.862901866436,-0.0912933275104,0.242756426334,21.0,0.06728898422374581,0.28859594195183946,-0.030532885454983272,21.0,0.03280492247756756,0.30388029305434816,0.8907374212776137
