%time,field.header.seq,field.header.frame_id,field.point_id,field.x,field.y,field.z,field.velocity,field.intensity,normalized_x,normalized_y,normalized_z,normalized_intensity,normalized_velocity,normalized_range,range
1648383985918237782,39295,0,0,0.00779639929533,0.0454158857465,0.00862749759108,0.0,30.6000003815,0.002607491403120401,0.015189259446989964,0.0028854506993578593,30.6000003815,0.0,0.015630471054407395,0.04688091546456249
1648383985918243907,39296,0,1,0.0316909812391,0.0161153152585,-0.030558116734,0.0,30.6000003815,0.010598990380969897,0.005389737544648829,-0.010220105931103679,30.6000003815,0.0,0.01592879358244001,0.04688091483862705
1648383985918258252,39297,0,2,0.21490432322,-0.0131852570921,-0.362857699394,0.0809188112617,30.6000003815,0.07187435559197324,-0.004409784980635451,-0.12135709009832775,30.6000003815,0.010934974494824324,0.10174130030178632,0.42192822748986286
1648383985918275361,39298,0,3,0.377348780632,0.145037829876,0.120811268687,0.0809188112617,30.6000003815,0.1262036055625418,0.048507635410033445,0.04040510658428093,30.6000003815,0.010934974494824324,0.18495321248100555,0.4219282367670589
1648383985918303230,39299,0,4,0.827949285507,-0.293005734682,0.328292101622,0.0809188112617,30.6000003815,0.2769061155541806,-0.09799522899063544,0.10979668950568561,30.6000003815,0.010934974494824324,0.40367940072232755,0.9376183039571486
1648383985918306287,39300,0,5,0.848564088345,0.0293005723506,-0.397754400969,0.0809188112617,30.6000003815,0.28380069844314376,0.009799522525284281,-0.13302822774882941,30.6000003815,0.010934974494824324,0.4014744120306499,0.9376183120327065
1648383985918317212,39301,0,6,1.07764804363,-0.0336956568062,0.013642238453,0.323675245047,30.6000003815,0.36041740589632104,-0.011269450436856187,0.004562621556187291,30.6000003815,0.04373989797932432,0.5098317501482382,1.0782610138074993
1648383986113752643,39302,2,0,0.00781654473394,0.0454158857465,0.00860925018787,0.0,17.6000003815,0.002614229008006689,0.015189259446989964,0.002879347888919732,17.6000003815,0.0,0.015632721745127465,0.04688091550422375
1648383986113800875,39303,2,1,0.0315870009363,0.0161153152585,-0.0306655857712,0.0,17.6000003815,0.010564214359966554,0.005389737544648829,-0.010256048752909698,17.6000003815,0.0,0.015882522497602334,0.046880914717201114
1648383986113828465,39304,2,2,0.903866827488,-0.175803437829,0.176765322685,0.0,17.6000003815,0.3022965978220735,-0.05879713639765886,0.05911883701839465,17.6000003815,0.0,0.4315362897349026,0.9376182964776493
1648383986113852237,39305,2,3,0.159883216023,0.0703213736415,0.729475319386,0.161837622523,17.6000003815,0.0534726474993311,0.023518854060702338,0.2439716787244147,17.6000003815,0.021869948989594594,0.07919459929505329,0.7500946473279165
1648383986113864004,39306,2,4,0.6533883214,0.351606875658,0.109992228448,0.161837622523,17.6000003815,0.21852452220735785,0.11759427279531771,0.03678669847759197,17.6000003815,0.021869948989594594,0.33065744601651975,0.7500946499414903
1648383986113900636,39307,2,5,0.852551102638,-0.22268435359,0.130312919617,-0.0809188112617,17.6000003815,0.28513414803946485,-0.07447637243812709,0.04358291625986622,17.6000003815,-0.010934974494824324,0.4100605989459674,0.8907374253741517
1648383986219088560,39308,3,0,0.00781654473394,0.0454158857465,0.00860925018787,0.0,24.6000003815,0.002614229008006689,0.015189259446989964,0.002879347888919732,24.6000003815,0.0,0.015632721745127465,0.04688091550422375
1648383986219132398,39309,3,1,0.0316134914756,0.0161153152585,-0.0306382775307,0.0,24.6000003815,0.010573074072107022,0.005389737544648829,-0.010246915562107023,24.6000003815,0.0,0.015894309090637465,0.046880915938224514
1648383986219188890,39310,3,2,0.892135202885,-0.205104008317,0.202867478132,0.0,24.6000003815,0.2983729775535117,-0.06859665829999999,0.06784865489364549,24.6000003815,0.0,0.42750247835331173,0.937618306208874
1648383986219206409,39311,3,3,0.487659931183,-0.0,-0.74538642168,-0.323675245047,24.6000003815,0.16309696695083611,-0.0,-0.24929311761872908,24.6000003815,-0.04373989797932432,0.23065394264378888,0.8907374058084252
1648383986219277315,39312,3,4,0.802911520004,0.361862063408,0.133424505591,-0.323675245047,24.6000003815,0.26853228093779263,0.12102410147424747,0.04462358046521739,24.6000003815,-0.04373989797932432,0.39857998563519986,0.8907374251603173
1648383986413924397,39313,5,0,0.00779639929533,0.0454158857465,0.00862749759108,0.0,40.5,0.002607491403120401,0.015189259446989964,0.0028854506993578593,40.5,0.0,0.015630471054407395,0.04688091546456249
1648383986413985900,39314,5,1,0.0316134914756,0.0161153152585,-0.0306382775307,0.0,40.5,0.010573074072107022,0.005389737544648829,-0.010246915562107023,40.5,0.0,0.015894309090637465,0.046880915938224514
1648383986414039267,39315,5,2,0.939676225185,-0.24612480402,0.160218164325,0.0809188112617,40.5,0.3142729850117057,-0.08231598796655518,0.05358467034280936,40.5,0.010934974494824324,0.4520076770268904,0.9844992064554887
1648383986414074031,39316,5,3,0.954021394253,-0.184593603015,0.15813614428,0.0809188112617,40.5,0.31907070041906355,-0.06173699097491638,0.05288834256856187,40.5,0.010934974494824324,0.4554378989351463,0.9844991920231537
