%time,field.header.seq,field.header.frame_id,field.point_id,field.x,field.y,field.z,field.velocity,field.intensity,normalized_x,normalized_y,normalized_z,normalized_intensity,normalized_velocity,normalized_range,range
1648383888512664410,37546,0,0,0.00777089362964,0.0454158857465,0.00865047797561,0.0,12.5,0.002598961080147157,0.015189259446989964,0.0028931364466923074,12.5,0.0,0.015627629376850898,0.046880915468331404
1648383888512674975,37547,0,1,0.0316766984761,0.0161153152585,-0.030572924763,0.0,12.5,0.01059421353715719,0.005389737544648829,-0.01022505844916388,12.5,0.0,0.015922436740083677,0.04688091659503532
1648383888512680090,37548,0,2,0.239770576358,0.934688270092,0.364160597324,0.0,12.5,0.08019082821337792,0.31260477260602004,0.12179284191438126,12.5,0.0,0.33254004528049924,1.0313801589026208
1648383888512688773,37549,0,3,0.857921302319,0.263705164194,0.271217137575,0.0809188112617,12.5,0.28693020144448156,0.0881957070882943,0.09070807276755852,12.5,0.010934974494824324,0.41525457703768387,0.9376183180322843
1648383888512693732,37550,0,4,0.838267087936,0.0527410283685,-0.0813659504056,0.161837622523,12.5,0.2803568855973244,0.017639139922575247,-0.027212692443344483,12.5,0.021869948989594594,0.39687668848254454,0.8438564716084572
1648383888512695666,37551,0,5,0.265932202339,-0.079111546278,-0.317875534296,-0.161837622523,12.5,0.0889405358993311,-0.026458711129765885,-0.10631288772441472,12.5,-0.021869948989594594,0.12853365803076175,0.42192822647854983
1648383888512700107,37552,0,6,0.396358460188,0.0922968015075,0.111376404762,-0.161837622523,12.5,0.132561357922408,0.03086849548745819,0.03724963369966555,12.5,-0.021869948989594594,0.18999445055612746,0.4219282309455319
1648383888617627542,37553,1,0,0.0077766450122,0.0454158857465,0.008645308204,0.0,31.5,0.002600884619464883,0.015189259446989964,0.0028914074260869564,31.5,0.0,0.015628269390931034,0.046880915517159706
1648383888617633706,37554,1,1,0.0317032895982,0.0161153152585,-0.0305453501642,0.0,31.5,0.010603106889030099,0.005389737544648829,-0.010215836175317725,31.5,0.0,0.015934271938202644,0.046880916947962654
1648383888617638634,37555,1,2,0.530483305454,0.483459472656,0.740674972534,0.0,31.5,0.1774191657036789,0.16169213132307692,0.24771738211839464,31.5,0.0,0.2984953367303719,1.0313801500923223
1648383888617646049,37556,1,3,0.866999030113,0.175803437829,0.310699015856,0.0809188112617,31.5,0.2899662308070234,0.05879713639765886,0.10391271433311036,31.5,0.010934974494824324,0.4142679486340076,0.9376182834305572
1648383888617670682,37557,1,4,0.694777548313,0.498109728098,-0.385096043348,0.0809188112617,31.5,0.23236707301438125,0.1665918823070234,-0.1287946633270903,31.5,0.010934974494824324,0.36843149769412864,0.9376183154503602
1648383888617675357,37558,1,5,0.380067259073,-0.105482056737,-0.401134073734,0.161837622523,31.5,0.12711279567658862,-0.035278279845150494,-0.1341585530882943,31.5,0.021869948989594594,0.18319356614867532,0.5625710006951697
1648383888617683781,37559,1,6,0.525906920433,0.105482056737,0.169651344419,0.161837622523,31.5,0.175888602151505,0.035278279845150494,0.056739580073244145,31.5,0.021869948989594594,0.2512332735973752,0.562571001666424
1648383888617852605,37560,1,7,0.888720393181,0.0556710883975,-0.0221368279308,0.242756426334,31.5,0.2972309007294314,0.018619093109531772,-0.007403621381538461,31.5,0.03280492247756756,0.42076013038913235,0.8907374733837078
1648383888812663511,37561,3,0,0.00779683841392,0.0454158857465,0.00862710084766,0.0,26.0,0.0026076382655250835,0.015189259446989964,0.0028853180092508358,26.0,0.0,0.01563052005518803,0.046880915481970015
1648383888812686446,37562,3,1,0.0316766984761,0.0161153152585,-0.030572924763,0.0,26.0,0.01059421353715719,0.005389737544648829,-0.01022505844916388,26.0,0.0,0.015922436740083677,0.04688091659503532
1648383888812829615,37563,3,2,0.913653075695,0.205104008317,0.0479422472417,0.0,26.0,0.3055695905334448,0.06859665829999999,0.016034196401906353,26.0,0.0,0.43755119797285574,0.9376182890842188
1648383888812840683,37564,3,3,0.77004301548,0.124527432024,0.163391143084,-0.485512852669,26.0,0.25753947006020067,0.04164797057658863,0.05464586725217391,26.0,-0.06560984495527027,0.36658929434849347,0.7969755282656549
1648383888812842263,37565,3,4,0.251752316952,-0.174338400364,-0.735796809196,-0.485512852669,26.0,0.08419809931505016,-0.058307157312374576,-0.24608588936321069,26.0,-0.06560984495527027,0.13258342449335098,0.796975565092929
1648383889113189316,37566,6,0,0.00784974731505,0.0454158857465,0.00857898779213,0.0,30.5,0.0026253335501839467,0.015189259446989964,0.0028692266863311034,30.5,0.0,0.01563644317123996,0.0468809155476596
1648383889113208929,37567,6,1,0.0316766984761,0.0161153152585,-0.030572924763,0.0,30.5,0.01059421353715719,0.005389737544648829,-0.01022505844916388,30.5,0.0,0.015922436740083677,0.04688091659503532
1648383889113226260,37568,6,2,0.876456558704,0.175803437829,0.28292247653,0.0809188112617,30.5,0.2931292838474916,0.05879713639765886,0.09462290184949833,30.5,0.010934974494824324,0.41869637847305474,0.937618299615372
