%time,field.header.seq,field.header.frame_id,field.point_id,field.x,field.y,field.z,field.velocity,field.intensity,normalized_x,normalized_y,normalized_z,normalized_intensity,normalized_velocity,normalized_range,range
1648383495907052809,27053,0,0,0.00769781274721,0.0454158857465,0.0087155746296,0.0,13.3999996185,0.00257451931344816,0.015189259446989964,0.0029149079028762542,13.3999996185,0.0,0.015619535906633368,0.04688091552385018
1648383495907094890,27054,0,1,0.0317368544638,0.0161153152585,-0.0305104702711,0.0,13.3999996185,0.010614332596588628,0.005389737544648829,-0.01020417065923077,13.3999996185,0.0,0.015949212637061585,0.04688091416878453
1648383495907099028,27055,0,2,0.998973548412,0.210964113474,0.472747802734,0.0,13.3999996185,0.3341048656896321,0.07055655969030099,0.15810963302140468,13.3999996185,0.0,0.47773460275586616,1.1251419877466835
1648383495907120777,27056,0,3,0.739301204681,-0.0,0.126790091395,0.242756426334,13.3999996185,0.2472579279869565,-0.0,0.04240471284113712,13.3999996185,0.03280492247756756,0.34967551516342393,0.7500946597055136
1648383495907124102,27057,0,4,0.339440613985,-0.656332850456,-0.129031971097,0.242756426334,13.3999996185,0.11352528895819396,-0.21950931453377925,-0.043154505383612034,13.3999996185,0.03280492247756756,0.27195647010720764,0.7500946544106208
1648383495907129648,27058,0,5,0.609154224396,0.0190453715622,0.000202921990422,0.323675245047,13.3999996185,0.20373050983143812,0.006369689485685618,6.786688642876254e-05,13.3999996185,0.04373989797932432,0.28818885165200175,0.609451914801134
1648383496012163258,27059,1,0,0.00779817998409,0.0454158857465,0.00862588826567,0.0,28.7000007629,0.002608086951200669,0.015189259446989964,0.002884912463434782,28.7000007629,0.0,0.01563066977573323,0.04688091549420965
1648383496012182999,27060,1,1,0.0316260531545,0.0161153152585,-0.0306253097951,0.0,28.7000007629,0.01057727530250836,0.005389737544648829,-0.010242578526789297,28.7000007629,0.0,0.01589989863018956,0.046880915350043566
1648383496012187442,27061,1,2,0.51242607832,1.14711737633,-0.154117584229,0.0,28.7000007629,0.1713799593043478,0.3836512964314381,-0.05154434255150501,28.7000007629,0.0,0.45379565682787554,1.2657847331158725
1648383496012189052,27062,1,3,0.258541345596,-0.0615312047303,-0.600119233131,-0.485512852669,28.7000007629,0.08646867745685619,-0.020578998237558526,-0.20070877362240802,28.7000007629,-0.06560984495527027,0.12400467543902163,0.6563328503982503
1648383496012200928,27063,1,4,0.62741458416,0.184593617916,0.0552171580493,-0.485512852669,28.7000007629,0.20983765356521736,0.061736995958528426,0.018467276939565215,28.7000007629,-0.06560984495527027,0.3031091195881373,0.656332841426532
1648383496207237275,27064,3,0,0.00779817998409,0.0454158857465,0.00862588826567,0.0,38.9000015259,0.002608086951200669,0.015189259446989964,0.002884912463434782,38.9000015259,0.0,0.01563066977573323,0.04688091549420965
1648383496207240255,27065,3,1,0.0317103527486,0.0161153152585,-0.0305380169302,0.0,38.9000015259,0.010605469146688962,0.005389737544648829,-0.010213383588695652,38.9000015259,0.0,0.01593741580190905,0.046880916537016086
1648383496207252124,27066,3,2,0.540488362312,-0.98449921608,-0.0676620304585,0.0,38.9000015259,0.18076533856588628,-0.3292639518662207,-0.022629441624916386,38.9000015259,0.0,0.4168536496808441,1.1251420028701307
1648383496207376250,27067,3,3,0.522000968456,1.14711737633,0.117676399648,0.0,38.9000015259,0.17458226369765883,0.3836512964314381,0.03935665540066889,38.9000015259,0.0,0.45623047996502925,1.265784745200123
1648383496207401146,27068,3,4,0.337118595839,-0.139177724719,-0.812646150589,-0.404594063759,38.9000015259,0.1127486942605351,-0.04654773401973244,-0.27178801023043475,38.9000015259,-0.05467487348094594,0.1661060735111242,0.890737420784339
1648383496207404074,27069,3,5,0.864331126213,0.194848805666,0.0915357545018,-0.404594063759,38.9000015259,0.2890739552551839,0.06516682463745818,0.03061396471632107,38.9000015259,-0.05467487348094594,0.4139736926992842,0.8907374176278402
1648383496312301782,27070,4,0,0.00777206942439,0.0454158857465,0.00864942185581,0.0,40.7000007629,0.0025993543225384616,0.015189259446989964,0.0028927832293678926,40.7000007629,0.0,0.015627760182962004,0.046880915517046415
1648383496312310890,27071,4,1,0.0316167213023,0.0161153152585,-0.0306349415332,0.0,40.7000007629,0.010574154281705684,0.005389737544648829,-0.010245799843879598,40.7000007629,0.0,0.01589574623434919,0.04688091396859425
1648383496312348919,27072,4,2,1.03725457191,0.134782627225,0.261884540319,0.0,40.7000007629,0.34690788358193975,0.04507780174749164,0.08758680278227424,40.7000007629,0.0,0.492668415461137,1.0782610611572525
1648383496312368007,27073,4,3,0.935601890087,-0.0586011447012,-0.0185221787542,0.323675245047,40.7000007629,0.3129103311327759,-0.019599045050568562,-0.006194708613444816,40.7000007629,0.04373989797932432,0.4429558366543341,0.9376182922706128
1648383496507213267,27074,6,0,0.00783057417721,0.0454158857465,0.00859649199992,0.0,35.0,0.002618921129501672,0.015189259446989964,0.0028750809364280934,35.0,0.0,0.015634292382870243,0.04688091557114278
1648383496507343359,27075,6,1,0.0317368544638,0.0161153152585,-0.0305104702711,0.0,35.0,0.010614332596588628,0.005389737544648829,-0.01020417065923077,35.0,0.0,0.015949212637061585,0.04688091416878453
1648383496507346978,27076,6,2,1.05695557594,0.202173948288,-0.0679501965642,0.0,35.0,0.3534968481404682,0.06761670511304348,-0.02272581824889632,35.0,0.0,0.5044720627555452,1.078260925792143
1648383496507375693,27077,6,3,0.982350170612,-0.061531201005,-0.0209949202836,0.323675245047,35.0,0.3285452075625418,-0.020578996991638794,-0.007021712469431438,35.0,0.04373989797932432,0.4650885957984879,0.9844992295965792
