%time,field.header.seq,field.header.frame_id,field.point_id,field.x,field.y,field.z,field.velocity,field.intensity,normalized_x,normalized_y,normalized_z,normalized_intensity,normalized_velocity,normalized_range,range
1648383223303808738,20651,0,0,0.00770498206839,0.0454158857465,0.00870923697948,0.0,16.7000007629,0.0025769170797290968,0.015189259446989964,0.0029127882874515044,16.7000007629,0.0,0.015620326687351098,0.0468809154729096
1648383223303979370,20652,0,1,0.0316872633994,0.0161153152585,-0.0305619724095,0.0,16.7000007629,0.010597746956321069,0.005389737544648829,-0.010221395454682274,16.7000007629,0.0,0.015927138848538434,0.04688091514873442
1648383223303982288,20653,0,2,0.789937913418,0.0996219441295,0.0352652706206,0.0,16.7000007629,0.26419328207959863,0.033318375963043476,0.011794404889832777,16.7000007629,0.0,0.3751083773641899,0.7969755818839552
1648383223303988427,20654,0,3,0.356992274523,0.533270418644,0.137666240335,-0.485512852669,16.7000007629,0.11939540953946487,0.1783513105832776,0.04604222084782608,16.7000007629,-0.06560984495527027,0.24560072806277636,0.6563328554916522
1648383223304012623,20655,0,4,0.463708162308,0.316446185112,-0.0363687723875,-0.242756426334,16.7000007629,0.1550863419090301,0.10583484451906354,-0.012163469025919731,16.7000007629,-0.03280492247756756,0.2435252783754153,0.5625710048233684
1648383223304137412,20656,0,5,0.202294707298,0.0879017189145,0.517529010773,-0.242756426334,16.7000007629,0.06765709274180602,0.02939856819882943,0.1730866256765886,16.7000007629,-0.03280492247756756,0.1000961548146976,0.5625710068787647
1648383223408958903,20657,1,0,0.00770498206839,0.0454158857465,0.00870923697948,0.0,23.7999992371,0.0025769170797290968,0.015189259446989964,0.0029127882874515044,23.7999992371,0.0,0.015620326687351098,0.0468809154729096
1648383223408966080,20658,1,1,0.031780462712,0.0161153152585,-0.0304650459439,0.0,23.7999992371,0.010628917294983277,0.005389737544648829,-0.010188978576555183,23.7999992371,0.0,0.01596862663247489,0.04688091531138874
1648383223408969199,20659,1,2,0.791704893112,0.0747164562345,0.0528278276324,0.0,23.7999992371,0.26478424518795984,0.024988781349331104,0.017668169776722406,23.7999992371,0.0,0.37529432741894725,0.7969755115322452
1648383223408971869,20660,1,3,0.21058639884,0.143572807312,0.604824781418,-0.485512852669,23.7999992371,0.0704302337257525,0.0480176613083612,0.20228253559130432,23.7999992371,-0.06560984495527027,0.1105736471445739,0.6563328413184729
1648383223409060611,20661,1,4,0.528099834919,0.389697641134,-0.00436960207298,-0.485512852669,23.7999992371,0.17662201836755853,0.13033365924214046,-0.0014614053755785952,23.7999992371,-0.06560984495527027,0.28174019499515285,0.6563328275876159
1648383223604048358,20662,3,0,0.00770498206839,0.0454158857465,0.00870923697948,0.0,33.7000007629,0.0025769170797290968,0.015189259446989964,0.0029127882874515044,33.7000007629,0.0,0.015620326687351098,0.0468809154729096
1648383223604055911,20663,3,1,0.031780462712,0.0161153152585,-0.0304650459439,0.0,33.7000007629,0.010628917294983277,0.005389737544648829,-0.010188978576555183,33.7000007629,0.0,0.01596862663247489,0.04688091531138874
1648383223604060574,20664,3,2,0.7903906703,0.0996219441295,-0.0229803174734,0.0,33.7000007629,0.26434470578595315,0.033318375963043476,-0.007685724907491638,33.7000007629,0.0,0.3753216768732376,0.7969755569906788
1648383223604066075,20665,3,3,0.693651139736,0.281285494566,-0.0486677438021,0.323675245047,33.7000007629,0.23199034773779262,0.09407541624280935,-0.016276837392006686,33.7000007629,0.04373989797932432,0.34130518136744087,0.7500946489591016
