%time,field.header.seq,field.header.frame_id,field.point_id,field.x,field.y,field.z,field.velocity,field.intensity,normalized_x,normalized_y,normalized_z,normalized_intensity,normalized_velocity,normalized_range,range
1648383522007010773,27719,0,0,0.00782407168299,0.0454158857465,0.00860241055489,0.0,12.6999998093,0.002616746382270903,0.015189259446989964,0.002877060386250836,12.6999998093,0.0,0.01563356407880908,0.04688091555414197
1648383522007017626,27720,0,1,0.0317873544991,0.0161153152585,-0.0304578561336,0.0,12.6999998093,0.010631222240501672,0.005389737544648829,-0.010186573957725752,12.6999998093,0.0,0.015971695071409043,0.04688091607666568
1648383522112202062,27721,1,0,0.00772431911901,0.0454158857465,0.00869209133089,0.0,22.7999992371,0.0025833843207391303,0.015189259446989964,0.0029070539568193977,22.7999992371,0.0,0.015622463046691949,0.04688091547416686
1648383522112225895,27722,1,1,0.0317103527486,0.0161153152585,-0.0305380169302,0.0,22.7999992371,0.010605469146688962,0.005389737544648829,-0.010213383588695652,22.7999992371,0.0,0.01593741580190905,0.046880916537016086
1648383522112259610,27723,1,2,1.00331568718,0.193383783102,-0.140375852585,0.0,22.7999992371,0.3355570860133779,0.06467685053578595,-0.046948445680602,22.7999992371,0.0,0.4789365416658113,1.0313801606087265
1648383522307174446,27724,3,0,0.00782407168299,0.0454158857465,0.00860241055489,0.0,11.8000001907,0.002616746382270903,0.015189259446989964,0.002877060386250836,11.8000001907,0.0,0.01563356407880908,0.04688091555414197
1648383522307199057,27725,3,1,0.0316940024495,0.0161153152585,-0.0305549837649,0.0,11.8000001907,0.010600000819230768,0.005389737544648829,-0.01021905811535117,11.8000001907,0.0,0.01593013827735287,0.046880915200356935
1648383522307204153,27726,3,2,1.09444570541,0.24612480402,-0.0869233310223,0.0,11.8000001907,0.3660353529799331,0.08231598796655518,-0.02907134816799331,11.8000001907,0.0,0.5241561610218833,1.125141985138004
1648383522307229985,27727,3,3,1.10985541344,0.175803437829,-0.0570851117373,0.0,11.8000001907,0.3711891014849498,0.05879713639765886,-0.019092010614481604,11.8000001907,0.0,0.5282232495555015,1.1251420343568312
1648383522412140710,27728,4,0,0.00782407168299,0.0454158857465,0.00860241055489,0.0,12.8000001907,0.002616746382270903,0.015189259446989964,0.002877060386250836,12.8000001907,0.0,0.01563356407880908,0.04688091555414197
1648383522412142946,27729,4,1,0.0316940024495,0.0161153152585,-0.0305549837649,0.0,12.8000001907,0.010600000819230768,0.005389737544648829,-0.01021905811535117,12.8000001907,0.0,0.01593013827735287,0.046880915200356935
