%time,field.header.seq,field.header.frame_id,field.point_id,field.x,field.y,field.z,field.velocity,field.intensity,normalized_x,normalized_y,normalized_z,normalized_intensity,normalized_velocity,normalized_range,range
1648383170502986629,19898,0,0,0.00761736324057,0.0454158857465,0.00878597423434,0.0,21.2000007629,0.0025476131239364546,0.015189259446989964,0.0029384529211839466,21.2000007629,0.0,0.015610710035308464,0.046880915564058843
1648383170503132508,19899,0,1,0.0317215062678,0.0161153152585,-0.0305264294147,0.0,21.2000007629,0.010609199420668895,0.005389737544648829,-0.010209508165451504,21.2000007629,0.0,0.015942380483956582,0.04688091550502805
1648383170503136553,19900,0,2,0.746198534966,0.0703213736415,-0.0297421775758,0.0,21.2000007629,0.2495647274133779,0.023518854060702338,-0.009947216580535117,21.2000007629,0.0,0.35372057168640314,0.7500946248995406
1648383170503142984,19901,0,3,0.882349848747,0.111342176795,0.0497483797371,0.0,21.2000007629,0.29510028386187287,0.037238186219063545,0.016638254092675584,21.2000007629,0.0,0.4189928848842204,0.8907374681710484
1648383170503245573,19902,0,4,0.444013923407,0.146502867341,-0.0342136584222,0.404594063759,21.2000007629,0.1484996399354515,0.04899761449531772,-0.011442695124481603,21.2000007629,0.05467487348094594,0.21565030106204178,0.46880916025718067
1648383170503249746,19903,0,5,0.22352796793,0.0922968015075,-0.345745533705,-0.647350490093,21.2000007629,0.07475851770234113,0.03086849548745819,-0.11563395776086956,21.2000007629,-0.08747979595851352,0.11013871232115313,0.4219282238632363
1648383170503252079,19904,0,6,0.333842754364,0.250519871712,0.0617433227599,-0.647350490093,21.2000007629,0.11165309510501673,0.08378591027157191,0.02064994072237458,21.2000007629,-0.08747979595851352,0.1787537581509707,0.4219282269170578
1648383170607828250,19905,1,0,0.00771888298914,0.0454158857465,0.00869691930711,0.0,26.2000007629,0.0025815662171036788,0.015189259446989964,0.002908668664585284,26.2000007629,0.0,0.01562186195095053,0.04688091550059106
1648383170607835217,19906,1,1,0.0317215062678,0.0161153152585,-0.0305264294147,0.0,26.2000007629,0.010609199420668895,0.005389737544648829,-0.010209508165451504,26.2000007629,0.0,0.015942380483956582,0.04688091550502805
1648383170607838632,19907,1,2,0.745956897736,0.0703213736415,-0.0352872796357,0.0,26.2000007629,0.24948391228628763,0.023518854060702338,-0.011801765764448158,26.2000007629,0.0,0.3536065348316865,0.750094648011058
1648383170607841450,19908,1,3,0.147729381919,0.11280720681,-0.481026828289,-0.323675245047,26.2000007629,0.04940782003979933,0.03772816281270903,-0.16087853788929765,26.2000007629,-0.04373989797932432,0.07940830958654561,0.5156900675058799
1648383170607847697,19909,1,4,0.42357763648,0.290075659752,0.048727337271,-0.323675245047,26.2000007629,0.1416647613645485,0.09701527082006689,0.0162967683180602,26.2000007629,-0.04373989797932432,0.22259778075542414,0.515690077375998
1648383170802859405,19910,3,0,0.00761736324057,0.0454158857465,0.00878597423434,0.0,34.7000007629,0.0025476131239364546,0.015189259446989964,0.0029384529211839466,34.7000007629,0.0,0.015610710035308464,0.046880915564058843
1648383170802879761,19911,3,1,0.0317044146359,0.0161153152585,-0.0305441785604,0.0,34.7000007629,0.010603483155819398,0.005389737544648829,-0.01021544433458194,34.7000007629,0.0,0.01593477269595298,0.0468809144238411
1648383170802933658,19912,3,2,0.740273475647,0.0703213736415,-0.0984482318163,0.0,34.7000007629,0.2475831022230769,0.023518854060702338,-0.03292583003889632,34.7000007629,0.0,0.35092438146862026,0.7500946398189183
1648383170802944426,19913,3,3,0.595624983311,0.44536870718,-0.0975683629513,-0.566431701183,34.7000007629,0.19920568003712374,0.14895274487625418,-0.03263155951548495,34.7000007629,-0.07654482448418919,0.3186733847127436,0.7500946550458882
1648383170802947680,19914,3,4,0.405103504658,0.164083212614,0.609598100185,-0.566431701183,34.7000007629,0.13548612195919732,0.054877328633444813,0.20387896327257526,34.7000007629,-0.07654482448418919,0.19931005916668654,0.7500946566248067
1648383170802985114,19915,3,5,0.537813484669,0.606521844864,-0.234481543303,-0.566431701183,34.7000007629,0.17987073065852843,0.20285011533913042,-0.07842192083712374,34.7000007629,-0.07654482448418919,0.3253538516574904,0.8438564372799436
1648383171102786195,19916,6,0,0.00771888298914,0.0454158857465,0.00869691930711,0.0,28.8999996185,0.0025815662171036788,0.015189259446989964,0.002908668664585284,28.8999996185,0.0,0.01562186195095053,0.04688091550059106
1648383171102790881,19917,6,1,0.0317044146359,0.0161153152585,-0.0305441785604,0.0,28.8999996185,0.010603483155819398,0.005389737544648829,-0.01021544433458194,28.8999996185,0.0,0.01593477269595298,0.0468809144238411
1648383171102794106,19918,6,2,0.446391373873,-0.820416033268,-0.0823430344462,0.0,28.8999996185,0.14929477387056855,-0.27438663319999995,-0.02753947640341137,28.8999996185,0.0,0.3462165268859355,0.9376183134054243
