%time,field.header.seq,field.header.frame_id,field.point_id,field.x,field.y,field.z,field.velocity,field.intensity,normalized_x,normalized_y,normalized_z,normalized_intensity,normalized_velocity,normalized_range,range
1648383824407055739,35895,0,0,0.00783470179886,0.0454158857465,0.00859273038805,0.0,22.1000003815,0.0026203016049698995,0.015189259446989964,0.0028738228722575247,22.1000003815,0.0,0.015634754988486054,0.046880915583400455
1648383824407059781,35896,0,1,0.031666520983,0.0161153152585,-0.0305834636092,0.0,22.1000003815,0.010590809693311035,0.005389737544648829,-0.010228583146889632,22.1000003815,0.0,0.01591790723430876,0.04688091491623092
1648383824407084669,35897,0,2,0.451432645321,-0.0,-0.656794190407,0.0809188112617,22.1000003815,0.15098081783311038,-0.0,-0.21966360883177258,22.1000003815,0.010934974494824324,0.21351912023776634,0.796975559106992
1648383824512208654,35898,1,0,0.00779683841392,0.0454158857465,0.00862710084766,0.0,26.2000007629,0.0026076382655250835,0.015189259446989964,0.0028853180092508358,26.2000007629,0.0,0.01563052005518803,0.046880915481970015
1648383824512235864,35899,1,1,0.031666520983,0.0161153152585,-0.0305834636092,0.0,26.2000007629,0.010590809693311035,0.005389737544648829,-0.010228583146889632,26.2000007629,0.0,0.01591790723430876,0.04688091491623092
1648383824512242598,35900,1,2,0.379077255726,0.0205104015768,-0.535399436951,-0.0809188112617,26.2000007629,0.12678169087826086,0.006859666079197324,-0.17906335683979932,26.2000007629,-0.010934974494824324,0.17942756004198426,0.6563328419857143
1648383824512246944,35901,1,3,0.911016821861,0.175803437829,0.135165140033,-0.0809188112617,26.2000007629,0.30468790028795983,0.05879713639765886,0.04520573245250836,26.2000007629,-0.010934974494824324,0.43488680873571733,0.9376183197582866
1648383824707458768,35902,3,0,0.00777089362964,0.0454158857465,0.00865047797561,0.0,22.7999992371,0.002598961080147157,0.015189259446989964,0.0028931364466923074,22.7999992371,0.0,0.015627629376850898,0.046880915468331404
1648383824707475518,35903,3,1,0.0315726213157,0.0161153152585,-0.0306803900748,0.0,22.7999992371,0.010559405122307693,0.005389737544648829,-0.010261000025016722,22.7999992371,0.0,0.015876124964053193,0.04688091442972634
1648383824707496802,35904,3,2,0.286873221397,0.0586011447012,-0.234371855855,0.161837622523,22.7999992371,0.09594422120301002,0.019599045050568562,-0.07838523607190635,22.7999992371,0.021869948989594594,0.13709379902606264,0.37504733852128597
1648383824707514334,35905,3,3,0.331790804863,-0.922968029976,-0.0853437259793,-0.242756426334,22.7999992371,0.11096682436889631,-0.30868495985819394,-0.028543052166989963,22.7999992371,-0.03280492247756756,0.3462855420945116,0.984499199650993
1648383824707791853,35906,3,4,0.973809421062,0.0307656005025,0.141376912594,-0.242756426334,22.7999992371,0.32568876958595316,0.010289498495819397,0.047283248359197325,22.7999992371,-0.03280492247756756,0.4607083926391179,0.9844992341987873
1648383824707806782,35907,3,5,0.836801409721,0.22268435359,0.208777889609,-0.0809188112617,22.7999992371,0.27986669221438126,0.07447637243812709,0.06982538114013377,22.7999992371,-0.010934974494824324,0.4027374589898251,0.8907374067784719
1648383824812779134,35908,4,0,0.00783470179886,0.0454158857465,0.00859273038805,0.0,28.1000003815,0.0026203016049698995,0.015189259446989964,0.0028738228722575247,28.1000003815,0.0,0.015634754988486054,0.046880915583400455
1648383824812840024,35909,4,1,0.0316326804459,0.0161153152585,-0.0306184664369,0.0,28.1000003815,0.01057949178792642,0.005389737544648829,-0.010240289778227423,28.1000003815,0.0,0.015902847662660997,0.04688091664015155
1648383824812906269,35910,4,2,0.601503252983,0.41899818182,0.725520074368,0.0,28.1000003815,0.2011716565160535,0.14013317117725752,0.2426488543036789,28.1000003815,0.0,0.31713936437317364,1.031380152043147
1648383824812926051,35911,4,3,0.406327694654,0.105482056737,-0.374509632587,0.242756426334,28.1000003815,0.135895550051505,0.035278279845150494,-0.12525405772140466,28.1000003815,0.03280492247756756,0.1953964126498615,0.56257099519683
1648383824813025096,35912,4,4,0.27014529705,0.0307656023651,0.183761253953,-0.566431701183,28.1000003815,0.09034959767558529,0.01028949911876254,0.06145861336220735,28.1000003815,-0.07654482448418919,0.12818725908761475,0.3281664246407593
1648383824813176380,35913,4,5,0.132089689374,0.143572807312,-0.263879448175,-0.566431701183,28.1000003815,0.0441771536367893,0.0480176613083612,-0.08825399604515048,28.1000003815,-0.07654482448418919,0.07879681214631376,0.3281664215112677
1648383824813188774,35914,4,6,0.789315640926,0.184593603015,0.234520211816,-0.0809188112617,28.1000003815,0.2639851641892976,0.06173699097491638,0.07843485345016722,28.1000003815,-0.010934974494824324,0.37840162510055075,0.8438564504906644
1648383825007466618,35915,6,0,0.00779683841392,0.0454158857465,0.00862710084766,0.0,28.5,0.0026076382655250835,0.015189259446989964,0.0028853180092508358,28.5,0.0,0.01563052005518803,0.046880915481970015
1648383825007495203,35916,6,1,0.031666520983,0.0161153152585,-0.0305834636092,0.0,28.5,0.010590809693311035,0.005389737544648829,-0.010228583146889632,28.5,0.0,0.01591790723430876,0.04688091491623092
1648383825007503354,35917,6,2,0.799460887909,0.306190997362,0.246013313532,0.0,28.5,0.2673782233809365,0.10240501584013377,0.08227870017792642,28.5,0.0,0.39175121690418524,0.8907374408863574
1648383825007515901,35918,6,3,0.228746563196,0.0293005723506,0.0419760793447,-0.0809188112617,28.5,0.0765038672896321,0.009799522525284281,0.014038822523311035,28.5,-0.010934974494824324,0.10863569423657601,0.23440457536321027
1648383825007531854,35919,6,4,0.165249601007,0.117202289402,-0.11790548265,-0.0809188112617,28.5,0.05526742508595318,0.03919809010100334,-0.03943327178929766,28.5,-0.010934974494824324,0.08743836011059031,0.2344045863735868
