%time,field.header.seq,field.header.frame_id,field.point_id,field.x,field.y,field.z,field.velocity,field.intensity,normalized_x,normalized_y,normalized_z,normalized_intensity,normalized_velocity,normalized_range,range
1648383861812623879,37069,0,0,0.0077766450122,0.0454158857465,0.008645308204,0.0,31.3999996185,0.002600884619464883,0.015189259446989964,0.0028914074260869564,31.3999996185,0.0,0.015628269390931034,0.046880915517159706
1648383861812635599,37070,0,1,0.0315993279219,0.0161153152585,-0.0306528843939,0.0,31.3999996185,0.010568337097625417,0.005389737544648829,-0.01025180080063545,31.3999996185,0.0,0.015888007075095616,0.04688091544181289
1648383861812686450,37071,0,2,0.859564423561,0.234404578805,0.292115747929,0.0,31.3999996185,0.28747974032140466,0.07839618020234114,0.09769757455819399,31.3999996185,0.0,0.4140472959226306,0.9376183205359326
1648383861812688860,37072,0,3,0.327210694551,1.01086974144,0.183636337519,0.0,31.3999996185,0.10943501489999999,0.33808352556521737,0.06141683529063544,31.3999996185,0.0,0.3718232311609018,1.078260996811492
1648383861812712810,37073,0,4,0.379573613405,0.076181486249,-0.470692962408,-0.323675245047,31.3999996185,0.1269476967909699,0.02547875794280936,-0.1574223954541806,31.3999996185,-0.04373989797932432,0.1813300927793628,0.6094518944927925
1648383862112896368,37074,3,0,0.00779683841392,0.0454158857465,0.00862710084766,0.0,42.5999984741,0.0026076382655250835,0.015189259446989964,0.0028853180092508358,42.5999984741,0.0,0.01563052005518803,0.046880915481970015
1648383862112928816,37075,3,1,0.0316766984761,0.0161153152585,-0.030572924763,0.0,42.5999984741,0.01059421353715719,0.005389737544648829,-0.01022505844916388,42.5999984741,0.0,0.015922436740083677,0.04688091659503532
1648383862112938213,37076,3,2,0.350660562515,0.0805765762925,-0.369433134794,0.242756426334,42.5999984741,0.11727778010535116,0.026948687723244144,-0.12355623237257524,42.5999984741,0.03280492247756756,0.16803091139097928,0.5156900773081435
1648383862112997947,37077,3,3,0.269196301699,0.0263705141842,0.0771975591779,-0.566431701183,42.5999984741,0.09003220792608695,0.008819569961270902,0.025818581664849495,42.5999984741,-0.07654482448418919,0.12762986226739437,0.2812854706695379
1648383862113020289,37078,3,4,0.113517336547,0.131852582097,-0.221020907164,-0.566431701183,42.5999984741,0.037965664396989965,0.04409785354414715,-0.07392003584080267,42.5999984741,-0.07654482448418919,0.06947952240344485,0.2812854964372825
1648383862113030245,37079,3,5,0.848749697208,0.22268435359,0.153129935265,-0.0809188112617,42.5999984741,0.28386277498595314,0.07447637243812709,0.051214025172240794,42.5999984741,-0.010934974494824324,0.4082926402679754,0.8907374174911094
1648383862412960911,37080,6,0,0.00779683841392,0.0454158857465,0.00862710084766,0.0,25.7999992371,0.0026076382655250835,0.015189259446989964,0.0028853180092508358,25.7999992371,0.0,0.01563052005518803,0.046880915481970015
1648383862412998922,37081,6,1,0.0317437462509,0.0161153152585,-0.0305033028126,0.0,25.7999992371,0.010616637542107022,0.005389737544648829,-0.010201773515919731,25.7999992371,0.0,0.01595228059561233,0.04688091610025919
1648383862413028903,37082,6,2,0.511629641056,0.943478405476,-0.103587560356,0.0,25.7999992371,0.17111359232642137,0.3155446172160535,-0.03464466901538461,25.7999992371,0.0,0.39765327662642386,1.078260995245184
