%time,field.header.seq,field.header.frame_id,field.point_id,field.x,field.y,field.z,field.velocity,field.intensity,normalized_x,normalized_y,normalized_z,normalized_intensity,normalized_velocity,normalized_range,range
1648383534906743062,28015,0,0,0.00782407168299,0.0454158857465,0.00860241055489,0.0,22.7999992371,0.002616746382270903,0.015189259446989964,0.002877060386250836,22.7999992371,0.0,0.01563356407880908,0.04688091555414197
1648383534906748693,28016,0,1,0.0316167213023,0.0161153152585,-0.0306349415332,0.0,22.7999992371,0.010574154281705684,0.005389737544648829,-0.010245799843879598,22.7999992371,0.0,0.01589574623434919,0.04688091396859425
1648383534906756126,28017,0,2,1.01688838005,0.161153152585,-0.0609320439398,0.0,22.7999992371,0.3400964481772575,0.05389737544648829,-0.020378610013311035,22.7999992371,0.0,0.4839794574210683,1.0313801578697737
1648383535012230413,28018,1,0,0.00769781274721,0.0454158857465,0.0087155746296,0.0,13.5,0.00257451931344816,0.015189259446989964,0.0029149079028762542,13.5,0.0,0.015619535906633368,0.04688091552385018
1648383535012245865,28019,1,1,0.0316930636764,0.0161153152585,-0.0305559579283,0.0,13.5,0.010599686848294314,0.005389737544648829,-0.010219383922508362,13.5,0.0,0.01592972044211712,0.04688091547733712
1648383535012470581,28020,1,2,0.933964788914,-0.0,-0.0826917514205,-0.161837622523,13.5,0.3123628056568562,-0.0,-0.027656104154013376,13.5,-0.021869948989594594,0.44174771614083735,0.937618340629151
1648383535207162675,28021,3,0,0.00782407168299,0.0454158857465,0.00860241055489,0.0,25.3999996185,0.002616746382270903,0.015189259446989964,0.002877060386250836,25.3999996185,0.0,0.01563356407880908,0.04688091555414197
1648383535207176728,28022,3,1,0.0316167213023,0.0161153152585,-0.0306349415332,0.0,25.3999996185,0.010574154281705684,0.005389737544648829,-0.010245799843879598,25.3999996185,0.0,0.01589574623434919,0.04688091396859425
1648383535207313293,28023,3,2,0.975102186203,0.140642747283,0.543451726437,0.0,25.3999996185,0.32612113250936453,0.047037708121404675,0.1817564302464883,25.3999996185,0.0,0.4635973814892567,1.1251419620956886
1648383535207323953,28024,3,3,0.473587960005,-1.01965987682,0.044189337641,0.0,25.3999996185,0.15839062207525081,-0.34102337017391304,0.014779042689297658,25.3999996185,0.0,0.40800994758405534,1.1251419989580984
1648383535207328326,28025,3,4,0.88905030489,-0.0278355441988,-0.0472004003823,-0.242756426334,25.3999996185,0.29734123909364546,-0.009309546554782609,-0.01578608708438127,25.3999996185,-0.03280492247756756,0.4206070524712401,0.8907374135748957
1648383535312102980,28026,4,0,0.00780410459265,0.0454158857465,0.00862052850425,0.0,27.7999992371,0.0026100684256354515,0.015189259446989964,0.0028831199010869563,27.7999992371,0.0,0.01563133125875631,0.046880915502203545
1648383535312129491,28027,4,1,0.0316167213023,0.0161153152585,-0.0306349415332,0.0,27.7999992371,0.010574154281705684,0.005389737544648829,-0.010245799843879598,27.7999992371,0.0,0.01589574623434919,0.04688091396859425
1648383535312151365,28028,4,2,1.04780447483,0.235869601369,0.0954886823893,0.0,27.7999992371,0.3504362792073578,0.07888615430401337,0.03193601417702341,27.7999992371,0.0,0.5018308449171603,1.078260995672285
1648383535312164722,28029,4,3,0.216798380017,0.079111546278,0.811685621738,0.242756426334,27.7999992371,0.07250781940367892,0.026458711129765885,0.2714667631230769,27.7999992371,0.03280492247756756,0.10590009982998805,0.8438564586875514
1648383535507206807,28030,6,0,0.00782407168299,0.0454158857465,0.00860241055489,0.0,31.6000003815,0.002616746382270903,0.015189259446989964,0.002877060386250836,31.6000003815,0.0,0.01563356407880908,0.04688091555414197
1648383535507221726,28031,6,1,0.0316167213023,0.0161153152585,-0.0306349415332,0.0,31.6000003815,0.010574154281705684,0.005389737544648829,-0.010245799843879598,31.6000003815,0.0,0.01589574623434919,0.04688091396859425
1648383535507287347,28032,6,2,1.05244016647,0.168478280306,0.163191720843,0.0,31.6000003815,0.35198667774916387,0.05634725093846154,0.054579170850501665,31.6000003815,0.0,0.5009633273145944,1.0782609946974657
1648383535507289811,28033,6,3,0.655892252922,-0.0,-0.0240445416421,-0.566431701183,31.6000003815,0.21936195749899665,-0.0,-0.008041652723110368,31.6000003815,-0.07654482448418919,0.3102246553637915,0.6563328328111245
1648383535612147485,28034,7,0,0.00782407168299,0.0454158857465,0.00860241055489,0.0,43.5,0.002616746382270903,0.015189259446989964,0.002877060386250836,43.5,0.0,0.01563356407880908,0.04688091555414197
1648383535612168419,28035,7,1,0.0316167213023,0.0161153152585,-0.0306349415332,0.0,43.5,0.010574154281705684,0.005389737544648829,-0.010245799843879598,43.5,0.0,0.01589574623434919,0.04688091396859425
1648383535612176448,28036,7,2,0.544702112675,-1.02552008629,-0.158889815211,0.0,43.5,0.18217461962374581,-0.342983306451505,-0.053140406425083615,43.5,0.0,0.4289670530175015,1.1720229572472731
1648383535612180123,28037,7,3,0.606648802757,0.0571361146867,-0.0120128011331,-0.161837622523,43.5,0.20289257617290968,0.0191090684570903,-0.004017659241839465,43.5,-0.021869948989594594,0.2875690376752297,0.609451895459401
