%time,field.header.seq,field.header.frame_id,field.point_id,field.x,field.y,field.z,field.velocity,field.intensity,normalized_x,normalized_y,normalized_z,normalized_intensity,normalized_velocity,normalized_range,range
1648383139602370259,19524,0,0,0.00773174641654,0.0454158857465,0.00868548545986,0.0,12.1000003815,0.0025858683667357857,0.015189259446989964,0.002904844635404682,12.1000003815,0.0,0.015623284960857095,0.04688091550367015
1648383139602380228,19525,0,1,0.0317974686623,0.0161153152585,-0.0304472967982,0.0,12.1000003815,0.010634604903779264,0.005389737544648829,-0.010183042407424748,12.1000003815,0.0,0.015976198350019604,0.04688091596298513
1648383139902302326,19526,3,0,0.00768462568521,0.0454158857465,0.00872720405459,0.0,21.8999996185,0.002570108924819398,0.015189259446989964,0.0029187973426722403,21.8999996185,0.0,0.01561808318324776,0.04688091552723115
1648383139902310977,19527,3,1,0.0317044146359,0.0161153152585,-0.0305441785604,0.0,21.8999996185,0.010603483155819398,0.005389737544648829,-0.01021544433458194,21.8999996185,0.0,0.01593477269595298,0.0468809144238411
1648383139902313722,19528,3,2,0.795254707336,0.0498109720647,0.0160865988582,0.0809188112617,21.8999996185,0.26597147402541804,0.016659187981505015,0.005380133397391304,21.8999996185,0.010934974494824324,0.3765092011288839,0.7969755084950365
1648383139902316214,19529,3,3,0.455465048552,-0.861436843872,-0.140416756272,-0.161837622523,21.8999996185,0.15232944767625417,-0.28810596785016723,-0.04696212584347826,21.8999996185,-0.021869948989594594,0.3597409762170372,0.9844992188288311
1648383140202330547,19530,6,0,0.00780487013981,0.0454158857465,0.00861983560026,0.0,22.3999996185,0.0026103244614749162,0.015189259446989964,0.0028828881606220735,22.3999996185,0.0,0.015631416766765657,0.046880915539416985
1648383140202347027,19531,6,1,0.0317974686623,0.0161153152585,-0.0304472967982,0.0,22.3999996185,0.010634604903779264,0.005389737544648829,-0.010183042407424748,22.3999996185,0.0,0.015976198350019604,0.04688091596298513
1648383140202350363,19532,6,2,0.465517550707,0.0293005723506,-0.0470839552581,0.566431701183,22.3999996185,0.15569148853076922,0.009799522525284281,-0.015747142226789298,22.3999996185,0.07654482448418919,0.2203989787716287,0.46880914282793573
1648383140202352776,19533,6,3,0.267576038837,0.247589826584,-0.488399386406,-0.647350490093,22.3999996185,0.08949031399230768,0.08280596206822742,-0.16334427638996654,22.3999996185,-0.08747979595851352,0.15124106568960813,0.6094519008333243
1648383140202440054,19534,6,4,0.374134719372,-0.476134300232,-0.068927295506,-0.647350490093,22.3999996185,0.1251286686862876,-0.15924224088026753,-0.02305260719264214,22.3999996185,-0.08747979595851352,0.23805977975074794,0.6094519112799245
