%time,field.header.seq,field.header.frame_id,field.point_id,field.x,field.y,field.z,field.velocity,field.intensity,normalized_x,normalized_y,normalized_z,normalized_intensity,normalized_velocity,normalized_range,range
1648383506512212123,27310,0,0,0.00777206942439,0.0454158857465,0.00864942185581,0.0,13.8000001907,0.0025993543225384616,0.015189259446989964,0.0028927832293678926,13.8000001907,0.0,0.015627760182962004,0.046880915517046415
1648383506512217780,27311,0,1,0.0317368544638,0.0161153152585,-0.0305104702711,0.0,13.8000001907,0.010614332596588628,0.005389737544648829,-0.01020417065923077,13.8000001907,0.0,0.015949212637061585,0.04688091416878453
1648383506512220962,27312,0,2,0.932599186897,0.0293005723506,-0.092349126935,0.0,13.8000001907,0.3119060825742475,0.009799522525284281,-0.03088599563043478,13.8000001907,0.0,0.4412106518833721,0.9376183275654733
1648383506512228172,27313,0,3,0.455822825432,-0.977174043655,0.00179208698682,-0.0809188112617,13.8000001907,0.15244910549565216,-0.3268140614230769,0.0005993601962608696,13.8000001907,-0.010934974494824324,0.39152125137302013,1.0782609940796541
1648383506707590325,27314,2,0,0.00777206942439,0.0454158857465,0.00864942185581,0.0,12.3000001907,0.0025993543225384616,0.015189259446989964,0.0028927832293678926,12.3000001907,0.0,0.015627760182962004,0.046880915517046415
1648383506707628467,27315,2,1,0.031720533967,0.0161153152585,-0.0305274389684,0.0,12.3000001907,0.01060887423645485,0.005389737544648829,-0.010209845808829431,12.3000001907,0.0,0.015941947683079008,0.04688091499748945
1648383506707659863,27316,2,2,0.937117218971,-0.0,-0.0306495483965,-0.323675245047,12.3000001907,0.31341713009063543,-0.0,-0.010250685082441471,12.3000001907,-0.04373989797932432,0.4432387560542293,0.9376183002207511
1648383506812769217,27317,3,0,0.00777206942439,0.0454158857465,0.00864942185581,0.0,33.2000007629,0.0025993543225384616,0.015189259446989964,0.0028927832293678926,33.2000007629,0.0,0.015627760182962004,0.046880915517046415
1648383506812838632,27318,3,1,0.0317368544638,0.0161153152585,-0.0305104702711,0.0,33.2000007629,0.010614332596588628,0.005389737544648829,-0.01020417065923077,33.2000007629,0.0,0.015949212637061585,0.04688091416878453
1648383506812849397,27319,3,2,0.406324923038,-1.0987714529,0.0352008938789,0.0,33.2000007629,0.1358946230896321,-0.3674820912709029,0.011772874206989966,33.2000007629,0.0,0.414702043127572,1.1720229313966886
1648383506812856845,27320,3,3,1.11968648434,0.329631447792,-0.106221847236,0.0,33.2000007629,0.37447708506354516,0.11024463136856186,-0.035525701416722406,33.2000007629,0.0,0.5409436691754229,1.1720229500386703
1648383506812924273,27321,3,4,0.889474868774,-0.0278355441988,0.0383777245879,-0.242756426334,33.2000007629,0.2974832337036789,-0.009309546554782609,0.012835359393946488,33.2000007629,-0.03280492247756756,0.42080781400379313,0.8907374525896576
1648383507007560489,27322,5,0,0.00779817998409,0.0454158857465,0.00862588826567,0.0,33.2000007629,0.002608086951200669,0.015189259446989964,0.002884912463434782,33.2000007629,0.0,0.01563066977573323,0.04688091549420965
1648383507007620291,27323,5,1,0.0317103527486,0.0161153152585,-0.0305380169302,0.0,33.2000007629,0.010605469146688962,0.005389737544648829,-0.010213383588695652,33.2000007629,0.0,0.01593741580190905,0.046880916537016086
1648383507007640171,27324,5,2,1.0127402544,0.161153152585,-0.110144294798,0.0,33.2000007629,0.3387091151839464,0.05389737544648829,-0.03683755678862876,33.2000007629,0.0,0.4820297257404397,1.0313801079848348
1648383507007689401,27325,5,3,0.534381270409,-0.98449921608,-0.105557844043,0.0,33.2000007629,0.17872283291270902,-0.3292639518662207,-0.03530362677023411,33.2000007629,0.0,0.41508848696061074,1.1251419941789915
1648383507007795946,27326,5,4,0.796917319298,-0.0,0.00963742937893,-0.647350490093,33.2000007629,0.26652753153779263,-0.0,0.003223220528070234,33.2000007629,-0.08747979595851352,0.37692684984656916,0.7969755917480437
1648383507112745766,27327,6,0,0.00779817998409,0.0454158857465,0.00862588826567,0.0,35.7000007629,0.002608086951200669,0.015189259446989964,0.002884912463434782,35.7000007629,0.0,0.01563066977573323,0.04688091549420965
1648383507112796440,27328,6,1,0.0317103527486,0.0161153152585,-0.0305380169302,0.0,35.7000007629,0.010605469146688962,0.005389737544648829,-0.010213383588695652,35.7000007629,0.0,0.01593741580190905,0.046880916537016086
1648383507112890460,27329,6,2,1.01753807068,0.161153152585,-0.0488982200623,0.0,35.7000007629,0.3403137360133779,0.05389737544648829,-0.01635391975327759,35.7000007629,0.0,0.48428483862163785,1.031380191683223
1648383507112911404,27330,6,3,0.653297543526,-0.914177834988,0.058529432863,0.0,35.7000007629,0.21849416171438127,-0.30574509531371236,0.019575061158193977,35.7000007629,0.0,0.43469467527786837,1.125141986094074
1648383507112918669,27331,6,4,0.564319491386,0.316446185112,-0.920516073704,0.0,35.7000007629,0.18873561584816054,0.10583484451906354,-0.30786490759331103,35.7000007629,0.0,0.28712937797018123,1.1251419992061091
1648383507112965950,27332,6,5,0.0570887252688,0.117202289402,-0.738678872585,0.404594063759,35.7000007629,0.019093219153444814,0.03919809010100334,-0.24704979016220732,35.7000007629,0.05467487348094594,0.04759823844271256,0.7500946446931436
1648383507112985231,27333,6,6,0.700530767441,-0.0,-0.0613696090877,-0.647350490093,35.7000007629,0.23429122656889628,-0.0,-0.020524952872140467,35.7000007629,-0.08747979595851352,0.3313378301587607,0.7032137548790222
1648383507113044292,27334,6,7,0.20045851171,-0.817485928535,-0.0602235235274,-0.647350490093,35.7000007629,0.06704298050501672,-0.2734066650618729,-0.020141646664682274,35.7000007629,-0.08747979595851352,0.2893799007710232,0.843856463538542
1648383507113096201,27335,6,8,0.839876234531,-0.0263705141842,0.0774999633431,-0.647350490093,35.7000007629,0.2808950617160535,-0.008819569961270902,0.025919720181638795,35.7000007629,-0.08747979595851352,0.39734349901216803,0.84385646745551
1648383507113106953,27336,6,9,1.48376166821,-0.0,0.221403360367,-0.647350490093,35.7000007629,0.4962413606053512,-0.0,0.07404794661103678,35.7000007629,-0.08747979595851352,0.7017912623785654,1.5001893667237887
