%time,field.header.seq,field.header.frame_id,field.point_id,field.x,field.y,field.z,field.velocity,field.intensity,normalized_x,normalized_y,normalized_z,normalized_intensity,normalized_velocity,normalized_range,range
1648383850922482952,36785,0,0,0.0077766450122,0.0454158857465,0.008645308204,0.0,25.5,0.002600884619464883,0.015189259446989964,0.0028914074260869564,25.5,0.0,0.015628269390931034,0.046880915517159706
1648383850922487922,36786,0,1,0.0317437462509,0.0161153152585,-0.0305033028126,0.0,25.5,0.010616637542107022,0.005389737544648829,-0.010201773515919731,25.5,0.0,0.01595228059561233,0.04688091610025919
1648383850922545958,36787,0,2,0.889307320118,0.234404578805,0.182524114847,0.0,25.5,0.29742719736387957,0.07839618020234114,0.0610448544638796,25.5,0.0,0.4278689478494347,0.9376182958330587
1648383850922573841,36788,0,3,2.49859285355,0.246124818921,0.767347335815,0.0,25.5,0.8356497837959865,0.08231599295016721,0.2566379049548495,25.5,0.0,1.1846506003931836,2.6253315234618286
1648383850922575883,36789,0,4,0.503444492817,0.0703213736415,-0.551580011845,-0.242756426334,25.5,0.1683760845541806,0.023518854060702338,-0.18447492034949833,25.5,-0.03280492247756756,0.23927839057449748,0.7500946356330807
1648383850922599301,36790,0,5,1.85842084885,0.234404578805,0.0885378271341,-0.161837622523,25.5,0.6215454343979933,0.07839618020234114,0.029611313422775915,25.5,-0.021869948989594594,0.8824870622917359,1.875236653022421
1648383850922603181,36791,0,6,0.360101014376,0.0219754297286,-0.603617370129,-0.0809188112617,25.5,0.12043512186488294,0.007349642049698997,-0.20187871910668895,25.5,-0.010934974494824324,0.17047948379637098,0.7032137581047678
1648383851012517041,36792,1,0,0.00780248083174,0.0454158857465,0.00862199813128,0.0,15.1999998093,0.002609525361785953,0.015189259446989964,0.0028836114151438125,15.1999998093,0.0,0.015631149918530693,0.04688091548855043
1648383851012523319,36793,1,1,0.0315726213157,0.0161153152585,-0.0306803900748,0.0,15.1999998093,0.010559405122307693,0.005389737544648829,-0.010261000025016722,15.1999998093,0.0,0.015876124964053193,0.04688091442972634
1648383851012543762,36794,1,2,0.377457976341,-0.0,-0.417146980762,-0.242756426334,15.1999998093,0.12624012586655517,-0.0,-0.13951404038862875,15.1999998093,-0.03280492247756756,0.1785304981161689,0.5625709977081074
1648383851012634395,36795,1,3,0.909058213234,0.175803437829,0.147764623165,-0.0809188112617,15.1999998093,0.3040328472354515,0.05879713639765886,0.049419606409698995,15.1999998093,-0.010934974494824324,0.4339689477886127,0.937618295288537
1648383851212616096,36796,3,0,0.00780248083174,0.0454158857465,0.00862199813128,0.0,18.1000003815,0.002609525361785953,0.015189259446989964,0.0028836114151438125,18.1000003815,0.0,0.015631149918530693,0.04688091548855043
1648383851212626306,36797,3,1,0.0316501222551,0.0161153152585,-0.0306004323065,0.0,18.1000003815,0.010585325168929766,0.005389737544648829,-0.010234258296488294,18.1000003815,0.0,0.01591060931153025,0.04688091383482523
1648383851212630487,36798,3,2,0.264727473259,-0.0307656023651,0.191483810544,-0.647350490093,18.1000003815,0.08853761647458193,-0.01028949911876254,0.06404140820869564,18.1000003815,-0.08747979595851352,0.12563316781055606,0.3281664319936341
1648383851212653165,36799,3,3,0.317686676979,0.082041606307,-0.00612846575677,-0.647350490093,18.1000003815,0.10624972474214046,0.027438664316722407,-0.00204965409925418,18.1000003815,-0.08747979595851352,0.15274451975454637,0.32816643336563867
1648383851212656052,36800,3,4,0.861653149128,0.263705164194,0.259116947651,-0.0809188112617,18.1000003815,0.2881783107451505,0.0881957070882943,0.08666118650535116,18.1000003815,-0.010934974494824324,0.41697956822446497,0.9376183421759383
1648383851317456137,36801,4,0,0.0077766450122,0.0454158857465,0.008645308204,0.0,24.6000003815,0.002600884619464883,0.015189259446989964,0.0028914074260869564,24.6000003815,0.0,0.015628269390931034,0.046880915517159706
1648383851317470134,36802,4,1,0.0316501222551,0.0161153152585,-0.0306004323065,0.0,24.6000003815,0.010585325168929766,0.005389737544648829,-0.010234258296488294,24.6000003815,0.0,0.01591060931153025,0.04688091383482523
1648383851317491556,36803,4,2,0.806878983974,0.461484014988,0.324372380972,0.0,24.6000003815,0.2698591919645485,0.15434247992909697,0.1084857461444816,24.6000003815,0.0,0.41166681683878986,0.9844991784688312
1648383851317497612,36804,4,3,0.551114857197,0.0527410283685,0.0998845994473,-0.566431701183,24.6000003815,0.18431935023311036,0.017639139922575247,0.03340622055093645,24.6000003815,-0.07654482448418919,0.26126305708599556,0.5625710044993292
1648383851317548781,36805,4,4,0.502250730991,0.0483459457755,0.106504045427,-0.485512852669,24.6000003815,0.16797683310735786,0.016169212633946488,0.035620082082608695,24.6000003815,-0.06560984495527027,0.2381047592106384,0.5156900609341216
1648383851317581198,36806,4,5,0.256631731987,0.0439508594573,0.106442518532,-0.323675245047,24.6000003815,0.08583001069799331,0.014699284099431437,0.03559950452575251,24.6000003815,-0.04373989797932432,0.1222687630830994,0.28128550204572916
1648383851317611384,36807,4,6,0.156322985888,0.149432912469,-0.179873451591,-0.323675245047,24.6000003815,0.05228193507959866,0.04997756269866221,-0.06015834501371237,24.6000003815,-0.04373989797932432,0.08924437374217745,0.2812854952413428
1648383851317614609,36808,4,7,0.326521575451,-0.0205104015768,0.0256162323058,-0.242756426334,24.6000003815,0.10920454028461539,-0.006859666079197324,0.008567301774515049,24.6000003815,-0.03280492247756756,0.15459080909377007,0.32816643211241064
1648383851317617344,36809,4,8,0.293217867613,-0.11280720681,0.0948210284114,-0.242756426334,24.6000003815,0.09806617645919732,-0.03772816281270903,0.0317127185322408,24.6000003815,-0.03280492247756756,0.14372669967641757,0.32816643829737435
1648383851317621405,36810,4,9,0.834479212761,0.250519901514,0.185195431113,-0.0809188112617,24.6000003815,0.279090037712709,0.08378592023879598,0.06193827127525083,24.6000003815,-0.010934974494824324,0.40348801559801567,0.8907374053501584
1648383851422539708,36811,5,0,0.00782256573439,0.0454158857465,0.00860377959907,0.0,24.6000003815,0.0026162427205317727,0.015189259446989964,0.0028775182605585287,24.6000003815,0.0,0.015633395488295076,0.04688091547951433
1648383851422543057,36812,5,1,0.0316326804459,0.0161153152585,-0.0306184664369,0.0,24.6000003815,0.01057949178792642,0.005389737544648829,-0.010240289778227423,24.6000003815,0.0,0.015902847662660997,0.04688091664015155
1648383851422568298,36813,5,2,0.266393274069,0.00879017170519,0.0898826494813,-0.0809188112617,24.6000003815,0.08909474049130434,0.0029398567575886284,0.030061086783043475,24.6000003815,-0.010934974494824324,0.12603328260495666,0.281285503120204
1648383851422589382,36814,5,3,0.920509874821,0.175803437829,0.0297120884061,-0.0809188112617,24.6000003815,0.3078628343882943,0.05879713639765886,0.009937153313076923,24.6000003815,-0.010934974494824324,0.43933603635913315,0.9376183053849365
1648383851512610977,36815,6,0,0.00779683841392,0.0454158857465,0.00862710084766,0.0,23.0,0.0026076382655250835,0.015189259446989964,0.0028853180092508358,23.0,0.0,0.01563052005518803,0.046880915481970015
1648383851512653932,36816,6,1,0.0315993279219,0.0161153152585,-0.0306528843939,0.0,23.0,0.010568337097625417,0.005389737544648829,-0.01025180080063545,23.0,0.0,0.015888007075095616,0.04688091544181289
1648383851512656234,36817,6,2,0.27563765645,-0.0175803434104,0.0532574653625,0.0,23.0,0.09218650717391304,-0.005879713515183946,0.017811861325250835,23.0,0.0,0.1305039280668305,0.281285519969503
1648383851512679144,36818,6,3,0.211041897535,0.0879017189145,0.163878411055,0.0,23.0,0.0705825744264214,0.02939856819882943,0.05480883312876254,23.0,0.0,0.10405803879308824,0.2812854925395349
1648383851512802136,36819,6,4,0.897055864334,0.234404578805,0.139546990395,0.0,23.0,0.3000186837237458,0.07839618020234114,0.04667123424581939,23.0,0.0,0.431472342377789,0.9376183087104643
1648383851512919982,36820,6,5,0.469411700964,0.386767566204,-0.832951664925,0.0,23.0,0.15699387992107022,0.1293537010715719,-0.2785791521488294,23.0,0.0,0.25695629326065633,1.0313801294239726
