%time,field.header.seq,field.header.frame_id,field.point_id,field.x,field.y,field.z,field.velocity,field.intensity,normalized_x,normalized_y,normalized_z,normalized_intensity,normalized_velocity,normalized_range,range
1648383307305498391,22374,0,0,0.00775196496397,0.0454158857465,0.00866744481027,0.0,18.6000003815,0.0025926304227324413,0.015189259446989964,0.002898810973334448,18.6000003815,0.0,0.015625526153244553,0.04688091550386827
1648383307305506830,22375,0,1,0.0316872633994,0.0161153152585,-0.0305619724095,0.0,18.6000003815,0.010597746956321069,0.005389737544648829,-0.010221395454682274,18.6000003815,0.0,0.015927138848538434,0.04688091514873442
1648383307305510137,22376,0,2,0.6128937006,0.102552011609,-0.211227893829,0.0,18.6000003815,0.20498117076923075,0.03429833164180602,-0.07064478054481606,18.6000003815,0.0,0.29190912334707936,0.6563328625412949
1648383307305515678,22377,0,3,0.630760490894,-0.082041606307,0.161812067032,0.0,18.6000003815,0.21095668591772573,-0.027438664316722407,0.05411774817123745,18.6000003815,0.0,0.2995969408493113,0.6563328173079883
1648383307305565932,22378,0,4,0.336802721024,0.152362972498,0.0633241906762,0.242756426334,18.6000003815,0.11264305050969899,0.05095751588561872,0.021178659089030098,18.6000003815,0.03280492247756756,0.1672530480484415,0.37504733221607167
1648383307305625219,22379,0,5,0.905249536037,0.36918720603,0.116029337049,0.404594063759,18.6000003815,0.30275904215284277,0.12347398194983276,0.03880579834414715,18.6000003815,0.05467487348094594,0.44561407005295656,0.9844992243000864
1648383307410289553,22380,1,0,0.00772531237453,0.0454158857465,0.00869120843709,0.0,17.2000007629,0.0025837165132207357,0.015189259446989964,0.00290675867461204,17.2000007629,0.0,0.015622572918356083,0.04688091545096098
1648383307410292275,22381,1,1,0.0316872633994,0.0161153152585,-0.0305619724095,0.0,17.2000007629,0.010597746956321069,0.005389737544648829,-0.010221395454682274,17.2000007629,0.0,0.015927138848538434,0.04688091514873442
1648383307410312506,22382,1,2,0.656161367893,-0.0,-0.0150016769767,0.0,17.2000007629,0.21945196250602003,-0.0,-0.005017283269799331,17.2000007629,0.0,0.3103519416654055,0.6563328355547405
1648383307410318411,22383,1,3,0.143853276968,0.0922968015075,-0.385760247707,-0.566431701183,17.2000007629,0.048111463868896316,0.03086849548745819,-0.12901680525317724,17.2000007629,-0.07654482448418919,0.07471472361506437,0.4219282327291135
1648383307410344672,22384,1,4,0.334614992142,0.250519871712,0.0574111752212,-0.566431701183,17.2000007629,0.11191136860936454,0.08378591027157191,0.01920106194688963,17.2000007629,-0.07654482448418919,0.17907648535773205,0.421928242867276
1648383307605356083,22385,3,0,0.00775196496397,0.0454158857465,0.00866744481027,0.0,39.7999992371,0.0025926304227324413,0.015189259446989964,0.002898810973334448,39.7999992371,0.0,0.015625526153244553,0.04688091550386827
1648383307605485409,22386,3,1,0.0316872633994,0.0161153152585,-0.0305619724095,0.0,39.7999992371,0.010597746956321069,0.005389737544648829,-0.010221395454682274,39.7999992371,0.0,0.015927138848538434,0.04688091514873442
1648383307605505925,22387,3,2,1.28987431526,0.424858301878,0.0639270618558,0.566431701183,39.7999992371,0.4313960920602007,0.14209307755117057,0.021380288246086954,39.7999992371,0.07654482448418919,0.6264148938024935,1.3595466137943293
1648383307605575010,22388,3,3,0.659437358379,-0.127457484603,-1.18205916882,0.566431701183,39.7999992371,0.2205476114979933,-0.04262792127190635,-0.39533751465551836,39.7999992371,0.07654482448418919,0.31480094908831424,1.3595465856669373
1648383307605578629,22389,3,4,0.106130994856,0.0879017189145,-0.545431613922,-0.647350490093,39.7999992371,0.03549531600535117,0.02939856819882943,-0.18241859997391305,39.7999992371,-0.08747979595851352,0.0581731100146855,0.5625710139376234
1648383307605581345,22390,3,5,0.47568204999,0.298865824938,0.029865404591,-0.647350490093,39.7999992371,0.15909098661872909,0.09995512539732442,0.00998842962909699,39.7999992371,-0.08747979595851352,0.2461928332422293,0.5625710056427937
1648383307605583331,22391,3,6,0.655431032181,-0.0205104015768,0.0276092812419,-0.0809188112617,39.7999992371,0.21920770307056853,-0.006859666079197324,0.009233873325050166,39.7999992371,-0.010934974494824324,0.3100823909699923,0.6563328324328952
1648383307710413555,22392,4,0,0.00775196496397,0.0454158857465,0.00866744481027,0.0,21.6000003815,0.0025926304227324413,0.015189259446989964,0.002898810973334448,21.6000003815,0.0,0.015625526153244553,0.04688091550386827
1648383307710417098,22393,4,1,0.0316872633994,0.0161153152585,-0.0305619724095,0.0,21.6000003815,0.010597746956321069,0.005389737544648829,-0.010221395454682274,21.6000003815,0.0,0.015927138848538434,0.04688091514873442
1648383307710428326,22394,4,2,0.656215071678,-0.0,-0.0124333454296,0.0,21.6000003815,0.21946992363812706,-0.0,-0.004158309508227424,21.6000003815,0.0,0.3103773425420268,0.6563328487710595
1648383307710431563,22395,4,3,0.57777428627,0.190453708172,-0.0365495383739,0.404594063759,21.6000003815,0.19323554724749165,0.06369689236521739,-0.012223925877558528,21.6000003815,0.05467487348094594,0.28060158149422687,0.6094518927582541
1648383307710459047,22396,4,4,0.586007595062,-0.219754293561,-1.25950050354,0.404594063759,21.6000003815,0.19598916222809362,-0.07349641925117056,-0.42123762660200664,21.6000003815,0.05467487348094594,0.2867494151074834,1.4064275201468281
1648383307710467474,22397,4,5,1.3617118597,0.351606875658,0.012318351306,0.404594063759,21.6000003815,0.45542202665551834,0.11759427279531771,0.004119849935117057,21.6000003815,0.05467487348094594,0.654711278137393,1.4064275045790702
