%time,field.header.seq,field.header.frame_id,field.point_id,field.x,field.y,field.z,field.velocity,field.intensity,normalized_x,normalized_y,normalized_z,normalized_intensity,normalized_velocity,normalized_range,range
1648383298305160110,22187,0,0,0.00773174641654,0.0454158857465,0.00868548545986,0.0,24.7000007629,0.0025858683667357857,0.015189259446989964,0.002904844635404682,24.7000007629,0.0,0.015623284960857095,0.04688091550367015
1648383298305166970,22188,0,1,0.0317540019751,0.0161153152585,-0.0304926261306,0.0,24.7000007629,0.010620067550200667,0.005389737544648829,-0.010198202719264214,24.7000007629,0.0,0.015956846190329953,0.04688091590035382
1648383298305187529,22189,0,2,0.74659371376,-0.0703213736415,-0.0171675086021,0.0,24.7000007629,0.2496968942341137,-0.023518854060702338,-0.0057416416729431435,24.7000007629,0.0,0.35390707039652786,0.7500946556057972
1648383298410185129,22190,1,0,0.00773174641654,0.0454158857465,0.00868548545986,0.0,14.3999996185,0.0025858683667357857,0.015189259446989964,0.002904844635404682,14.3999996185,0.0,0.015623284960857095,0.04688091550367015
1648383298410192279,22191,1,1,0.0316109508276,0.0161153152585,-0.0306408964097,0.0,14.3999996185,0.010572224357056856,0.005389737544648829,-0.010247791441371237,14.3999996185,0.0,0.015893178615748637,0.04688091435643885
1648383298410221195,22192,1,2,0.645221292973,-0.0205104015768,0.118497245014,0.0,14.3999996185,0.2157930745729097,-0.006859666079197324,0.03963118562341137,14.3999996185,0.0,0.3052545775020857,0.6563328351945372
1648383298410250563,22193,1,3,0.243104591966,0.131852582097,0.0513476468623,0.0809188112617,14.3999996185,0.0813058836006689,0.04409785354414715,0.017173126040903007,14.3999996185,0.010934974494824324,0.12314996590893597,0.281285489989969
1648383298605108866,22194,3,0,0.00767187448218,0.0454158857465,0.00873841531575,0.0,11.6000003815,0.0025658443084214046,0.015189259446989964,0.0029225469283444814,11.6000003815,0.0,0.015616680715763222,0.046880915503432735
1648383298605120325,22195,3,1,0.0316872633994,0.0161153152585,-0.0305619724095,0.0,11.6000003815,0.010597746956321069,0.005389737544648829,-0.010221395454682274,11.6000003815,0.0,0.015927138848538434,0.04688091514873442
1648383298605123337,22196,3,2,0.64874112606,0.0205104015768,0.0974016413093,0.0,11.6000003815,0.21697027627424748,0.006859666079197324,0.032575799768996654,11.6000003815,0.0,0.30691897398460827,0.6563328461567225
