%time,field.header.seq,field.header.frame_id,field.point_id,field.x,field.y,field.z,field.velocity,field.intensity,normalized_x,normalized_y,normalized_z,normalized_intensity,normalized_velocity,normalized_range,range
1648383908312732938,37870,0,0,0.0077766450122,0.0454158857465,0.008645308204,0.0,18.8999996185,0.002600884619464883,0.015189259446989964,0.0028914074260869564,18.8999996185,0.0,0.015628269390931034,0.046880915517159706
1648383908312743286,37871,0,1,0.0317701548338,0.0161153152585,-0.0304757971317,0.0,18.8999996185,0.010625469844080268,0.005389737544648829,-0.010192574291538461,18.8999996185,0.0,0.015964037384543907,0.046880916531750985
1648383908312843386,37872,0,2,0.851986408234,0.293005734682,0.259605169296,0.0809188112617,18.8999996185,0.28494528703478256,0.09799522899063544,0.08682447133645485,18.8999996185,0.010934974494824324,0.41471761249264094,0.9376182828300733
1648383908312845795,37873,0,3,0.311212092638,0.0249054860324,-0.733278095722,0.323675245047,18.8999996185,0.10408431191906353,0.00832959399076923,-0.24524351027491637,18.8999996185,0.04373989797932432,0.1474329342832899,0.7969755426010987
1648383908612693270,37874,3,0,0.00779683841392,0.0454158857465,0.00862710084766,0.0,42.5,0.0026076382655250835,0.015189259446989964,0.0028853180092508358,42.5,0.0,0.01563052005518803,0.046880915481970015
1648383908612707834,37875,3,1,0.0316326804459,0.0161153152585,-0.0306184664369,0.0,42.5,0.01057949178792642,0.005389737544648829,-0.010240289778227423,42.5,0.0,0.015902847662660997,0.04688091664015155
1648383908612711486,37876,3,2,0.93070435524,0.307655990124,0.0915195569396,0.0,42.5,0.3112723596120401,0.10289497997458194,0.030608547471438124,42.5,0.0,0.45207116765047517,0.9844991794939717
1648383908612713581,37877,3,3,0.410646557808,0.404347896576,0.911328136921,0.0,42.5,0.1373399858889632,0.13523341022608695,0.3047920190371237,42.5,0.0,0.2366698516696589,1.0782610027488222
1648383908612825282,37878,3,4,0.278668195009,0.079111546278,-0.306771636009,0.485512852669,42.5,0.09320006522040132,0.026458711129765885,-0.10259920936755851,42.5,0.06560984495527027,0.1344342505049309,0.4219282359877193
1648383908612829936,37879,3,5,0.885366499424,0.205104008317,0.230622157454,-0.0809188112617,42.5,0.2961091971317726,0.06859665829999999,0.07713115633913042,42.5,-0.010934974494824324,0.4243428033818564,0.9376182976236893
1648383908717762306,37880,4,0,0.0077766450122,0.0454158857465,0.008645308204,0.0,18.6000003815,0.002600884619464883,0.015189259446989964,0.0028914074260869564,18.6000003815,0.0,0.015628269390931034,0.046880915517159706
1648383908717766020,37881,4,1,0.0316766984761,0.0161153152585,-0.030572924763,0.0,18.6000003815,0.01059421353715719,0.005389737544648829,-0.01022505844916388,18.6000003815,0.0,0.015922436740083677,0.04688091659503532
1648383908717769652,37882,4,2,0.898816585541,0.263705164194,0.0414303131402,0.0,18.6000003815,0.3006075536926421,0.0881957070882943,0.01385629202013378,18.6000003815,0.0,0.43417540858845705,0.9376183332854906
1648383908717777262,37883,4,3,0.314143627882,1.01086974144,0.205189973116,0.0,18.6000003815,0.10506475848896321,0.33808352556521737,0.06862540906889632,18.6000003815,0.0,0.36929348384624294,1.0782609972382298
1648383908717781093,37884,4,4,0.235517576337,0.082041606307,0.213292866945,-0.647350490093,18.6000003815,0.07876842017959865,0.027438664316722407,0.07133540700501671,18.6000003815,-0.08747979595851352,0.11472492464440925,0.3281664227472166
1648383908717783754,37885,4,5,0.608971476555,-0.0,0.0241937991232,-0.566431701183,18.6000003815,0.2036693901521739,-0.0,0.008091571613110367,18.6000003815,-0.07654482448418919,0.2880320137934616,0.6094518842153092
1648383908717785284,37886,4,6,0.315671235323,0.082041606307,0.185152217746,-0.485512852669,18.6000003815,0.10557566398762541,0.027438664316722407,0.06192381864414715,18.6000003815,-0.06560984495527027,0.15180685739564517,0.3750473272962278
1648383908717787633,37887,4,7,0.370578438044,-0.046880915761,0.0336795076728,-0.485512852669,18.6000003815,0.12393927693779262,-0.015679236040468225,0.011264049388896321,18.6000003815,-0.06560984495527027,0.17597649609688912,0.3750473413354678
1648383908913341647,37888,6,0,0.00779683841392,0.0454158857465,0.00862710084766,0.0,28.6000003815,0.0026076382655250835,0.015189259446989964,0.0028853180092508358,28.6000003815,0.0,0.01563052005518803,0.046880915481970015
1648383908913397752,37889,6,1,0.0316766984761,0.0161153152585,-0.030572924763,0.0,28.6000003815,0.01059421353715719,0.005389737544648829,-0.01022505844916388,28.6000003815,0.0,0.015922436740083677,0.04688091659503532
1648383908913418094,37890,6,2,0.885473310947,0.263705164194,0.159764558077,0.0,28.6000003815,0.2961449200491639,0.0881957070882943,0.05343296256755852,28.6000003815,0.0,0.4279977921562862,0.9376183189547685
1648383908913475851,37891,6,3,0.261598974466,0.00879017170519,0.103005968034,-0.0809188112617,28.6000003815,0.08749129580802675,0.0029398567575886284,0.034450156533110364,28.6000003815,-0.010934974494824324,0.12376629768273115,0.281285477781721
