%time,field.header.seq,field.header.frame_id,field.point_id,field.x,field.y,field.z,field.velocity,field.intensity,normalized_x,normalized_y,normalized_z,normalized_intensity,normalized_velocity,normalized_range,range
1648383957313060802,38724,0,0,0.00782256573439,0.0454158857465,0.00860377959907,0.0,37.4000015259,0.0026162427205317727,0.015189259446989964,0.0028775182605585287,37.4000015259,0.0,0.015633395488295076,0.04688091547951433
1648383957313070162,38725,0,1,0.0317173525691,0.0161153152585,-0.0305307433009,0.0,37.4000015259,0.010607810223779263,0.005389737544648829,-0.010210950936755852,37.4000015259,0.0,0.015940531555993637,0.04688091430826501
1648383957313100339,38726,0,2,0.407209008932,0.153828009963,-0.552292823792,0.0,37.4000015259,0.13619030399063545,0.05144749497090301,-0.1847133189939799,37.4000015259,0.0,0.19935506650422627,0.7032137632446479
1648383957313112192,38727,0,3,0.897431075573,-0.234404578805,0.137113183737,0.0,37.4000015259,0.30014417243244146,-0.07839618020234114,0.04585725208595317,37.4000015259,0.0,0.4316468574664111,0.9376182950024798
1648383957613222828,38728,3,0,0.00782256573439,0.0454158857465,0.00860377959907,0.0,18.0,0.0026162427205317727,0.015189259446989964,0.0028775182605585287,18.0,0.0,0.015633395488295076,0.04688091547951433
1648383957613227247,38729,3,1,0.0316399969161,0.0161153152585,-0.0306109040976,0.0,18.0,0.01058193876792642,0.005389737544648829,-0.010237760567759196,18.0,0.0,0.01590610345045214,0.046880915524380756
1648383957613237509,38730,3,2,0.591336190701,0.0571361146867,0.135972723365,-0.485512852669,18.0,0.19777130123779263,0.0191090684570903,0.04547582721237457,18.0,-0.06560984495527027,0.2803428823492353,0.6094518910739025
1648383957613375745,38731,3,3,0.365516036749,-0.0117202289402,0.0831935033202,-0.404594063759,18.0,0.12224616613678929,-0.003919809010100334,0.02782391415391304,18.0,-0.05467487348094594,0.1729266178844733,0.3750473248562042
1648383957613384889,38732,3,4,0.830530524254,-0.194848805666,0.256254047155,-0.161837622523,18.0,0.2777694061050167,-0.06516682463745818,0.0857036947006689,18.0,-0.021869948989594594,0.3981939238225473,0.8907374166781183
1648383957913305748,38733,6,0,0.00782809499651,0.0454158857465,0.00859874952585,0.0,25.2999992371,0.0026180919720769228,0.015189259446989964,0.0028758359618227423,25.2999992371,0.0,0.01563401463784914,0.04688091555016638
1648383957913315957,38734,6,1,0.0317173525691,0.0161153152585,-0.0305307433009,0.0,25.2999992371,0.010607810223779263,0.005389737544648829,-0.010210950936755852,25.2999992371,0.0,0.015940531555993637,0.04688091430826501
1648383957913378322,38735,6,2,0.325767278671,-0.0205104015768,0.0338853187859,0.0,25.2999992371,0.10895226711404682,-0.006859666079197324,0.011332882537090302,25.2999992371,0.0,0.1542343931725324,0.32816643834306497
1648383957913382838,38736,6,3,0.813598573208,-0.210964113474,-0.0751347839832,0.0,25.2999992371,0.27210654622341135,-0.07055655969030099,-0.025128690295384615,25.2999992371,0.0,0.3912316105717916,0.8438564636620177
