%time,field.header.seq,field.header.frame_id,field.point_id,field.x,field.y,field.z,field.velocity,field.intensity,normalized_x,normalized_y,normalized_z,normalized_intensity,normalized_velocity,normalized_range,range
1648383462607384368,26197,0,0,0.00782407168299,0.0454158857465,0.00860241055489,0.0,13.8999996185,0.002616746382270903,0.015189259446989964,0.002877060386250836,13.8999996185,0.0,0.01563356407880908,0.04688091555414197
1648383462607393960,26198,0,1,0.0317103527486,0.0161153152585,-0.0305380169302,0.0,13.8999996185,0.010605469146688962,0.005389737544648829,-0.010213383588695652,13.8999996185,0.0,0.01593741580190905,0.046880916537016086
1648383462607399245,26199,0,2,0.452441126108,1.10463154316,-0.246602341533,0.0,13.8999996185,0.1513181023772575,0.3694419876789297,-0.08247569950936455,13.8999996185,0.0,0.42694463162600704,1.2189038245848096
1648383462607421050,26200,0,3,0.548284053802,0.380907416344,-1.01981401443,0.0,13.8999996185,0.18337259324481603,0.12739378473043478,-0.3410749212140468,13.8999996185,0.0,0.2889293898076169,1.2189038056824864
1648383462607434850,26201,0,4,0.344411551952,0.105482056737,0.76311725378,0.566431701183,13.8999996185,0.1151878100173913,0.035278279845150494,0.2552231617993311,13.8999996185,0.07654482448418919,0.16667639359560793,0.8438564596115751
1648383462607564709,26202,0,5,0.814609050751,-0.210964113474,-0.0632451027632,0.566431701183,13.8999996185,0.2724444985789297,-0.07055655969030099,-0.021152208282006688,13.8999996185,0.07654482448418919,0.39170172035259165,0.8438564485520293
1648383462607611435,26203,0,6,0.883938968182,0.0278355441988,-0.106255911291,-0.566431701183,13.8999996185,0.29563176193377927,0.009309546554782609,-0.03553709407725752,13.8999996185,-0.07654482448418919,0.41819008236111616,0.8907374673133398
1648383462712641495,26204,1,0,0.00780410459265,0.0454158857465,0.00862052850425,0.0,25.5,0.0026100684256354515,0.015189259446989964,0.0028831199010869563,25.5,0.0,0.01563133125875631,0.046880915502203545
1648383462712667949,26205,1,1,0.0316340327263,0.0161153152585,-0.030617069453,0.0,25.5,0.010579944055618727,0.005389737544648829,-0.01023982255953177,25.5,0.0,0.01590344941326382,0.046880916739109185
1648383462712696594,26206,1,2,0.29731708765,0.124527432024,0.728879630566,0.404594063759,25.5,0.09943715306020065,0.04164797057658863,0.24377245169431438,25.5,0.05467487348094594,0.14666304330193047,0.7969755628557242
1648383462712705251,26207,1,3,0.769671797752,-0.199243888259,-0.055473074317,0.404594063759,25.5,0.257415316973913,-0.06663675192608695,-0.018552867664548493,25.5,0.05467487348094594,0.37008883735235665,0.7969755738023218
1648383462907895577,26208,3,0,0.00782407168299,0.0454158857465,0.00860241055489,0.0,25.0,0.002616746382270903,0.015189259446989964,0.002877060386250836,25.0,0.0,0.01563356407880908,0.04688091555414197
1648383462907925052,26209,3,1,0.0316167213023,0.0161153152585,-0.0306349415332,0.0,25.0,0.010574154281705684,0.005389737544648829,-0.010245799843879598,25.0,0.0,0.01589574623434919,0.04688091396859425
1648383462908003081,26210,3,2,0.474879831076,-1.01965987682,-0.0269703324884,0.0,25.0,0.1588226859785953,-0.34102337017391304,-0.009020178089765886,25.0,0.0,0.408345723826863,1.1251419986801146
1648383462908034211,26211,3,3,1.08605253696,0.24612480402,-0.160800948739,0.0,25.0,0.3632282732307692,0.08231598796655518,-0.0537795815180602,25.0,0.0,0.5202359837836313,1.1251419809546253
1648383462908169222,26212,3,4,0.608923196793,0.0190453715622,0.0167765021324,-0.647350490093,25.0,0.20365324307458194,0.006369689485685618,0.005610870278394648,25.0,-0.08747979595851352,0.2880796066606131,0.6094519150797274
1648383463012830698,26213,4,0,0.00772431911901,0.0454158857465,0.00869209133089,0.0,43.5,0.0025833843207391303,0.015189259446989964,0.0029070539568193977,43.5,0.0,0.015622463046691949,0.04688091547416686
1648383463012872493,26214,4,1,0.0317103527486,0.0161153152585,-0.0305380169302,0.0,43.5,0.010605469146688962,0.005389737544648829,-0.010213383588695652,43.5,0.0,0.01593741580190905,0.046880916537016086
1648383463012894752,26215,4,2,0.604053020477,-0.0,-0.0809416770935,0.0,43.5,0.20202442156421405,-0.0,-0.027070795014548493,43.5,0.0,0.2857056769066911,0.6094518903392584
1648383463207680914,26216,6,0,0.00782407168299,0.0454158857465,0.00860241055489,0.0,11.5,0.002616746382270903,0.015189259446989964,0.002877060386250836,11.5,0.0,0.01563356407880908,0.04688091555414197
1648383463207706695,26217,6,1,0.0317275524139,0.0161153152585,-0.0305201429874,0.0,11.5,0.010611221543110366,0.005389737544648829,-0.010207405681404682,11.5,0.0,0.015945071842865314,0.04688091398457325
1648383463207760738,26218,6,2,0.288037866354,1.18081307411,-0.0918755531311,0.0,11.5,0.09633373456655518,0.39492076057190634,-0.030727609742842808,11.5,0.0,0.41775924162341643,1.2189037885354277
1648383463207775694,26219,6,3,0.606013357639,0.0380907431245,-0.0522353351116,0.0809188112617,11.5,0.20268005272207357,0.01273937897140468,-0.017470011743010033,11.5,0.010934974494824324,0.2869158401333431,0.6094519050613365
