%time,field.header.seq,field.header.frame_id,field.point_id,field.x,field.y,field.z,field.velocity,field.intensity,normalized_x,normalized_y,normalized_z,normalized_intensity,normalized_velocity,normalized_range,range
1648383857512567864,36974,0,0,0.0077766450122,0.0454158857465,0.008645308204,0.0,31.2999992371,0.002600884619464883,0.015189259446989964,0.0028914074260869564,31.2999992371,0.0,0.015628269390931034,0.046880915517159706
1648383857512691162,36975,0,1,0.0316501222551,0.0161153152585,-0.0306004323065,0.0,31.2999992371,0.010585325168929766,0.005389737544648829,-0.010234258296488294,31.2999992371,0.0,0.01591060931153025,0.04688091383482523
1648383857512703035,36976,0,2,0.443032175303,0.977174043655,0.107238836586,0.0,31.2999992371,0.14817129608795984,0.3268140614230769,0.035865831634113714,31.2999992371,0.0,0.3882227411069815,1.0782610018075822
1648383857512709208,36977,0,3,0.382539331913,0.0351606868207,-0.410990893841,-0.404594063759,31.2999992371,0.12793957589063543,0.011759427030334446,-0.137455148441806,31.2999992371,-0.05467487348094594,0.18131562062390844,0.5625709992333162
1648383857512731232,36978,0,4,0.496138185263,-0.158223092556,0.212834373116,-0.404594063759,31.2999992371,0.16593250343244145,-0.05291742225953177,0.07118206458729097,31.2999992371,-0.05467487348094594,0.24055653175357342,0.5625709877639694
1648383857512733608,36979,0,5,0.34100997448,0.0527410283685,-0.444315969944,-0.242756426334,31.2999992371,0.11405015868896319,0.017639139922575247,-0.14860065884414717,31.2999992371,-0.03280492247756756,0.16225294034674242,0.562570973225152
1648383857512736114,36980,0,6,0.888719141483,0.0556710883975,-0.0221861228347,-0.242756426334,31.2999992371,0.2972304821013378,0.018619093109531772,-0.007420107971471571,31.2999992371,-0.03280492247756756,0.42075953893953344,0.890737450974236
1648383857512764844,36981,0,7,0.903141260147,0.205104008317,0.146274879575,-0.0809188112617,31.2999992371,0.3020539331595318,0.06859665829999999,0.04892136440635451,31.2999992371,-0.010934974494824324,0.43264148969350213,0.9376183287469864
1648383857812455451,36982,3,0,0.00782256573439,0.0454158857465,0.00860377959907,0.0,22.7000007629,0.0026162427205317727,0.015189259446989964,0.0028775182605585287,22.7000007629,0.0,0.015633395488295076,0.04688091547951433
1648383857812484170,36983,3,1,0.0316501222551,0.0161153152585,-0.0306004323065,0.0,22.7000007629,0.010585325168929766,0.005389737544648829,-0.010234258296488294,22.7000007629,0.0,0.01591060931153025,0.04688091383482523
1648383857812508744,36984,3,2,0.326980412006,0.177268475294,-0.35720577836,-0.485512852669,22.7000007629,0.10935799732642139,0.05928711548294314,-0.11946681550501671,22.7000007629,-0.06560984495527027,0.16563002511857267,0.5156900912975219
1648383857812695477,36985,3,3,0.483366876841,-0.032230630517,0.176787734032,-0.485512852669,22.7000007629,0.1616611628230769,-0.010779475089297658,0.059126332452173906,22.7000007629,-0.06560984495527027,0.22887739122468945,0.5156900756023088
1648383857812703848,36986,3,4,0.261769533157,-0.0263705141842,0.0995129570365,-0.242756426334,22.7000007629,0.08754833884849499,-0.008819569961270902,0.033281925430267555,22.7000007629,-0.03280492247756756,0.12412577526268886,0.28128547976339113
1648383857812720741,36987,3,5,0.245296016335,0.079111546278,-0.112662144005,-0.242756426334,22.7000007629,0.08203880144983278,0.026458711129765885,-0.037679646824414714,22.7000007629,-0.03280492247756756,0.11899913143085779,0.2812854974507575
1648383857812724130,36988,3,6,0.906581997871,0.205104008317,0.123164474964,-0.0809188112617,22.7000007629,0.30320468156220737,0.06859665829999999,0.04119213209498328,22.7000007629,-0.010934974494824324,0.43424838442118135,0.9376182917289059
