%time,field.header.seq,field.header.frame_id,field.point_id,field.x,field.y,field.z,field.velocity,field.intensity,normalized_x,normalized_y,normalized_z,normalized_intensity,normalized_velocity,normalized_range,range
1648383895112675588,37654,0,0,0.00777089362964,0.0454158857465,0.00865047797561,0.0,20.5,0.002598961080147157,0.015189259446989964,0.0028931364466923074,20.5,0.0,0.015627629376850898,0.046880915468331404
1648383895112681713,37655,0,1,0.0316766984761,0.0161153152585,-0.030572924763,0.0,20.5,0.01059421353715719,0.005389737544648829,-0.01022505844916388,20.5,0.0,0.015922436740083677,0.04688091659503532
1648383895112689850,37656,0,2,0.839063465595,0.111342176795,-0.277468204498,0.0,20.5,0.28062323264046823,0.037238186219063545,-0.0927987306013378,20.5,0.0,0.3986044153143043,0.8907374383829865
1648383895112700694,37657,0,3,0.438337534666,-0.0,-0.721078276634,0.323675245047,20.5,0.1466011821625418,-0.0,-0.24116330322207358,20.5,0.04373989797932432,0.2073253800741953,0.8438564305203381
1648383895112725646,37658,0,4,0.282554447651,0.0263705141842,-0.794708311558,0.485512852669,20.5,0.09449981526789297,0.008819569961270902,-0.2657887329625418,20.5,0.06560984495527027,0.13393362156543648,0.8438564572041077
1648383895412801091,37659,3,0,0.0077766450122,0.0454158857465,0.008645308204,0.0,37.2000007629,0.002600884619464883,0.015189259446989964,0.0028914074260869564,37.2000007629,0.0,0.015628269390931034,0.046880915517159706
1648383895412813841,37660,3,1,0.0317701548338,0.0161153152585,-0.0304757971317,0.0,37.2000007629,0.010625469844080268,0.005389737544648829,-0.010192574291538461,37.2000007629,0.0,0.015964037384543907,0.046880916531750985
1648383895412821724,37661,3,2,0.288589984179,0.0293005723506,-0.368292421103,0.0,37.2000007629,0.09651838935752508,0.009799522525284281,-0.12317472277692305,37.2000007629,0.0,0.13684892988279146,0.468809140216376
1648383895412832874,37662,3,3,0.825961649418,0.250519901514,0.220091566443,-0.0809188112617,37.2000007629,0.2762413543204013,0.08378592023879598,0.07360921954615383,37.2000007629,-0.010934974494824324,0.39954805981734026,0.8907374276312974
1648383895712713942,37663,6,0,0.00779683841392,0.0454158857465,0.00862710084766,0.0,17.7999992371,0.0026076382655250835,0.015189259446989964,0.0028853180092508358,17.7999992371,0.0,0.01563052005518803,0.046880915481970015
1648383895712725164,37664,6,1,0.0316766984761,0.0161153152585,-0.030572924763,0.0,17.7999992371,0.01059421353715719,0.005389737544648829,-0.01022505844916388,17.7999992371,0.0,0.015922436740083677,0.04688091659503532
1648383895712887529,37665,6,2,0.836450517178,0.306190997362,0.00327379698865,0.0,17.7999992371,0.2797493368488294,0.10240501584013377,0.0010949153808193978,17.7999992371,0.0,0.40866388414433896,0.8907373980582621
1648383895712892821,37666,6,3,0.943894863129,0.276890397072,-0.0404081307352,0.0,17.7999992371,0.3156839007120401,0.09260548397056856,-0.013514424995050166,17.7999992371,0.0,0.455947832541138,0.9844991730121039
1648383895712894909,37667,6,4,0.295944333076,-0.11280720681,0.0859342291951,-0.0809188112617,17.7999992371,0.0989780378180602,-0.03772816281270903,0.02874054488130435,17.7999992371,-0.010934974494824324,0.14497143929012013,0.3281664302384211
1648383895712897711,37668,6,5,0.243154913187,0.0102552007884,-0.220144763589,-0.0809188112617,17.7999992371,0.08132271344046822,0.003429833039598662,-0.07362701123377927,17.7999992371,-0.010934974494824324,0.1150588162520393,0.3281664179739368
