%time,field.header.seq,field.header.frame_id,field.point_id,field.x,field.y,field.z,field.velocity,field.intensity,normalized_x,normalized_y,normalized_z,normalized_intensity,normalized_velocity,normalized_range,range
1648383970513411988,38960,0,0,0.00782809499651,0.0454158857465,0.00859874952585,0.0,20.6000003815,0.0026180919720769228,0.015189259446989964,0.0028758359618227423,20.6000003815,0.0,0.01563401463784914,0.04688091555016638
1648383970513542929,38961,0,1,0.0317173525691,0.0161153152585,-0.0305307433009,0.0,20.6000003815,0.010607810223779263,0.005389737544648829,-0.010210950936755852,20.6000003815,0.0,0.015940531555993637,0.04688091430826501
1648383970513545422,38962,0,2,0.904974579811,-0.205104008317,0.134467288852,0.0,20.6000003815,0.30266708354882943,-0.06859665829999999,0.04497233740869565,20.6000003815,0.0,0.4334976683418668,0.9376183104563409
1648383970513550853,38963,0,3,0.509649932384,0.184593603015,-0.646742522717,0.323675245047,20.6000003815,0.17045148240267557,0.06173699097491638,-0.21630184706254177,20.6000003815,0.04373989797932432,0.248835029208462,0.8438564703451793
1648383970513740767,38964,0,4,0.3767555058,-1.05482065678,0.106551326811,-0.485512852669,20.6000003815,0.12600518588628762,-0.352782828354515,0.03563589525451505,20.6000003815,-0.06560984495527027,0.395234535083015,1.1251419974232537
1648383970813273118,38965,3,0,0.00779639929533,0.0454158857465,0.00862749759108,0.0,28.1000003815,0.002607491403120401,0.015189259446989964,0.0028854506993578593,28.1000003815,0.0,0.015630471054407395,0.04688091546456249
1648383970813285075,38966,3,1,0.0316999517381,0.0161153152585,-0.0305488090962,0.0,28.1000003815,0.010601990547859532,0.005389737544648829,-0.01021699300876254,28.1000003815,0.0,0.015932786258341724,0.046880913635239496
1648383970813372620,38967,3,2,0.281889885664,0.0439508594573,-0.372005969286,0.0809188112617,28.1000003815,0.09427755373377925,0.014699284099431437,-0.12441671213578594,28.1000003815,0.010934974494824324,0.13413643512889054,0.4688091582628423
1648383970813378212,38968,3,3,0.453062415123,0.114272229373,-0.391290068626,0.242756426334,28.1000003815,0.15152589134548494,0.03821813691404682,-0.13086624368762542,28.1000003815,0.03280492247756756,0.21767135200863766,0.6094518949091068
1648383970813407718,38969,3,4,0.318371266127,0.495179653168,0.15769739449,0.242756426334,28.1000003815,0.10647868432341137,0.16561192413645484,0.0527416035083612,28.1000003815,0.03280492247756756,0.2238363908006655,0.6094519014949616
1648383970813485649,38970,3,5,1.01773881912,-0.096691891551,0.136394277215,-0.242756426334,28.1000003815,0.3403808759598662,-0.032338425267892976,0.04561681512207357,28.1000003815,-0.03280492247756756,0.48245627282399256,1.0313801552737405
1648383970813489042,38971,3,6,0.845559775829,-0.167013257742,0.224829748273,-0.0809188112617,28.1000003815,0.28279591164849494,-0.05585727683678929,0.07519389574347826,28.1000003815,-0.010934974494824324,0.40381566421552845,0.8907374352019146
1648383970918117013,38972,4,0,0.00795032456517,0.0454158857465,0.0084858648479,0.0,17.0,0.0026589714264782602,0.015189259446989964,0.0028380818889297654,17.0,0.0,0.01564780689558858,0.046880915531242684
1648383970918125808,38973,4,1,0.0317173525691,0.0161153152585,-0.0305307433009,0.0,17.0,0.010607810223779263,0.005389737544648829,-0.010210950936755852,17.0,0.0,0.015940531555993637,0.04688091430826501
1648383970918156466,38974,4,2,0.26096239686,-0.0102552007884,-0.198712512851,0.566431701183,17.0,0.0872783935986622,-0.003429833039598662,-0.06645903439832776,17.0,0.07654482448418919,0.1234779321701069,0.3281664280234731
1648383970918160928,38975,4,3,0.275255173445,-0.123062409461,0.129550889134,0.566431701183,17.0,0.09205858643645484,-0.041157996475250834,0.04332805656655518,17.0,0.07654482448418919,0.13654137595327365,0.3281664212042326
1648383970918177943,38976,4,4,0.509317398071,0.032230630517,0.0741162896156,-0.566431701183,17.0,0.1703402669133779,0.010779475089297658,0.024788056727625418,17.0,-0.07654482448418919,0.24113857042672046,0.5156900715620966
1648383970918183053,38977,4,5,0.124670654535,-0.499574780464,0.028609873727,-0.566431701183,17.0,0.0416958710819398,-0.1670818663759197,0.009568519641137124,17.0,-0.07654482448418919,0.17718194434598625,0.5156900796529966
1648383970918185175,38978,4,6,0.925849795341,-0.146502867341,0.0216141771525,-0.161837622523,17.0,0.309648760983612,-0.04899761449531772,0.007228821790133779,17.0,-0.021869948989594594,0.44064211848574336,0.9376183159079636
1648383970918189697,38979,4,7,0.817816913128,-0.0,-0.208012506366,-0.0809188112617,17.0,0.2735173622501672,-0.0,-0.06956940012240802,17.0,-0.010934974494824324,0.38681196323870126,0.8438564488127562
1648383970918201941,38980,4,8,0.669905483723,-0.290075659752,0.423292398453,-0.0809188112617,17.0,0.22404865676354513,-0.09701527082006689,0.14156936403110365,17.0,-0.010934974494824324,0.3313722438095693,0.8438564451912409
1648383971113327913,38981,6,0,0.00777065707371,0.0454158857465,0.00865069031715,0.0,15.3999996185,0.0025988819644515047,0.015189259446989964,0.0028932074639297658,15.3999996185,0.0,0.015627603062474953,0.04688091543964957
1648383971113332021,38982,6,1,0.0317173525691,0.0161153152585,-0.0305307433009,0.0,15.3999996185,0.010607810223779263,0.005389737544648829,-0.010210950936755852,15.3999996185,0.0,0.015940531555993637,0.04688091430826501
1648383971113407862,38983,6,2,0.274076551199,-0.0263705141842,0.0575166791677,-0.161837622523,15.3999996185,0.09166439839431437,-0.008819569961270902,0.01923634754772575,15.3999996185,-0.021869948989594594,0.1299327082773422,0.2812854925479757
1648383971113411786,38984,6,3,0.848493993282,-0.250519901514,0.103493563831,-0.0809188112617,15.3999996185,0.28377725527826086,-0.08378592023879598,0.03461323205050167,15.3999996185,-0.010934974494824324,0.40997456220695977,0.8907374447302977
