%time,field.header.seq,field.header.frame_id,field.point_id,field.x,field.y,field.z,field.velocity,field.intensity,normalized_x,normalized_y,normalized_z,normalized_intensity,normalized_velocity,normalized_range,range
1648383988213276284,39339,0,0,0.00781654473394,0.0454158857465,0.00860925018787,0.0,38.7000007629,0.002614229008006689,0.015189259446989964,0.002879347888919732,38.7000007629,0.0,0.015632721745127465,0.04688091550422375
1648383988213283925,39340,0,1,0.0316909812391,0.0161153152585,-0.030558116734,0.0,38.7000007629,0.010598990380969897,0.005389737544648829,-0.010220105931103679,38.7000007629,0.0,0.01592879358244001,0.04688091483862705
1648383988213350746,39341,0,2,0.959032773972,-0.184593603015,0.124177381396,0.0,38.7000007629,0.3207467471478261,-0.06173699097491638,0.04153089678795986,38.7000007629,0.0,0.45778642145268994,0.9844992035938152
1648383988213352861,39342,0,3,0.395089298487,0.133317604661,-0.444480001926,-0.323675245047,38.7000007629,0.13213688912608693,0.0445878276458194,-0.14865551903879598,38.7000007629,-0.04373989797932432,0.19211556238371966,0.6094518927722133
1648383988318475622,39343,1,0,0.00795032456517,0.0454158857465,0.0084858648479,0.0,46.2000007629,0.0026589714264782602,0.015189259446989964,0.0028380818889297654,46.2000007629,0.0,0.01564780689558858,0.046880915531242684
1648383988318482330,39344,1,1,0.0316909812391,0.0161153152585,-0.030558116734,0.0,46.2000007629,0.010598990380969897,0.005389737544648829,-0.010220105931103679,46.2000007629,0.0,0.01592879358244001,0.04688091483862705
1648383988318485012,39345,1,2,0.872490048409,-0.234404578805,0.250885814428,0.0,46.2000007629,0.29180269177558527,-0.07839618020234114,0.08390829913979933,46.2000007629,0.0,0.4200518812304884,0.9376183034789208
1648383988318602360,39346,1,3,0.264053225517,0.0879017189145,-0.377268075943,0.0809188112617,46.2000007629,0.08831211555752508,0.02939856819882943,-0.12617661402775918,46.2000007629,0.010934974494824324,0.1283056324587216,0.4688091501024576
1648383988318604403,39347,1,4,0.354711562395,0.495179653168,0.0202098432928,0.242756426334,46.2000007629,0.11863262956354514,0.16561192413645484,0.006759144913979933,46.2000007629,0.03280492247756756,0.23574289174968038,0.6094519006239969
1648383988318605634,39348,1,5,0.39817199111,0.076181486249,-0.455068200827,0.242756426334,46.2000007629,0.13316789000334447,0.02547875794280936,-0.15219672268461537,46.2000007629,0.03280492247756756,0.19004352386280882,0.6094519019213339
1648383988513783892,39349,3,0,0.00779639929533,0.0454158857465,0.00862749759108,0.0,18.5,0.002607491403120401,0.015189259446989964,0.0028854506993578593,18.5,0.0,0.015630471054407395,0.04688091546456249
1648383988513791329,39350,3,1,0.0316134914756,0.0161153152585,-0.0306382775307,0.0,18.5,0.010573074072107022,0.005389737544648829,-0.010246915562107023,18.5,0.0,0.015894309090637465,0.046880915938224514
1648383988513799166,39351,3,2,0.769827127457,-0.158223092556,-0.307287156582,0.0,18.5,0.2574672667080267,-0.05291742225953177,-0.10277162427491639,18.5,0.0,0.36793890855792616,0.8438564746370862
1648383988513827706,39352,3,3,0.60308521986,-0.0571361146867,0.0667477026582,-0.647350490093,18.5,0.20170074242809363,-0.0191090684570903,0.022323646373979933,18.5,-0.08747979595851352,0.285887277592736,0.6094518634192726
1648383988513836226,39353,3,4,0.286810278893,0.190453708172,-0.502890527248,-0.647350490093,18.5,0.09592317019832775,0.06369689236521739,-0.16819081178862874,18.5,-0.08747979595851352,0.1498659509654571,0.6094519123203381
1648383988513851843,39354,3,5,0.45152375102,0.0146502861753,0.125274479389,-0.485512852669,18.5,0.15101128796655516,0.0048997612626421405,0.04189781919364548,18.5,-0.06560984495527027,0.21361841176983454,0.4688091549941981
1648383988513855511,39355,3,6,0.297109127045,-0.0615312047303,0.125033095479,-0.323675245047,18.5,0.09936760101839463,-0.020578998237558526,0.0418170887889632,18.5,-0.04373989797932432,0.14202582663995716,0.3281664173770143
1648383988513857254,39356,3,7,0.287958562374,0.0512760058045,-0.148808091879,-0.323675245047,18.5,0.09630721149632107,0.01714916582090301,-0.04976859260167223,18.5,-0.04373989797932432,0.13727436709286647,0.3281664373826685
1648383988513859429,39357,3,8,0.880828619003,-0.263705164194,0.183653622866,-0.0809188112617,18.5,0.29459151137224077,-0.0881957070882943,0.06142261634314381,18.5,-0.010934974494824324,0.4258483296831941,0.9376183247298037
1648383988618353083,39358,4,0,0.00779639929533,0.0454158857465,0.00862749759108,0.0,18.6000003815,0.002607491403120401,0.015189259446989964,0.0028854506993578593,18.6000003815,0.0,0.015630471054407395,0.04688091546456249
1648383988618370168,39359,4,1,0.0316134914756,0.0161153152585,-0.0306382775307,0.0,18.6000003815,0.010573074072107022,0.005389737544648829,-0.010246915562107023,18.6000003815,0.0,0.015894309090637465,0.046880915938224514
1648383988618390978,39360,4,2,0.254697918892,-0.0879017189145,0.0807699859142,-0.161837622523,18.6000003815,0.08518325046555184,-0.02939856819882943,0.0270133732154515,18.6000003815,-0.021869948989594594,0.12400261340752097,0.2812855003383922
1648383988618392835,39361,4,3,0.263696283102,-0.0703213736415,0.0681227147579,-0.161837622523,18.6000003815,0.08819273682341136,-0.023518854060702338,0.022783516641438125,18.6000003815,-0.021869948989594594,0.12692144875132655,0.28128549478887777
1648383988618530390,39362,4,4,0.766905426979,-0.278355449438,0.357473760843,-0.0809188112617,18.6000003815,0.2564901093575251,-0.09309546803946488,0.11955644175351168,18.6000003815,-0.010934974494824324,0.37448780830082756,0.8907374359781403
