%time,field.header.seq,field.header.frame_id,field.point_id,field.x,field.y,field.z,field.velocity,field.intensity,normalized_x,normalized_y,normalized_z,normalized_intensity,normalized_velocity,normalized_range,range
1648382988894713479,16927,0,0,0.00761736324057,0.0454158857465,0.00878597423434,0.0,20.7000007629,0.0025476131239364546,0.015189259446989964,0.0029384529211839466,20.7000007629,0.0,0.015610710035308464,0.046880915564058843
1648382988894719029,16928,0,1,0.0317215062678,0.0161153152585,-0.0305264294147,0.0,20.7000007629,0.010609199420668895,0.005389737544648829,-0.010209508165451504,20.7000007629,0.0,0.015942380483956582,0.04688091550502805
1648382988999806657,16929,1,0,0.00777849555016,0.0454158857465,0.00864364299923,0.0,21.8999996185,0.002601503528481605,0.015189259446989964,0.0028908505014147157,21.8999996185,0.0,0.015628475413980034,0.04688091547166222
1648382988999812240,16930,1,1,0.0317385159433,0.0161153152585,-0.0305087435991,0.0,21.8999996185,0.01061488827535117,0.005389737544648829,-0.010203593176956521,21.8999996185,0.0,0.015949952256874397,0.04688091526580487
1648382988999816805,16931,1,2,0.792784512043,0.0747164562345,0.0328669473529,0.0,21.8999996185,0.2651453217535117,0.024988781349331104,0.010992290084581939,21.8999996185,0.0,0.3758038351173004,0.7969755752818263
1648382988999962201,16932,1,3,0.835831880569,0.278355449438,-0.131592288613,-0.242756426334,21.8999996185,0.2795424349729097,0.09309546803946488,-0.04401079886722408,21.8999996185,-0.03280492247756756,0.40614617081865234,0.8907374580816444
1648382988999966128,16933,1,4,0.524226248264,-0.830671191216,-0.066415078938,-0.0809188112617,21.8999996185,0.17532650443612038,-0.2778164519117057,-0.022212400982608693,21.8999996185,-0.010934974494824324,0.3723717863485188,0.9844992381893946
1648382989194782801,16934,3,0,0.00767798768356,0.0454158857465,0.00873304437846,0.0,16.1000003815,0.0025678888573779264,0.015189259446989964,0.0029207506282474915,16.1000003815,0.0,0.01561735281395875,0.046880915489399225
1648382989194789388,16935,3,1,0.0317385159433,0.0161153152585,-0.0305087435991,0.0,16.1000003815,0.01061488827535117,0.005389737544648829,-0.010203593176956521,16.1000003815,0.0,0.015949952256874397,0.04688091526580487
1648382989194792375,16936,3,2,0.326053857803,-0.879017174244,0.0120754875243,0.0809188112617,16.1000003815,0.10904811297759197,-0.29398567700468226,0.00403862459006689,16.1000003815,0.010934974494824324,0.33197975867791807,0.9376183275742188
1648382989194815226,16937,3,3,0.934696018696,0.0586011447012,0.0451366715133,0.0809188112617,16.1000003815,0.31260736411237455,0.019599045050568562,0.015095876760301004,16.1000003815,0.010934974494824324,0.44252779659753316,0.9376182915460554
1648382989299933395,16938,4,0,0.00765752140433,0.0454158857465,0.00875099562109,0.0,16.7999992371,0.0025610439479364544,0.015189259446989964,0.0029267543883244145,16.7999992371,0.0,0.015615104698800382,0.0468809154833526
1648382989299964539,16939,4,1,0.0317385159433,0.0161153152585,-0.0305087435991,0.0,16.7999992371,0.01061488827535117,0.005389737544648829,-0.010203593176956521,16.7999992371,0.0,0.015949952256874397,0.04688091526580487
1648382989299966865,16940,4,2,0.793846905231,0.0498109720647,-0.0499599650502,0.0,16.7999992371,0.2655006372010033,0.016659187981505015,-0.016709018411438126,16.7999992371,0.0,0.3758439905765166,0.796975557963156
1648382989299969494,16941,4,3,0.618225991726,0.375047326088,0.199444547296,-0.647350490093,16.7999992371,0.20676454572775918,0.1254338883237458,0.06670386197190635,16.7999992371,-0.08747979595851352,0.31817733275647897,0.7500946614244507
1648382989494811560,16942,6,0,0.00761736324057,0.0454158857465,0.00878597423434,0.0,35.7000007629,0.0025476131239364546,0.015189259446989964,0.0029384529211839466,35.7000007629,0.0,0.015610710035308464,0.046880915564058843
1648382989494919936,16943,6,1,0.0317215062678,0.0161153152585,-0.0305264294147,0.0,35.7000007629,0.010609199420668895,0.005389737544648829,-0.010209508165451504,35.7000007629,0.0,0.015942380483956582,0.04688091550502805
1648382989494923485,16944,6,2,0.843295395374,0.0263705141842,-0.0158481393009,0.0,35.7000007629,0.28203859377056856,0.008819569961270902,-0.0053003810370903,35.7000007629,0.0,0.39896030073988736,0.8438564400397919
1648382989494925418,16945,6,3,0.59923350811,0.0410208031535,0.264592707157,-0.485512852669,35.7000007629,0.20041254451839463,0.013719332158361203,0.08849254419966555,35.7000007629,-0.06560984495527027,0.2837579885669238,0.6563328456003444
1648382989494926514,16946,6,4,0.628096461296,0.102552011609,0.160470336676,-0.242756426334,35.7000007629,0.21006570611906356,0.03429833164180602,0.05366900892173913,35.7000007629,-0.03280492247756756,0.29905112828413283,0.656332849041185
1648382989599979726,16947,7,0,0.00758975045756,0.0454158857465,0.00880983844399,0.0,34.7999992371,0.002538378079451505,0.015189259446989964,0.0029464342622040132,34.7999992371,0.0,0.015607700954863715,0.04688091555800055
1648382989600003326,16948,7,1,0.0317385159433,0.0161153152585,-0.0305087435991,0.0,34.7999992371,0.01061488827535117,0.005389737544648829,-0.010203593176956521,34.7999992371,0.0,0.015949952256874397,0.04688091526580487
1648382989600008012,16949,7,2,0.642840564251,-0.0,0.132396534085,0.0,34.7999992371,0.21499684423110366,-0.0,0.04427977728595317,34.7999992371,0.0,0.3040514529790425,0.6563328677464391
1648382989600010644,16950,7,3,0.636713266373,-0.082041606307,0.136521905661,0.161837622523,34.7999992371,0.21294758072675582,-0.027438664316722407,0.04565950022107023,34.7999992371,0.021869948989594594,0.30240076814426603,0.6563328724558283
1648382989600250222,16951,7,4,0.634948134422,-0.131852582097,0.271965712309,0.323675245047,34.7999992371,0.21235723559264214,-0.04409785354414715,0.0909584322103679,34.7999992371,0.04373989797932432,0.30353881416434847,0.7032137551864057
