%time,field.header.seq,field.header.frame_id,field.point_id,field.x,field.y,field.z,field.velocity,field.intensity,normalized_x,normalized_y,normalized_z,normalized_intensity,normalized_velocity,normalized_range,range
1648383806407202171,35373,0,0,0.00779683841392,0.0454158857465,0.00862710084766,0.0,12.0,0.0026076382655250835,0.015189259446989964,0.0028853180092508358,12.0,0.0,0.01563052005518803,0.046880915481970015
1648383806407227248,35374,0,1,0.0317701548338,0.0161153152585,-0.0304757971317,0.0,12.0,0.010625469844080268,0.005389737544648829,-0.010192574291538461,12.0,0.0,0.015964037384543907,0.046880916531750985
1648383806407233900,35375,0,2,0.896543383598,-0.0879017189145,0.260021835566,0.0,12.0,0.2998472854842809,-0.02939856819882943,0.08696382460401338,12.0,0.0,0.4250659537492093,0.9376183156447971
1648383806407245913,35376,0,3,0.827611684799,0.234404578805,-0.373150736094,0.0,12.0,0.27679320561839466,0.07839618020234114,-0.12479957728896321,12.0,0.0,0.39921788339618725,0.937618301457519
1648383806407276071,35377,0,4,0.649904608727,0.263705164194,-0.0509232096374,0.242756426334,12.0,0.2173594009120401,0.0881957070882943,-0.017031173791772575,12.0,0.03280492247756756,0.3197947796298216,0.7032137565114565
1648383806512686619,35378,1,0,0.00782256573439,0.0454158857465,0.00860377959907,0.0,29.8999996185,0.0026162427205317727,0.015189259446989964,0.0028775182605585287,29.8999996185,0.0,0.015633395488295076,0.04688091547951433
1648383806512690401,35379,1,1,0.0316766984761,0.0161153152585,-0.030572924763,0.0,29.8999996185,0.01059421353715719,0.005389737544648829,-0.01022505844916388,29.8999996185,0.0,0.015922436740083677,0.04688091659503532
1648383806512692426,35380,1,2,0.913598239422,0.0293005723506,0.208824694157,0.0,29.8999996185,0.30555125064280936,0.009799522525284281,0.06984103483511706,29.8999996185,0.0,0.4322258254437064,0.937618269609128
1648383806512818254,35381,1,3,2.52819490433,0.082041606307,0.702754557133,0.0,29.8999996185,0.8455501352274246,0.027438664316722407,0.23503496894080264,29.8999996185,0.0,1.1961032324451422,2.625331268053007
1648383806512821036,35382,1,4,0.552320539951,0.247589826584,0.0712241977453,-0.404594063759,29.8999996185,0.18472258861237456,0.08280596206822742,0.023820801921505017,29.8999996185,-0.05467487348094594,0.2740468880344345,0.6094518745759347
1648383806512827391,35383,1,5,0.544728815556,0.228544458747,0.149898603559,-0.161837622523,29.8999996185,0.18218355035317724,0.07643627382842809,0.0501333122270903,29.8999996185,-0.021869948989594594,0.2687455971645894,0.6094519205564456
1648383806707219360,35384,3,0,0.00779683841392,0.0454158857465,0.00862710084766,0.0,28.3999996185,0.0026076382655250835,0.015189259446989964,0.0028853180092508358,28.3999996185,0.0,0.01563052005518803,0.046880915481970015
1648383806707280804,35385,3,1,0.0316930636764,0.0161153152585,-0.0305559579283,0.0,28.3999996185,0.010599686848294314,0.005389737544648829,-0.010219383922508362,28.3999996185,0.0,0.01592972044211712,0.04688091547733712
1648383806707302297,35386,3,2,0.585865914822,-0.0380907431245,0.163529366255,0.0,28.3999996185,0.19594177753244146,-0.01273937897140468,0.05469209573745819,28.3999996185,0.0,0.27739620066201814,0.609451908266565
1648383806812423574,35387,4,0,0.00779683841392,0.0454158857465,0.00862710084766,0.0,19.0,0.0026076382655250835,0.015189259446989964,0.0028853180092508358,19.0,0.0,0.01563052005518803,0.046880915481970015
1648383806812432564,35388,4,1,0.0316766984761,0.0161153152585,-0.030572924763,0.0,19.0,0.01059421353715719,0.005389737544648829,-0.01022505844916388,19.0,0.0,0.015922436740083677,0.04688091659503532
1648383806812460944,35389,4,2,0.927632689476,0.0307656005025,0.328313589096,0.0,19.0,0.3102450466474916,0.010289498495819397,0.10980387595183946,19.0,0.0,0.43887338916583213,0.9844992338970373
1648383806812468852,35390,4,3,0.592491447926,-0.133317604661,0.0511069521308,0.161837622523,19.0,0.19815767489163877,-0.0445878276458194,0.01709262613070234,19.0,0.021869948989594594,0.2837622290071286,0.6094519014115014
1648383807007253768,35391,6,0,0.00779683841392,0.0454158857465,0.00862710084766,0.0,31.6000003815,0.0026076382655250835,0.015189259446989964,0.0028853180092508358,31.6000003815,0.0,0.01563052005518803,0.046880915481970015
1648383807007466988,35392,6,1,0.0315993279219,0.0161153152585,-0.0306528843939,0.0,31.6000003815,0.010568337097625417,0.005389737544648829,-0.01025180080063545,31.6000003815,0.0,0.015888007075095616,0.04688091544181289
1648383807007472432,35393,6,2,1.02658522129,-0.064461261034,0.0755812004209,0.0,31.6000003815,0.3433395388929765,-0.021558950178595316,0.02527799345180602,31.6000003815,0.0,0.4860338118560134,1.0313801377776266
1648383807007479785,35394,6,3,0.617700278759,-0.184593617916,-0.123062409461,0.323675245047,31.6000003815,0.2065887219929766,-0.061736995958528426,-0.041157996475250834,31.6000003815,0.04373989797932432,0.2986122180677912,0.6563328384109783
1648383807007586120,35395,6,4,0.484759628773,0.0410208031535,0.440565794706,0.323675245047,31.6000003815,0.16212696614481603,0.013719332158361203,0.1473464196341137,31.6000003815,0.04373989797932432,0.22969224274562713,0.6563328602503643
1648383807007589932,35396,6,5,0.848304390907,-0.0,0.399384230375,-0.0809188112617,31.6000003815,0.28371384311270903,-0.0,0.13357332119565216,31.6000003815,-0.010934974494824324,0.4012319647629856,0.9376183141899093
