%time,field.header.seq,field.header.frame_id,field.point_id,field.x,field.y,field.z,field.velocity,field.intensity,normalized_x,normalized_y,normalized_z,normalized_intensity,normalized_velocity,normalized_range,range
1648383676306652471,31839,0,0,0.00772431911901,0.0454158857465,0.00869209133089,0.0,18.2000007629,0.0025833843207391303,0.015189259446989964,0.0029070539568193977,18.2000007629,0.0,0.015622463046691949,0.04688091547416686
1648383676306679536,31840,0,1,0.0317196249962,0.0161153152585,-0.0305283833295,0.0,18.2000007629,0.010608570232842809,0.005389737544648829,-0.010210161648662206,18.2000007629,0.0,0.01594154307369629,0.046880914928073794
1648383676306681445,31841,0,2,1.05357158184,0.101086974144,0.205949366093,0.0,18.2000007629,0.3523650775384615,0.03380835255652174,0.06887938665317725,18.2000007629,0.0,0.4994650142301842,1.0782610054140591
1648383676306683291,31842,0,3,0.283862054348,0.281285494566,-0.395963281393,0.242756426334,18.2000007629,0.09493714192240801,0.09407541624280935,-0.1324291911013378,18.2000007629,0.03280492247756756,0.16393994563268807,0.5625709871326624
1648383676411826474,31843,1,0,0.0078032030724,0.0454158857465,0.00862134434283,0.0,30.1000003815,0.0026097669138461536,0.015189259446989964,0.002883392756799331,30.1000003815,0.0,0.015631230573348535,0.04688091546254084
1648383676411829598,31844,1,1,0.0317965820432,0.0161153152585,-0.0304482225329,0.0,30.1000003815,0.010634308375652175,0.005389737544648829,-0.010183352017692307,30.1000003815,0.0,0.015975803580951076,0.046880915849882784
1648383676411841345,31845,1,2,1.04450976849,0.134782627225,0.231256917119,0.0,30.1000003815,0.34933437073244145,0.04507780174749164,0.07734345054147157,30.1000003815,0.0,0.4960856915498046,1.07826099567224
1648383676411858352,31846,1,3,0.530815839767,0.0175803434104,0.185503616929,0.0809188112617,30.1000003815,0.17753038119297657,0.005879713515183946,0.06204134345451504,30.1000003815,0.010934974494824324,0.2511347119059167,0.5625709876235302
1648383676411891136,31847,1,4,0.506169617176,-0.0527410283685,0.239784955978,0.323675245047,30.1000003815,0.16928749738327756,-0.017639139922575247,0.08019563745083612,30.1000003815,0.04373989797932432,0.24005760308266555,0.5625709933322519
1648383676606741507,31848,3,0,0.00774472299963,0.0454158857465,0.00867391657084,0.0,31.8999996185,0.0025902083610802673,0.015189259446989964,0.0029009754417525084,31.8999996185,0.0,0.015624722757719388,0.04688091553242142
1648383676606749348,31849,3,1,0.0315993279219,0.0161153152585,-0.0306528843939,0.0,31.8999996185,0.010568337097625417,0.005389737544648829,-0.01025180080063545,31.8999996185,0.0,0.015888007075095616,0.04688091544181289
1648383676606761925,31850,3,2,1.02782785892,0.0673913136125,0.318865001202,0.0,31.8999996185,0.3437551367625418,0.02253890087374582,0.10664381311103678,31.8999996185,0.0,0.48666537801025483,1.0782609079967804
1648383676606767370,31851,3,3,0.622328042984,-0.164083212614,0.128675326705,-0.566431701183,31.8999996185,0.20813646922541806,-0.054877328633444813,0.043035226322742474,31.8999996185,-0.07654482448418919,0.2994212765338995,0.6563328678716807
1648383676606843640,31852,3,4,0.632847189903,-0.263705164194,0.156440347433,-0.323675245047,31.8999996185,0.21165457856287626,-0.0881957070882943,0.05232118643244147,31.8999996185,-0.04373989797932432,0.3120477591684672,0.7032137382728426
1648383676711889508,31853,4,0,0.00772431911901,0.0454158857465,0.00869209133089,0.0,37.7999992371,0.0025833843207391303,0.015189259446989964,0.0029070539568193977,37.7999992371,0.0,0.015622463046691949,0.04688091547416686
1648383676711892527,31854,4,1,0.0315993279219,0.0161153152585,-0.0306528843939,0.0,37.7999992371,0.010568337097625417,0.005389737544648829,-0.01025180080063545,37.7999992371,0.0,0.015888007075095616,0.04688091544181289
1648383676711895493,31855,4,2,1.03903543949,0.101086974144,0.269876599312,0.0,37.7999992371,0.34750349146822745,0.03380835255652174,0.09025973221137122,37.7999992371,0.0,0.4926056819280538,1.0782609144886859
1648383676711897298,31856,4,3,0.712414860725,-0.234404578805,0.0127090588212,-0.404594063759,37.7999992371,0.23826583970735785,-0.07839618020234114,0.004250521344882943,37.7999992371,-0.05467487348094594,0.34595835271492237,0.7500946343780173
1648383676711899020,31857,4,4,0.738814532757,-0.298865824938,-0.00152057234664,-0.242756426334,37.7999992371,0.24709516145719063,-0.09995512539732442,-0.0005085526242943144,37.7999992371,-0.03280492247756756,0.3634598529745824,0.7969755374345419
1648383676906721504,31858,6,0,0.00778307579458,0.0454158857465,0.00863951910287,0.0,34.7999992371,0.0026030353828026755,0.015189259446989964,0.002889471271862876,34.7999992371,0.0,0.015628985538294518,0.046880915491190805
1648383676906724831,31859,6,1,0.0317701548338,0.0161153152585,-0.0304757971317,0.0,34.7999992371,0.010625469844080268,0.005389737544648829,-0.010192574291538461,34.7999992371,0.0,0.015964037384543907,0.046880916531750985
1648383676906730498,31860,6,2,0.828563094139,-0.351606875658,-0.262647777796,0.485512852669,34.7999992371,0.2771114027220736,-0.11759427279531771,-0.08784206615250836,34.7999992371,0.06560984495527027,0.40915751493947916,0.9376182864899503
1648383676906738599,31861,6,3,1.0528793335,0.101086974144,0.209459453821,-0.0809188112617,34.7999992371,0.352133556354515,0.03380835255652174,0.07005332903712375,34.7999992371,-0.010934974494824324,0.49913834527547857,1.0782609749258225
