%time,field.header.seq,field.header.frame_id,field.point_id,field.x,field.y,field.z,field.velocity,field.intensity,normalized_x,normalized_y,normalized_z,normalized_intensity,normalized_velocity,normalized_range,range
1648382958594075081,16209,0,0,0.00763018382713,0.0454158857465,0.00877484213561,0.0,11.6999998093,0.002551900945528428,0.015189259446989964,0.0029347298112408025,11.6999998093,0.0,0.015612110665107124,0.04688091549745818
1648382958594082451,16210,0,1,0.0317869521677,0.0161153152585,-0.0304582752287,0.0,11.6999998093,0.010631087681505016,0.005389737544648829,-0.010186714123311036,11.6999998093,0.0,0.015971515938817224,0.04688091556166252
1648382958594086544,16211,0,2,0.875661313534,0.430718421936,-0.130144745111,0.161837622523,11.6999998093,0.29286331556321066,0.14405298392508362,-0.043526670605685616,11.6999998093,0.021869948989594594,0.4385078167867408,0.9844992380368487
1648382958699209731,16212,1,0,0.00759660825133,0.0454158857465,0.00880392547697,0.0,31.0,0.0025406716559632104,0.015189259446989964,0.0029444566812608696,31.0,0.0,0.015608447311465786,0.04688091550799065
1648382958699214242,16213,1,1,0.0317120365798,0.0161153152585,-0.0305362660438,0.0,31.0,0.010606032300936454,0.005389737544648829,-0.010212798007959866,31.0,0.0,0.015938165300222358,0.046880915027515714
1648382958699215950,16214,1,2,1.02932727337,0.064461261034,-0.00866793002933,0.0,31.0,0.34425661316722406,0.021558950178595316,-0.002898973253956521,31.0,0.0,0.48732947761400464,1.0313801543991459
1648382958699244098,16215,1,3,0.83406996727,0.523015201092,0.00458683772013,0.323675245047,31.0,0.2789531663110368,0.1749214719371237,0.0015340594381705683,31.0,0.04373989797932432,0.43154056510895455,0.9844991873817647
1648382958894724538,16216,3,0,0.00756888370961,0.0454158857465,0.00882777199149,0.0,34.0999984741,0.0025313992339832773,0.015189259446989964,0.002952432104177257,34.0999984741,0.0,0.015605433884118575,0.04688091548895431
1648382958894748385,16217,3,1,0.0317120365798,0.0161153152585,-0.0305362660438,0.0,34.0999984741,0.010606032300936454,0.005389737544648829,-0.010212798007959866,34.0999984741,0.0,0.015938165300222358,0.046880915027515714
1648382958894760193,16218,3,2,1.03358066082,0.303260922432,0.0488942302763,0.0,34.0999984741,0.3456791507759197,0.10142505766956521,0.01635258537668896,34.0999984741,0.0,0.49927466677731275,1.0782610144346902
1648382958999740965,16219,4,0,0.00763018382713,0.0454158857465,0.00877484213561,0.0,18.0,0.002551900945528428,0.015189259446989964,0.0029347298112408025,18.0,0.0,0.015612110665107124,0.04688091549745818
1648382958999761998,16220,4,1,0.0316949747503,0.0161153152585,-0.0305539779365,0.0,18.0,0.010600326003444816,0.005389737544648829,-0.010218721717892976,18.0,0.0,0.015930571036808876,0.04688091699238749
1648382958999786340,16221,4,2,1.10935735703,0.0703213736415,0.174142718315,0.0,18.0,0.37102252743478253,0.023518854060702338,0.05824171181103679,18.0,0.0,0.5252319185126857,1.1251420032731654
1648382958999870966,16222,4,3,1.03696238995,0.134782627225,0.263038873672,-0.485512852669,18.0,0.3468101638628762,0.04507780174749164,0.08797286744882943,18.0,-0.06560984495527027,0.4925307987604189,1.0782610091416287
1648382958999889103,16223,4,4,0.971393585205,0.193383783102,0.287649512291,-0.323675245047,18.0,0.32488079772742473,0.06467685053578595,0.09620385026454849,18.0,-0.04373989797932432,0.4639807759587073,1.0313801563271978
1648382958999910895,16224,4,5,0.947465062141,0.24612480402,0.104744061828,-0.161837622523,18.0,0.3168779472043478,0.08231598796655518,0.03503145880535117,18.0,-0.021869948989594594,0.4556305397180844,0.9844992542505862
1648382959194598624,16225,6,0,0.00756888370961,0.0454158857465,0.00882777199149,0.0,33.5,0.0025313992339832773,0.015189259446989964,0.002952432104177257,33.5,0.0,0.015605433884118575,0.04688091548895431
1648382959194624357,16226,6,1,0.0317385159433,0.0161153152585,-0.0305087435991,0.0,33.5,0.01061488827535117,0.005389737544648829,-0.010203593176956521,33.5,0.0,0.015949952256874397,0.04688091526580487
1648382959194639658,16227,6,2,0.139577135444,0.22268435359,0.85108345747,0.566431701183,33.5,0.04668131620200668,0.07447637243812709,0.284643296812709,33.5,0.07654482448418919,0.09952397005870535,0.8907374190251794
1648382959194706153,16228,6,3,0.92954403162,0.0293005723506,0.11923699826,-0.566431701183,33.5,0.31088429151170566,0.009799522525284281,0.03987859473578595,33.5,-0.07654482448418919,0.43976597874232376,0.9376183082760765
