%time,field.header.seq,field.header.frame_id,field.point_id,field.x,field.y,field.z,field.velocity,field.intensity,normalized_x,normalized_y,normalized_z,normalized_intensity,normalized_velocity,normalized_range,range
1648383621211658282,30399,0,0,0.00785633083433,0.0454158857465,0.00857295840979,0.0,11.5,0.00262753539609699,0.015189259446989964,0.002867210170498328,11.5,0.0,0.015637182836542488,0.04688091539436463
1648383621211665098,30400,0,1,0.0317368544638,0.0161153152585,-0.0305104702711,0.0,11.5,0.010614332596588628,0.005389737544648829,-0.01020417065923077,11.5,0.0,0.015949212637061585,0.04688091416878453
1648383621211667490,30401,0,2,1.03676366806,0.101086974144,0.278476625681,0.0,11.5,0.34674370169230767,0.03380835255652174,0.09313599521103678,11.5,0.0,0.4915337160654945,1.078260966001038
1648383621211672041,30402,0,3,0.296117872,0.329631447792,-0.546046614647,-0.161837622523,11.5,0.09903607759197323,0.11024463136856186,-0.18262428583511703,11.5,-0.021869948989594594,0.17824188081143214,0.7032137590083883
1648383621406682411,30403,2,0,0.00781822483987,0.0454158857465,0.0086077246815,0.0,27.3999996185,0.0026147909163444817,0.015189259446989964,0.002878837686120401,27.3999996185,0.0,0.015632909697825582,0.04688091554117097
1648383621406706580,30404,2,1,0.0316260531545,0.0161153152585,-0.0306253097951,0.0,27.3999996185,0.01057727530250836,0.005389737544648829,-0.010242578526789297,27.3999996185,0.0,0.01589989863018956,0.046880915350043566
1648383621406721826,30405,2,2,0.468272835016,0.0483459457755,0.210521906614,0.0,27.3999996185,0.15661298829966552,0.016169212633946488,0.07040866441939798,27.3999996185,0.0,0.22207363563805613,0.5156900732525722
1648383621406730004,30406,2,3,0.535099804401,0.105482056737,0.137941613793,-0.242756426334,27.3999996185,0.17896314528461538,0.035278279845150494,0.046134318994314374,27.3999996185,-0.03280492247756756,0.25553898287571986,0.562571021098024
1648383621511845541,30407,3,0,0.00774472299963,0.0454158857465,0.00867391657084,0.0,40.0,0.0025902083610802673,0.015189259446989964,0.0029009754417525084,40.0,0.0,0.015624722757719388,0.04688091553242142
1648383621511847530,30408,3,1,0.0316260531545,0.0161153152585,-0.0306253097951,0.0,40.0,0.01057727530250836,0.005389737544648829,-0.010242578526789297,40.0,0.0,0.01589989863018956,0.046880915350043566
1648383621511849247,30409,3,2,1.03310167789,0.101086974144,0.291768848896,0.0,40.0,0.34551895581605346,0.03380835255652174,0.09758155481471571,40.0,0.0,0.4898057802425548,1.0782609676635893
1648383621511854948,30410,3,3,0.541377484798,-0.0175803434104,0.151945650578,0.0809188112617,40.0,0.1810627039458194,-0.005879713515183946,0.05081794333712374,40.0,0.010934974494824324,0.2561288280365245,0.5625710001859392
1648383621511923581,30411,3,4,0.494947254658,-0.105482056737,0.245737433434,0.323675245047,40.0,0.16553419888227422,-0.035278279845150494,0.08218643258662207,40.0,0.04373989797932432,0.23674395246346924,0.5625710047431243
1648383621706695464,30412,5,0,0.00777717260644,0.0454158857465,0.00864483322948,0.0,31.7000007629,0.0026010610723879598,0.015189259446989964,0.0028912485717324412,31.7000007629,0.0,0.015628328124036743,0.04688091545026637
1648383621706701491,30413,5,1,0.0317032895982,0.0161153152585,-0.0305453501642,0.0,31.7000007629,0.010603106889030099,0.005389737544648829,-0.010215836175317725,31.7000007629,0.0,0.015934271938202644,0.046880916947962654
1648383621706705146,30414,5,2,1.04063105583,0.134782627225,0.248127773404,0.0,31.7000007629,0.34803714241806016,0.04507780174749164,0.08298587739264213,31.7000007629,0.0,0.49425875127856295,1.0782609808826251
1648383621706713757,30415,5,3,0.488556563854,-0.323771327734,0.167081445456,0.566431701183,31.7000007629,0.16339684409832775,-0.10828472499464883,0.055880082092307694,31.7000007629,0.07654482448418919,0.2551913771853453,0.6094518833863187
1648383621706877358,30416,5,4,0.587606310844,-0.205104023218,0.208384230733,-0.647350490093,31.7000007629,0.19652384978060197,-0.06859666328361204,0.06969372265317725,31.7000007629,-0.08747979595851352,0.286266919637639,0.6563328610561028
1648383621811746002,30417,6,0,0.00779817998409,0.0454158857465,0.00862588826567,0.0,39.7000007629,0.002608086951200669,0.015189259446989964,0.002884912463434782,39.7000007629,0.0,0.01563066977573323,0.04688091549420965
1648383621811750203,30418,6,1,0.0318137221038,0.0161153152585,-0.0304303113371,0.0,39.7000007629,0.010640040837391304,0.005389737544648829,-0.010177361651204012,39.7000007629,0.0,0.015983435451832825,0.046880914539410304
1648383621811906955,30419,6,2,1.01403725147,0.134782627225,0.340894252062,0.0,39.7000007629,0.3391428934682274,0.04507780174749164,0.11401145553913043,39.7000007629,0.0,0.48173417212233244,1.0782610050722485
1648383621811911142,30420,6,3,0.544699013233,-0.417533159256,0.153227448463,0.566431701183,39.7000007629,0.1821735830210702,-0.13964319707558526,0.051246638281939795,39.7000007629,0.07654482448418919,0.2930437700940941,0.7032137691042329
