%time,field.header.seq,field.header.frame_id,field.point_id,field.x,field.y,field.z,field.velocity,field.intensity,normalized_x,normalized_y,normalized_z,normalized_intensity,normalized_velocity,normalized_range,range
1648383649711838328,31124,0,0,0.00778307579458,0.0454158857465,0.00863951910287,0.0,19.1000003815,0.0026030353828026755,0.015189259446989964,0.002889471271862876,19.1000003815,0.0,0.015628985538294518,0.046880915491190805
1648383649711844350,31125,0,1,0.0317196249962,0.0161153152585,-0.0305283833295,0.0,19.1000003815,0.010608570232842809,0.005389737544648829,-0.010210161648662206,19.1000003815,0.0,0.01594154307369629,0.046880914928073794
1648383649711856966,31126,0,2,0.980995357037,0.128922522068,0.291156560183,0.0,19.1000003815,0.32809209265451506,0.04311790035719063,0.09737677598093646,19.1000003815,0.0,0.4659914117835761,1.031380167427182
1648383649711877504,31127,0,3,0.145411714911,0.369187235832,-0.522808790207,0.323675245047,19.1000003815,0.0486326805722408,0.12347399191705685,-0.17485243819632107,19.1000003815,0.04373989797932432,0.1413368385072223,0.6563328523335836
1648383649711889926,31128,0,4,0.22368144989,0.266635209322,-0.500303804874,0.566431701183,19.1000003815,0.07480984946153846,0.0891756552916388,-0.1673256872488294,19.1000003815,0.07654482448418919,0.13836663127217225,0.6094519038008501
1648383649907072259,31129,2,0,0.00779817998409,0.0454158857465,0.00862588826567,0.0,41.5,0.002608086951200669,0.015189259446989964,0.002884912463434782,41.5,0.0,0.01563066977573323,0.04688091549420965
1648383649907079884,31130,2,1,0.0317368544638,0.0161153152585,-0.0305104702711,0.0,41.5,0.010614332596588628,0.005389737544648829,-0.01020417065923077,41.5,0.0,0.015949212637061585,0.04688091416878453
1648383649907083215,31131,2,2,1.03702199459,0.134782627225,0.262803673744,0.0,41.5,0.3468300985250836,0.04507780174749164,0.08789420526555183,41.5,0.0,0.4925588723150001,1.0782609817657496
1648383649907085698,31132,2,3,0.522618114948,-0.12306240201,0.167964607477,0.242756426334,41.5,0.17478866720668895,-0.04115799398327759,0.05617545400568562,41.5,0.03280492247756756,0.2505915737540048,0.5625710250494372
1648383650011850422,31133,3,0,0.00788187514991,0.0454158857465,0.00854947976768,0.0,35.7000007629,0.002636078645454849,0.015189259446989964,0.0028593577818327755,35.7000007629,0.0,0.01564005830545462,0.046880915502108954
1648383650011859502,31134,3,1,0.0317368544638,0.0161153152585,-0.0305104702711,0.0,35.7000007629,0.010614332596588628,0.005389737544648829,-0.01020417065923077,35.7000007629,0.0,0.015949212637061585,0.04688091416878453
1648383650011890713,31135,3,2,1.03868222237,0.134782627225,0.256163537502,0.0,35.7000007629,0.3473853586521739,0.04507780174749164,0.08567342391371237,35.7000007629,0.0,0.49334083859152095,1.0782610414990863
1648383650011895152,31136,3,3,0.0922232940793,-0.323771327734,-0.508034050465,-0.566431701183,35.7000007629,0.03084391106331103,-0.10828472499464883,-0.1699110536672241,35.7000007629,-0.07654482448418919,0.1167402045849227,0.6094518890489622
1648383650011902770,31137,3,4,0.591114878654,-0.0952268540859,0.113783419132,-0.566431701183,35.7000007629,0.19769728383076923,-0.03184844618257525,0.03805465522809365,35.7000007629,-0.07654482448418919,0.28139430625435874,0.6094519012806497
1648383650012111397,31138,3,5,0.607824742794,-0.184593617916,0.165066957474,-0.323675245047,35.7000007629,0.20328586715518393,-0.061736995958528426,0.055206340292307685,35.7000007629,-0.04373989797932432,0.2940437794615855,0.6563328592853125
1648383650207194564,31139,5,0,0.00769781274721,0.0454158857465,0.0087155746296,0.0,39.0,0.00257451931344816,0.015189259446989964,0.0029149079028762542,39.0,0.0,0.015619535906633368,0.04688091552385018
1648383650207199737,31140,5,1,0.0316433869302,0.0161153152585,-0.0306073985994,0.0,39.0,0.010583072551906355,0.005389737544648829,-0.010236588160334447,39.0,0.0,0.015907612016830955,0.04688091478755239
1648383650207200970,31141,5,2,1.03970563412,0.101086974144,0.267283409834,0.0,39.0,0.3477276368294314,0.03380835255652174,0.08939244476053511,39.0,0.0,0.4929219243780378,1.078261008816952
1648383650207211289,31142,5,3,0.407704353333,1.0987714529,0.0107793705538,0.161837622523,39.0,0.13635597101438127,0.3674820912709029,0.003605140653444816,39.0,0.021869948989594594,0.41500480607745477,1.1720229265096278
1648383650207212463,31143,5,4,1.14992415905,0.109877154231,-0.198088780046,0.161837622523,39.0,0.38459001974916385,0.0367482121173913,-0.06625042810903009,39.0,0.021869948989594594,0.5451324588346848,1.1720229201550902
1648383650207213724,31144,5,5,0.763203561306,-0.224149376154,-0.0494706295431,-0.647350490093,39.0,0.2552520271926421,-0.07496634653979932,-0.01654536105120401,39.0,-0.08747979595851352,0.36868299104438207,0.7969755090388783
1648383650207217347,31145,5,6,0.756855130196,-0.249054864049,0.0176634714007,-0.485512852669,39.0,0.2531288060856187,-0.0832959411535117,0.005907515518628763,39.0,-0.06560984495527027,0.3675412885014564,0.7969755401719637
1648383650207224700,31146,5,7,0.770474255085,-0.34281668067,0.0306570343673,-0.323675245047,39.0,0.2576836973528428,-0.1146544082508361,0.01025318875160535,39.0,-0.04373989797932432,0.3820306389469468,0.843856449907554
1648383650311910415,31147,6,0,0.00772431911901,0.0454158857465,0.00869209133089,0.0,28.8999996185,0.0025833843207391303,0.015189259446989964,0.0029070539568193977,28.8999996185,0.0,0.015622463046691949,0.04688091547416686
1648383650311914154,31148,6,1,0.0317196249962,0.0161153152585,-0.0305283833295,0.0,28.8999996185,0.010608570232842809,0.005389737544648829,-0.010210161648662206,28.8999996185,0.0,0.01594154307369629,0.046880914928073794
1648383650311940877,31149,6,2,0.754487454891,-0.44536870718,-0.160650491714,0.323675245047,28.8999996185,0.25233694143511703,-0.14895274487625418,-0.05372926144280936,28.8999996185,0.04373989797932432,0.38669727724905156,0.8907374390980954
