%time,field.header.seq,field.header.frame_id,field.point_id,field.x,field.y,field.z,field.velocity,field.intensity,normalized_x,normalized_y,normalized_z,normalized_intensity,normalized_velocity,normalized_range,range
1648382927693790037,15527,0,0,0.00767830573022,0.0454158857465,0.00873276498169,0.0,13.5,0.0025679952274983275,0.015189259446989964,0.0029206571845117055,13.5,0.0,0.015617387794534728,0.046880915533416175
1648382927693793484,15528,0,1,0.0316855758429,0.0161153152585,-0.0305637232959,0.0,13.5,0.010597182556153845,0.005389737544648829,-0.010221981035418059,13.5,0.0,0.015926387759222112,0.04688091599025505
1648382927693795695,15529,0,2,1.0776706934,0.0336956568062,0.0117129720747,0.0,13.5,0.3604249810702341,0.011269450436856187,0.003917381964782608,13.5,0.0,0.5098424604445043,1.078260967676963
1648382927693825838,15530,0,3,1.12388265133,-0.0,-0.053219139576,0.0809188112617,13.5,0.3758804853946488,-0.0,-0.01779904333645485,13.5,0.010934974494824324,0.5315752802764944,1.1251419869410972
1648382927798805915,15531,1,0,0.00767153082415,0.0454158857465,0.00873871706426,0.0,17.0,0.002565729372625418,0.015189259446989964,0.002922647847578595,17.0,0.0,0.015616642948312533,0.04688091551211659
1648382927798811762,15532,1,1,0.0318039134145,0.0161153152585,-0.030440563336,0.0,17.0,0.010636760339297658,0.005389737544648829,-0.010180790413377926,17.0,0.0,0.015979067927495285,0.04688091499289325
1648382927798849543,15533,1,2,1.0285525322,0.064461261034,-0.0408580861986,0.0,17.0,0.34399750240802673,0.021558950178595316,-0.013664911772107022,17.0,0.0,0.4869633986848743,1.0313801185193254
1648382927798860892,15534,1,3,0.80846041441,0.46880915761,-0.0757487788796,-0.242756426334,17.0,0.27038809846488293,0.15679236040468228,-0.025334039759063547,17.0,-0.03280492247756756,0.4132835489880794,0.9376183367600793
1648382927993647189,15535,3,0,0.00765111856163,0.0454158857465,0.0087565947324,0.0,24.7000007629,0.0025589025289732437,0.015189259446989964,0.0029286270008026753,24.7000007629,0.0,0.01561440254552012,0.04688091557009905
1648382927993656068,15536,3,1,0.0317120365798,0.0161153152585,-0.0305362660438,0.0,24.7000007629,0.010606032300936454,0.005389737544648829,-0.010212798007959866,24.7000007629,0.0,0.015938165300222358,0.046880915027515714
1648382927993661208,15537,3,2,1.05060398579,0.101086974144,0.220588818192,0.0,24.7000007629,0.35137257049832776,0.03380835255652174,0.07377552447892975,24.7000007629,0.0,0.4980646256258225,1.0782609786182413
1648382927993746745,15538,3,3,0.777034580708,0.389697611332,0.19433529675,-0.323675245047,24.7000007629,0.25987778618996654,0.13033364927491636,0.06499508252508361,24.7000007629,-0.04373989797932432,0.38994844228860925,0.8907374335104787
1648382927993750307,15539,3,4,0.760354161263,0.316446185112,0.183894202113,-0.161837622523,24.7000007629,0.2542990505896321,0.10583484451906354,0.06150307762976588,24.7000007629,-0.021869948989594594,0.37488268641796585,0.8438564547318906
1648382928098971534,15540,4,0,0.00756888370961,0.0454158857465,0.00882777199149,0.0,32.2999992371,0.0025313992339832773,0.015189259446989964,0.002952432104177257,32.2999992371,0.0,0.015605433884118575,0.04688091548895431
1648382928098980796,15541,4,1,0.0317120365798,0.0161153152585,-0.0305362660438,0.0,32.2999992371,0.010606032300936454,0.005389737544648829,-0.010212798007959866,32.2999992371,0.0,0.015938165300222358,0.046880915027515714
1648382928098983422,15542,4,2,0.79642355442,0.158223092556,0.229714244604,-0.161837622523,32.2999992371,0.2663623927826087,0.05291742225953177,0.07682750655652174,32.2999992371,-0.021869948989594594,0.38039203745129446,0.8438564209786862
1648382928098986325,15543,4,3,0.906292915344,0.366257160902,-0.646627128124,-0.161837622523,32.2999992371,0.30310799844280933,0.12249403374648829,-0.21626325355317724,32.2999992371,-0.021869948989594594,0.44581801863933,1.1720229516270628
1648382928293808347,15544,6,0,0.00767153082415,0.0454158857465,0.00873871706426,0.0,17.6000003815,0.002565729372625418,0.015189259446989964,0.002922647847578595,17.6000003815,0.0,0.015616642948312533,0.04688091551211659
1648382928293839582,15545,6,1,0.0317120365798,0.0161153152585,-0.0305362660438,0.0,17.6000003815,0.010606032300936454,0.005389737544648829,-0.010212798007959866,17.6000003815,0.0,0.015938165300222358,0.046880915027515714
1648382928293847292,15546,6,2,0.826796293259,-0.131852567196,0.105434976518,-0.0809188112617,17.6000003815,0.2765204994177257,-0.04409784856053511,0.03526253395250836,17.6000003815,-0.010934974494824324,0.3935375375286642,0.8438564713838185
1648382928293888887,15547,6,3,0.319154828787,0.184593603015,-0.759051442146,-0.0809188112617,17.6000003815,0.10674074541371237,0.06173699097491638,-0.2538633585772575,17.6000003815,-0.010934974494824324,0.16309086276547446,0.8438564420777037
