%time,field.header.seq,field.header.frame_id,field.point_id,field.x,field.y,field.z,field.velocity,field.intensity,normalized_x,normalized_y,normalized_z,normalized_intensity,normalized_velocity,normalized_range,range
1648383075101205485,18747,0,0,0.00767798768356,0.0454158857465,0.00873304437846,0.0,16.8999996185,0.0025678888573779264,0.015189259446989964,0.0029207506282474915,16.8999996185,0.0,0.01561735281395875,0.046880915489399225
1648383075101213793,18748,0,1,0.0317974686623,0.0161153152585,-0.0304472967982,0.0,16.8999996185,0.010634604903779264,0.005389737544648829,-0.010183042407424748,16.8999996185,0.0,0.015976198350019604,0.04688091596298513
1648383075101223427,18749,0,2,0.748527765274,-0.0,-0.0484583377838,0.0809188112617,16.8999996185,0.25034373420535116,-0.0,-0.01620680193438127,16.8999996185,0.010934974494824324,0.3540395041683329,0.7500946779486289
1648383075101257029,18750,0,3,0.885473966599,-0.083506628871,-0.0487399809062,0.0809188112617,16.8999996185,0.2961451393307692,-0.027928638418394644,-0.016300996958595316,16.8999996185,0.010934974494824324,0.41974265442338216,0.8907373846026126
1648383075101273038,18751,0,4,0.889463365078,-0.0278355441988,-0.0386439599097,0.0809188112617,16.8999996185,0.29747938631371235,-0.009309546554782609,-0.012924401307591973,16.8999996185,0.010934974494824324,0.4208023743044013,0.8907374759008544
1648383075401348093,18752,3,0,0.00765076000243,0.0454158857465,0.00875690765679,0.0,16.5,0.002558782609508361,0.015189259446989964,0.0029287316577892974,16.5,0.0,0.015614363241369104,0.04688091550368306
1648383075401353631,18753,3,1,0.031780462712,0.0161153152585,-0.0304650459439,0.0,16.5,0.010628917294983277,0.005389737544648829,-0.010188978576555183,16.5,0.0,0.01596862663247489,0.04688091531138874
1648383075401356022,18754,3,2,0.229284584522,-0.908317744732,-0.0389302484691,0.0809188112617,16.5,0.07668380753244147,-0.3037851989070234,-0.013020149989665553,16.5,0.010934974494824324,0.3225620246562277,0.9376183180486177
1648383075401360665,18755,3,3,0.934461891651,-0.0586011447012,0.0497487299144,0.0809188112617,16.5,0.3125290607528428,-0.019599045050568562,0.01663837120882943,16.5,0.010934974494824324,0.4424171676110709,0.9376182897300757
1648383075401367833,18756,3,4,0.634956538677,0.398487776518,-0.0260709635913,-0.566431701183,16.5,0.21236004638026754,0.1332735038521739,-0.008719385816488293,16.5,-0.07654482448418919,0.32856567901455286,0.7500946668158059
1648383075701299929,18757,6,0,0.00765076000243,0.0454158857465,0.00875690765679,0.0,33.5,0.002558782609508361,0.015189259446989964,0.0029287316577892974,33.5,0.0,0.015614363241369104,0.04688091550368306
1648383075701304688,18758,6,1,0.0317215062678,0.0161153152585,-0.0305264294147,0.0,33.5,0.010609199420668895,0.005389737544648829,-0.010209508165451504,33.5,0.0,0.015942380483956582,0.04688091550502805
1648383075701310489,18759,6,2,0.794897973537,-0.0,-0.0575088709593,0.0809188112617,33.5,0.2658521650625418,-0.0,-0.019233736106789294,33.5,0.010934974494824324,0.3759717374176973,0.7969755696207022
1648383075701316011,18760,6,3,0.216752812266,-0.908317744732,-0.0842923521996,0.0809188112617,33.5,0.07249257935317725,-0.3037851989070234,-0.028191422140334446,33.5,0.010934974494824324,0.3206178335612871,0.937618316619075
1648383075701346003,18761,6,4,0.936629354954,-0.0293005723506,0.0315434113145,0.0809188112617,33.5,0.3132539648675585,-0.009799522525284281,0.010549635891137124,33.5,0.010934974494824324,0.4431163770977267,0.9376182906166959
1648383075701394055,18762,6,5,0.586371064186,0.0952268540859,0.136133983731,-0.161837622523,33.5,0.19611072380802674,0.03184844618257525,0.045529760445150495,33.5,-0.021869948989594594,0.2791651043903243,0.6094519178575055
