%time,field.header.seq,field.header.frame_id,field.point_id,field.x,field.y,field.z,field.velocity,field.intensity,normalized_x,normalized_y,normalized_z,normalized_intensity,normalized_velocity,normalized_range,range
1648383671806760680,31719,0,0,0.00782407168299,0.0454158857465,0.00860241055489,0.0,14.0,0.002616746382270903,0.015189259446989964,0.002877060386250836,14.0,0.0,0.01563356407880908,0.04688091555414197
1648383671806799417,31720,0,1,0.0317701548338,0.0161153152585,-0.0304757971317,0.0,14.0,0.010625469844080268,0.005389737544648829,-0.010192574291538461,14.0,0.0,0.015964037384543907,0.046880916531750985
1648383671806856095,31721,0,2,1.06627655029,0.351606875658,-0.0732898637652,0.0,14.0,0.35661423086622074,0.11759427279531771,-0.024511660122140465,14.0,0.0,0.5178569612420711,1.1251419825244477
1648383671806858132,31722,0,3,0.778966844082,-0.0351606868207,0.811121940613,0.0,14.0,0.26052402812107023,-0.011759427030334446,0.2712782410076923,14.0,0.0,0.36862422950877516,1.1251419557640596
1648383671806864737,31723,0,4,0.357107847929,0.266635209322,-0.415705740452,0.566431701183,14.0,0.11943406285250836,0.0891756552916388,-0.1390320202180602,14.0,0.07654482448418919,0.19100075454198348,0.6094518951873185
1648383671911886036,31724,1,0,0.00772431911901,0.0454158857465,0.00869209133089,0.0,38.4000015259,0.0025833843207391303,0.015189259446989964,0.0029070539568193977,38.4000015259,0.0,0.015622463046691949,0.04688091547416686
1648383671911904650,31725,1,1,0.0316940024495,0.0161153152585,-0.0305549837649,0.0,38.4000015259,0.010600000819230768,0.005389737544648829,-0.01021905811535117,38.4000015259,0.0,0.01593013827735287,0.046880915200356935
1648383671911909095,31726,1,2,1.02509355545,0.101086974144,0.318765282631,0.0,38.4000015259,0.3428406539966555,0.03380835255652174,0.10661046241839464,38.4000015259,0.0,0.48602719344527934,1.0782609513367036
1648383671911914805,31727,1,3,0.516537725925,0.0879017189145,0.204812526703,-0.323675245047,38.4000015259,0.17275509228260869,0.02939856819882943,0.06849917281036788,38.4000015259,-0.04373989797932432,0.24607502845938373,0.5625709782652863
1648383671911917521,31728,1,4,0.520938694477,-0.0,0.212388753891,-0.0809188112617,38.4000015259,0.174226988119398,-0.0,0.07103302805719064,38.4000015259,-0.010934974494824324,0.24639416952986873,0.5625709787953632
1648383672107071922,31729,3,0,0.00780410459265,0.0454158857465,0.00862052850425,0.0,22.0,0.0026100684256354515,0.015189259446989964,0.0028831199010869563,22.0,0.0,0.01563133125875631,0.046880915502203545
1648383672107128583,31730,3,1,0.0316260531545,0.0161153152585,-0.0306253097951,0.0,22.0,0.01057727530250836,0.005389737544648829,-0.010242578526789297,22.0,0.0,0.01589989863018956,0.046880915350043566
1648383672107535760,31731,3,2,1.08441054821,0.24612480402,0.17152518034,0.0,22.0,0.3626791131137123,0.08231598796655518,0.05736628105016722,22.0,0.0,0.5194691521667171,1.125142010465197
1648383672107599645,31732,3,3,1.0204846859,-0.096691891551,-0.114046655595,0.0809188112617,22.0,0.3412992260535117,-0.032338425267892976,-0.038142694178929765,22.0,0.010934974494824324,0.48375210300138155,1.0313801218273198
1648383672107690714,31733,3,4,0.641436755657,0.290075659752,0.753763914108,0.0809188112617,22.0,0.21452734302909696,0.09701527082006689,0.25209495455117054,22.0,0.010934974494824324,0.3185214664454165,1.0313801617734115
1648383672107922940,31734,3,5,0.106790661812,-0.410208046436,-0.501096725464,-0.566431701183,22.0,0.03571594040535117,-0.13719332656722408,-0.16759087808160533,22.0,-0.07654482448418919,0.14619598370905468,0.6563328538796667
1648383672107939535,31735,3,6,0.613378167152,-0.164083212614,0.166182816029,-0.566431701183,22.0,0.20514319971638795,-0.054877328633444813,0.055579537133444816,22.0,-0.07654482448418919,0.2952608778312812,0.656332846156435
1648383672107945785,31736,3,7,0.598856806755,-0.225614413619,0.14574457705,-0.323675245047,22.0,0.20028655744314378,-0.07545632562508361,0.04874400570234113,22.0,-0.04373989797932432,0.2931263673941499,0.6563328579074218
1648383672212408355,31737,4,0,0.00779817998409,0.0454158857465,0.00862588826567,0.0,37.7000007629,0.002608086951200669,0.015189259446989964,0.002884912463434782,37.7000007629,0.0,0.01563066977573323,0.04688091549420965
1648383672212441522,31738,4,1,0.0317196249962,0.0161153152585,-0.0305283833295,0.0,37.7000007629,0.010608570232842809,0.005389737544648829,-0.010210161648662206,37.7000007629,0.0,0.01594154307369629,0.046880914928073794
1648383672212472467,31739,4,2,1.10511636734,0.210964113474,0.0125087797642,0.0,37.7000007629,0.3696041362341137,0.07055655969030099,0.0041835383826755845,37.7000007629,0.0,0.5274397246681952,1.1251419964199265
1648383672212477920,31740,4,3,0.666130185127,-0.219754293561,0.0498821772635,-0.242756426334,37.7000007629,0.22278601509264212,-0.07349641925117056,0.016683002429264213,37.7000007629,-0.03280492247756756,0.3235257960108618,0.7032137688387313
1648383672407208033,31741,6,0,0.00778307579458,0.0454158857465,0.00863951910287,0.0,29.3999996185,0.0026030353828026755,0.015189259446989964,0.002889471271862876,29.3999996185,0.0,0.015628985538294518,0.046880915491190805
1648383672407227155,31742,6,1,0.0317368544638,0.0161153152585,-0.0305104702711,0.0,29.3999996185,0.010614332596588628,0.005389737544648829,-0.01020417065923077,29.3999996185,0.0,0.015949212637061585,0.04688091416878453
1648383672407257477,31743,6,2,0.88181322813,0.303260922432,0.541373252869,0.0,29.3999996185,0.294920812083612,0.10142505766956521,0.1810612885849498,29.3999996185,0.0,0.42923608087320547,1.0782609866360375
1648383672407279071,31744,6,3,0.82973587513,0.370652228594,0.580346465111,0.0,29.3999996185,0.2775036371672241,0.12396395605150501,0.1940958077294314,29.3999996185,0.0,0.411562388565836,1.0782609686927738
1648383672512501589,31745,7,0,0.0078032030724,0.0454158857465,0.00862134434283,0.0,16.7000007629,0.0026097669138461536,0.015189259446989964,0.002883392756799331,16.7000007629,0.0,0.015631230573348535,0.04688091546254084
1648383672512595845,31746,7,1,0.0317032895982,0.0161153152585,-0.0305453501642,0.0,16.7000007629,0.010603106889030099,0.005389737544648829,-0.010215836175317725,16.7000007629,0.0,0.015934271938202644,0.046880916947962654
1648383672512640449,31747,7,2,1.06261134148,0.168478280306,0.0715468674898,0.0,16.7000007629,0.35538840852173914,0.05634725093846154,0.02392871822401338,16.7000007629,0.0,0.505743862554506,1.0782609833543988
