%time,field.header.seq,field.header.frame_id,field.point_id,field.x,field.y,field.z,field.velocity,field.intensity,normalized_x,normalized_y,normalized_z,normalized_intensity,normalized_velocity,normalized_range,range
1648382907998234233,15118,0,0,0.00767153082415,0.0454158857465,0.00873871706426,0.0,21.7999992371,0.002565729372625418,0.015189259446989964,0.002922647847578595,21.7999992371,0.0,0.015616642948312533,0.04688091551211659
1648382907998245020,15119,0,1,0.0317880474031,0.0161153152585,-0.0304571334273,0.0,21.7999992371,0.010631453980969898,0.005389737544648829,-0.010186332249933108,21.7999992371,0.0,0.01597200357811,0.04688091637533262
1648382907998253286,15120,0,2,0.810414731503,0.553780794144,0.0761147662997,-0.161837622523,21.7999992371,0.2710417162217391,0.18521096794113712,0.025456443578494983,21.7999992371,-0.021869948989594594,0.42571155317954956,0.9844991938283632
1648382908193260753,15121,2,0,0.00765111856163,0.0454158857465,0.0087565947324,0.0,22.1000003815,0.0025589025289732437,0.015189259446989964,0.0029286270008026753,22.1000003815,0.0,0.01561440254552012,0.04688091557009905
1648382908193265862,15122,2,1,0.0317120365798,0.0161153152585,-0.0305362660438,0.0,22.1000003815,0.010606032300936454,0.005389737544648829,-0.010212798007959866,22.1000003815,0.0,0.015938165300222358,0.046880915027515714
1648382908193272236,15123,2,2,1.06724154949,0.105482056737,0.340313732624,0.0,22.1000003815,0.3569369730735786,0.035278279845150494,0.11381730188093644,22.1000003815,0.0,0.5060163658644746,1.1251419580940725
1648382908193273861,15124,2,3,0.86933785677,0.175803437829,0.304093629122,-0.323675245047,22.1000003815,0.29074844708026754,0.05879713639765886,0.101703554890301,22.1000003815,-0.04373989797932432,0.41536300052813946,0.9376183089288203
1648382908298536674,15125,3,0,0.00756888370961,0.0454158857465,0.00882777199149,0.0,37.2999992371,0.0025313992339832773,0.015189259446989964,0.002952432104177257,37.2999992371,0.0,0.015605433884118575,0.04688091548895431
1648382908298539812,15126,3,1,0.0317120365798,0.0161153152585,-0.0305362660438,0.0,37.2999992371,0.010606032300936454,0.005389737544648829,-0.010212798007959866,37.2999992371,0.0,0.015938165300222358,0.046880915027515714
1648382908298542485,15127,3,2,0.871145784855,-0.0,0.185790702701,-0.485512852669,37.2999992371,0.2913531053026756,-0.0,0.06213735876287625,37.2999992371,-0.06560984495527027,0.41203551295856033,0.8907374269001866
1648382908298551188,15128,3,3,1.01865327358,-0.0,-0.161525756121,-0.161837622523,37.2999992371,0.34068671357190633,-0.0,-0.054021992013712376,37.2999992371,-0.021869948989594594,0.4818037708537079,1.0313801731978907
1648382908298587130,15129,3,4,0.360797643661,0.41899818182,0.870638072491,-0.161837622523,37.2999992371,0.12066810824782608,0.14013317117725752,0.29118330183645486,37.2999992371,-0.021869948989594594,0.22081415344223906,1.0313801769040547
1648382908493477317,15130,5,0,0.00767153082415,0.0454158857465,0.00873871706426,0.0,24.7999992371,0.002565729372625418,0.015189259446989964,0.002922647847578595,24.7999992371,0.0,0.015616642948312533,0.04688091551211659
1648382908493484980,15131,5,1,0.0318039134145,0.0161153152585,-0.030440563336,0.0,24.7999992371,0.010636760339297658,0.005389737544648829,-0.010180790413377926,24.7999992371,0.0,0.015979067927495285,0.04688091499289325
1648382908493501274,15132,5,2,0.814582109451,-0.0527410283685,-0.213934630156,0.161837622523,24.7999992371,0.2724354881107023,-0.017639139922575247,-0.07155004353043477,24.7999992371,0.021869948989594594,0.38568553203541533,0.8438564185280528
1648382908493504910,15133,5,3,0.484612882137,0.290075659752,0.626977026463,0.161837622523,24.7999992371,0.16207788700234113,0.09701527082006689,0.20969131319832776,24.7999992371,0.021869948989594594,0.24889846460470227,0.8438564603213471
1648382908598389184,15134,6,0,0.00763018382713,0.0454158857465,0.00877484213561,0.0,27.8999996185,0.002551900945528428,0.015189259446989964,0.0029347298112408025,27.8999996185,0.0,0.015612110665107124,0.04688091549745818
1648382908598421902,15135,6,1,0.0317120365798,0.0161153152585,-0.0305362660438,0.0,27.8999996185,0.010606032300936454,0.005389737544648829,-0.010212798007959866,27.8999996185,0.0,0.015938165300222358,0.046880915027515714
1648382908598424042,15136,6,2,1.02935874462,0.064461261034,0.00320425350219,0.0809188112617,27.8999996185,0.34426713866889636,0.021558950178595316,0.001071656689695652,27.8999996185,0.010934974494824324,0.48734434834862034,1.0313801173865347
