%time,field.header.seq,field.header.frame_id,field.point_id,field.x,field.y,field.z,field.velocity,field.intensity,normalized_x,normalized_y,normalized_z,normalized_intensity,normalized_velocity,normalized_range,range
1648383024295299007,17764,0,0,0.00765076000243,0.0454158857465,0.00875690765679,0.0,18.7999992371,0.002558782609508361,0.015189259446989964,0.0029287316577892974,18.7999992371,0.0,0.015614363241369104,0.04688091550368306
1648383024295304069,17765,0,1,0.0318133272231,0.0161153152585,-0.030430726707,0.0,18.7999992371,0.010639908770267558,0.005389737544648829,-0.010177500570903008,18.7999992371,0.0,0.015983259619972084,0.04688091618986345
1648383024295366611,17766,0,2,0.796225130558,-0.0249054860324,0.0239842534065,0.0809188112617,18.7999992371,0.26629603028695653,-0.00832959399076923,0.00802148943361204,18.7999992371,0.010934974494824324,0.3766915629918387,0.7969755242026454
1648383024400533422,17767,1,0,0.00773179670796,0.0454158857465,0.00868544075638,0.0,21.3999996185,0.0025858851866086955,0.015189259446989964,0.002904829684408026,21.3999996185,0.0,0.015623290528714444,0.0468809155158573
1648383024400540509,17768,1,1,0.0318133272231,0.0161153152585,-0.030430726707,0.0,21.3999996185,0.010639908770267558,0.005389737544648829,-0.010177500570903008,21.3999996185,0.0,0.015983259619972084,0.04688091618986345
1648383024400543862,17769,1,2,0.885939240456,-0.083506628871,0.0393874794245,0.0809188112617,21.3999996185,0.29630074931638795,-0.027928638418394644,0.013173070041638795,21.3999996185,0.010934974494824324,0.4199622327481501,0.8907373734050731
1648383024400552173,17770,1,3,0.704201638699,0.22268435359,-0.497920542955,0.0809188112617,21.3999996185,0.23551894270869564,0.07447637243812709,-0.16652860968394648,21.3999996185,0.010934974494824324,0.34129909874007336,0.890737411573554
1648383024400556121,17771,1,4,0.613815069199,0.527410268784,-0.239088311791,-0.404594063759,21.3999996185,0.2052893208023411,0.17639139424214045,-0.07996264608394649,21.3999996185,-0.05467487348094594,0.3397077191258086,0.8438564757289326
1648383024595299891,17772,3,0,0.00763018382713,0.0454158857465,0.00877484213561,0.0,34.0999984741,0.002551900945528428,0.015189259446989964,0.0029347298112408025,34.0999984741,0.0,0.015612110665107124,0.04688091549745818
1648383024595313420,17773,3,1,0.0316949747503,0.0161153152585,-0.0305539779365,0.0,34.0999984741,0.010600326003444816,0.005389737544648829,-0.010218721717892976,34.0999984741,0.0,0.015930571036808876,0.04688091699238749
1648383024595318303,17774,3,2,0.79658228159,-0.0249054860324,0.00253528333269,0.161837622523,34.0999984741,0.2664154787926421,-0.00832959399076923,0.0008479208470535116,34.0999984741,0.021869948989594594,0.37686044740285035,0.7969755593738224
1648383024700305679,17775,4,0,0.0077518960461,0.0454158857465,0.00866750627756,0.0,35.9000015259,0.002592607373277592,0.015189259446989964,0.0028988315309565215,35.9000015259,0.0,0.01562551850441836,0.046880915472292395
1648383024700312796,17776,4,1,0.0318133272231,0.0161153152585,-0.030430726707,0.0,35.9000015259,0.010639908770267558,0.005389737544648829,-0.010177500570903008,35.9000015259,0.0,0.015983259619972084,0.04688091618986345
1648383024700320350,17777,4,2,0.224839627743,-0.953733623028,-0.0952786058187,0.0809188112617,35.9000015259,0.07519719991404682,-0.31897445586220735,-0.03186575445441471,35.9000015259,0.010934974494824324,0.3362349494660207,0.9844992100679824
1648383024700326037,17778,4,3,0.972939550877,-0.0,0.150423720479,0.0809188112617,35.9000015259,0.32539784310267555,-0.0,0.05030893661505016,35.9000015259,0.010934974494824324,0.46018204288275627,0.9844991951969706
1648383024700328100,17779,4,4,0.843096911907,-0.0263705141842,0.0242051575333,0.161837622523,35.9000015259,0.2819722113401337,-0.008819569961270902,0.008095370412474916,35.9000015259,0.021869948989594594,0.398866444753619,0.8438564430853571
1648383024700329989,17780,4,5,0.541214168072,0.205104023218,0.309503376484,-0.566431701183,35.9000015259,0.18100808296722407,0.06859666328361204,0.1035128349444816,35.9000015259,-0.07654482448418919,0.2650157625738216,0.6563328241959818
1648383024700410241,17781,4,6,0.586337864399,0.123062409461,0.268023103476,-0.404594063759,35.9000015259,0.19609962020033445,0.041157996475250834,0.08963983393846153,35.9000015259,-0.05467487348094594,0.280364232310913,0.6563328666516964
1648383024700414260,17782,4,7,0.613267302513,0.123062409461,0.198825761676,-0.0809188112617,35.9000015259,0.205106121241806,0.041157996475250834,0.06649691025953176,35.9000015259,-0.010934974494824324,0.29296932026335726,0.656332861024008
