%time,field.header.seq,field.header.frame_id,field.point_id,field.x,field.y,field.z,field.velocity,field.intensity,normalized_x,normalized_y,normalized_z,normalized_intensity,normalized_velocity,normalized_range,range
1648383039700605096,18156,0,0,0.00773179670796,0.0454158857465,0.00868544075638,0.0,11.6999998093,0.0025858851866086955,0.015189259446989964,0.002904829684408026,11.6999998093,0.0,0.015623290528714444,0.0468809155158573
1648383039700610486,18157,0,1,0.0317974686623,0.0161153152585,-0.0304472967982,0.0,11.6999998093,0.010634604903779264,0.005389737544648829,-0.010183042407424748,11.6999998093,0.0,0.015976198350019604,0.04688091596298513
1648383039700613386,18158,0,2,0.796278476715,-0.0249054860324,-0.0221427939832,0.0,11.6999998093,0.2663138718110368,-0.00832959399076923,-0.0074056167167892975,11.6999998093,0.0,0.3767167885481369,0.7969755322715079
1648383039895480365,18159,2,0,0.00773179670796,0.0454158857465,0.00868544075638,0.0,17.3999996185,0.0025858851866086955,0.015189259446989964,0.002904829684408026,17.3999996185,0.0,0.015623290528714444,0.0468809155158573
1648383039895485023,18160,2,1,0.031748060137,0.0161153152585,-0.0304988138378,0.0,17.3999996185,0.010618080313377926,0.005389737544648829,-0.010200272186555183,17.3999996185,0.0,0.01595420101048263,0.04688091673438343
1648383039895489004,18161,2,2,0.796566188335,-0.0249054860324,0.0056593301706,-0.0809188112617,17.3999996185,0.26641009643311037,-0.00832959399076923,0.0018927525654180602,17.3999996185,-0.010934974494824324,0.37685283745654535,0.7969755351646879
1648383039895492273,18162,2,3,0.213452965021,0.908317744732,-0.0923299342394,-0.0809188112617,17.3999996185,0.07138895151204012,0.3037851989070234,-0.03087957666869565,17.3999996185,-0.010934974494824324,0.3201221827224046,0.9376183180953404
1648383039895568886,18163,2,4,0.932073533535,-0.0586011447012,-0.0832641497254,-0.0809188112617,17.3999996185,0.31173027877424747,-0.019599045050568562,-0.0278475417141806,17.3999996185,-0.010934974494824324,0.4412886311431944,0.9376183043788158
1648383040000787559,18164,3,0,0.00763018382713,0.0454158857465,0.00877484213561,0.0,13.3000001907,0.002551900945528428,0.015189259446989964,0.0029347298112408025,13.3000001907,0.0,0.015612110665107124,0.04688091549745818
1648383040000813837,18165,3,1,0.0317215062678,0.0161153152585,-0.0305264294147,0.0,13.3000001907,0.010609199420668895,0.005389737544648829,-0.010209508165451504,13.3000001907,0.0,0.015942380483956582,0.04688091550502805
1648383040000820071,18166,3,2,1.39827275276,-0.181663542986,-0.352046340704,-0.647350490093,13.3000001907,0.46764975008695653,-0.06075703778795986,-0.11774125107157189,13.3000001907,-0.08747979595851352,0.664141547528502,1.4533082811173723
1648383040000823814,18167,3,3,0.627973973751,-0.143572807312,-0.12573108077,-0.566431701183,13.3000001907,0.2100247403849498,-0.0480176613083612,-0.042050528685618725,13.3000001907,-0.07654482448418919,0.30087618540698036,0.6563328175397468
1648383040000846714,18168,3,4,0.796558916569,-0.0249054860324,-0.00660657742992,-0.0809188112617,13.3000001907,0.2664076644043478,-0.00832959399076923,-0.0022095576688695652,13.3000001907,-0.010934974494824324,0.37684939888874747,0.7969755565043553
1648383040195595690,18169,5,0,0.00773179670796,0.0454158857465,0.00868544075638,0.0,23.7999992371,0.0025858851866086955,0.015189259446989964,0.002904829684408026,23.7999992371,0.0,0.015623290528714444,0.0468809155158573
1648383040195622577,18170,5,1,0.0317215062678,0.0161153152585,-0.0305264294147,0.0,23.7999992371,0.010609199420668895,0.005389737544648829,-0.010209508165451504,23.7999992371,0.0,0.015942380483956582,0.04688091550502805
1648383040195626122,18171,5,2,0.592759668827,-0.0,0.141660198569,0.242756426334,23.7999992371,0.1982473808785953,-0.0,0.04737799283244147,23.7999992371,0.03280492247756756,0.28036413474345406,0.6094519151225166
1648383040195632870,18172,5,3,0.587523162365,0.0190453715622,0.160889580846,0.404594063759,23.7999992371,0.19649604092474915,0.006369689485685618,0.0538092243632107,23.7999992371,0.05467487348094594,0.2779603589405249,0.6094519256825053
1648383040195635178,18173,5,4,0.796519935131,-0.0249054860324,0.0102822156623,-0.0809188112617,23.7999992371,0.26639462713411366,-0.00832959399076923,0.003438868114481605,23.7999992371,-0.010934974494824324,0.37683096590898413,0.7969755418170174
1648383040300790574,18174,6,0,0.00763018382713,0.0454158857465,0.00877484213561,0.0,20.3999996185,0.002551900945528428,0.015189259446989964,0.0029347298112408025,20.3999996185,0.0,0.015612110665107124,0.04688091549745818
1648383040300811187,18175,6,1,0.031748060137,0.0161153152585,-0.0304988138378,0.0,20.3999996185,0.010618080313377926,0.005389737544648829,-0.010200272186555183,20.3999996185,0.0,0.01595420101048263,0.04688091673438343
1648383040300816877,18176,6,2,0.658657670021,0.175803437829,0.172547906637,0.566431701183,20.3999996185,0.22028684616086952,0.05879713639765886,0.057708329978929766,20.3999996185,0.07654482448418919,0.3170326362246797,0.7032137335937051
1648383040300823799,18177,6,3,0.796437323093,-0.0249054860324,-0.0154068171978,-0.0809188112617,20.3999996185,0.2663669976899665,-0.00832959399076923,-0.005152781671505016,20.3999996185,-0.010934974494824324,0.37679190152229164,0.7969755723146225
