%time,field.header.seq,field.header.frame_id,field.point_id,field.x,field.y,field.z,field.velocity,field.intensity,normalized_x,normalized_y,normalized_z,normalized_intensity,normalized_velocity,normalized_range,range
1648383360905912627,23726,0,0,0.00780459214002,0.0454158857465,0.00862008705735,0.0,16.7999992371,0.0026102314849565213,0.015189259446989964,0.0028829722599832772,16.7999992371,0.0,0.01563138571458367,0.04688091549327398
1648383360905920767,23727,0,1,0.0317368544638,0.0161153152585,-0.0305104702711,0.0,16.7999992371,0.010614332596588628,0.005389737544648829,-0.01020417065923077,16.7999992371,0.0,0.015949212637061585,0.04688091416878453
1648383360905924830,23728,0,2,0.974585652351,0.12306240201,-0.065399877727,0.0,16.7999992371,0.32594837871270904,0.04115799398327759,-0.02187286880501672,16.7999992371,0.0,0.46279441617160283,0.9844992090213185
1648383361011207783,23729,1,0,0.00780459214002,0.0454158857465,0.00862008705735,0.0,14.6000003815,0.0026102314849565213,0.015189259446989964,0.0028829722599832772,14.6000003815,0.0,0.01563138571458367,0.04688091549327398
1648383361011210201,23730,1,1,0.0317368544638,0.0161153152585,-0.0305104702711,0.0,14.6000003815,0.010614332596588628,0.005389737544648829,-0.01020417065923077,14.6000003815,0.0,0.015949212637061585,0.04688091416878453
1648383361011220146,23731,1,2,0.974745154381,0.12306240201,-0.0629781037569,0.0,14.6000003815,0.3260017238732441,0.04115799398327759,-0.021062910955484945,14.6000003815,0.0,0.4628695587369959,0.9844992190603937
1648383361206505442,23732,3,0,0.00778458407149,0.0454158857465,0.00863816030324,0.0,18.3999996185,0.0026035398232408026,0.015189259446989964,0.0028890168238260867,18.3999996185,0.0,0.015629153584579537,0.046880915527853215
1648383361206545662,23733,3,1,0.0317368544638,0.0161153152585,-0.0305104702711,0.0,18.3999996185,0.010614332596588628,0.005389737544648829,-0.01020417065923077,18.3999996185,0.0,0.015949212637061585,0.04688091416878453
1648383361206597142,23734,3,2,0.363091915846,-0.656332850456,-0.0057820524089,0.242756426334,18.3999996185,0.12143542335986621,-0.21950931453377925,-0.0019337967922742473,18.3999996185,0.03280492247756756,0.2787067693118872,0.7500946487413945
1648383361311723197,23735,4,0,0.007745730225,0.0454158857465,0.00867301691324,0.0,25.7999992371,0.002590545225752508,0.015189259446989964,0.0029006745529230765,25.7999992371,0.0,0.015624834452925002,0.046880915490580675
1648383361311745936,23736,4,1,0.0317368544638,0.0161153152585,-0.0305104702711,0.0,25.7999992371,0.010614332596588628,0.005389737544648829,-0.01020417065923077,25.7999992371,0.0,0.015949212637061585,0.04688091416878453
1648383361311787849,23737,4,2,0.530401110649,0.461484014988,0.0147219887003,-0.242756426334,25.7999992371,0.1773916758023411,0.15434247992909697,0.004923742040234114,25.7999992371,-0.03280492247756756,0.2945457764059595,0.7032137450437307
1648383361506538243,23738,6,0,0.00780459214002,0.0454158857465,0.00862008705735,0.0,19.0,0.0026102314849565213,0.015189259446989964,0.0028829722599832772,19.0,0.0,0.01563138571458367,0.04688091549327398
1648383361506576047,23739,6,1,0.0317368544638,0.0161153152585,-0.0305104702711,0.0,19.0,0.010614332596588628,0.005389737544648829,-0.01020417065923077,19.0,0.0,0.015949212637061585,0.04688091416878453
1648383361506586748,23740,6,2,0.511634469032,-0.943478405476,-0.103563785553,-0.0809188112617,19.0,0.1711152070341137,-0.3155446172160535,-0.03463671757625418,19.0,-0.010934974494824324,0.39765466627550206,1.0782610023455637
