%time,field.header.seq,field.header.frame_id,field.point_id,field.x,field.y,field.z,field.velocity,field.intensity,normalized_x,normalized_y,normalized_z,normalized_intensity,normalized_velocity,normalized_range,range
1648383387411622222,24387,0,0,0.00778458407149,0.0454158857465,0.00863816030324,0.0,22.8999996185,0.0026035398232408026,0.015189259446989964,0.0028890168238260867,22.8999996185,0.0,0.015629153584579537,0.046880915527853215
1648383387411625150,24388,0,1,0.0316778235137,0.0161153152585,-0.0305717587471,0.0,22.8999996185,0.010594589803913044,0.005389737544648829,-0.01022466847729097,22.8999996185,0.0,0.01592293744968414,0.04688091638755425
1648383387411627294,24389,0,2,0.970307290554,0.12306240201,-0.11224116385,0.0,22.8999996185,0.32451748847959866,0.04115799398327759,-0.037538850785953176,22.8999996185,0.0,0.46077888528766203,0.9844991984522475
1648383387606799092,24390,2,0,0.00775188999251,0.0454158857465,0.0086675118655,0.0,17.6000003815,0.0025926053486655517,0.015189259446989964,0.002898833399832776,17.6000003815,0.0,0.015625517832565817,0.046880915504432095
1648383387606807785,24391,2,1,0.0317103527486,0.0161153152585,-0.0305380169302,0.0,17.6000003815,0.010605469146688962,0.005389737544648829,-0.010213383588695652,17.6000003815,0.0,0.01593741580190905,0.046880916537016086
1648383387606809806,24392,2,2,0.971076250076,0.12306240201,-0.105381518602,0.0,17.6000003815,0.3247746655772575,0.04115799398327759,-0.03524465505083612,17.6000003815,0.0,0.4611411359555406,0.9844992141759182
1648383387606938405,24393,2,3,0.756411612034,-0.249054864049,0.0313552469015,-0.242756426334,17.6000003815,0.2529804722521739,-0.0832959411535117,0.010486704649331104,17.6000003815,-0.03280492247756756,0.3673369740368033,0.79697553515437
1648383387711676135,24394,3,0,0.00775188999251,0.0454158857465,0.0086675118655,0.0,28.5,0.0025926053486655517,0.015189259446989964,0.002898833399832776,28.5,0.0,0.015625517832565817,0.046880915504432095
1648383387711684627,24395,3,1,0.0317540019751,0.0161153152585,-0.0304926261306,0.0,28.5,0.010620067550200667,0.005389737544648829,-0.010198202719264214,28.5,0.0,0.015956846190329953,0.04688091590035382
1648383387711690005,24396,3,2,0.728729724884,-0.117202289402,0.133636116982,0.0,28.5,0.2437223160147157,-0.03919809010100334,0.04469435350568562,28.5,0.0,0.34689713881022466,0.7500946609146123
1648383387711699337,24397,3,3,0.731883764267,-0.140642747283,0.0848983377218,-0.161837622523,28.5,0.24477717868461535,-0.047037708121404675,0.02839409288354515,28.5,-0.021869948989594594,0.34934836538177,0.7500946303693076
1648383387906684158,24398,5,0,0.00780459214002,0.0454158857465,0.00862008705735,0.0,33.9000015259,0.0026102314849565213,0.015189259446989964,0.0028829722599832772,33.9000015259,0.0,0.01563138571458367,0.04688091549327398
1648383387906715316,24399,5,1,0.0317540019751,0.0161153152585,-0.0304926261306,0.0,33.9000015259,0.010620067550200667,0.005389737544648829,-0.010198202719264214,33.9000015259,0.0,0.015956846190329953,0.04688091590035382
1648383387906748990,24400,5,2,0.9656432271,0.184593603015,-0.0519337765872,0.0809188112617,33.9000015259,0.3229576010367893,0.06173699097491638,-0.01736915604923077,33.9000015259,0.010934974494824324,0.46088467124597754,0.9844992419848634
1648383387906786011,24401,5,3,0.675196945667,0.0439508594573,0.1915384233,-0.566431701183,33.9000015259,0.2258183764772575,0.014699284099431437,0.06405967334448161,33.9000015259,-0.07654482448418919,0.3196935208331326,0.7032137378388813
1648383388011851576,24402,6,0,0.007745730225,0.0454158857465,0.00867301691324,0.0,40.4000015259,0.002590545225752508,0.015189259446989964,0.0029006745529230765,40.4000015259,0.0,0.015624834452925002,0.046880915490580675
1648383388011858530,24403,6,1,0.0317368544638,0.0161153152585,-0.0305104702711,0.0,40.4000015259,0.010614332596588628,0.005389737544648829,-0.01020417065923077,40.4000015259,0.0,0.015949212637061585,0.04688091416878453
1648383388012014541,24404,6,2,0.604751288891,0.205104023218,0.151595011353,-0.323675245047,40.4000015259,0.2022579561508361,0.06859666328361204,0.05070067269331103,40.4000015259,-0.04373989797932432,0.29414633070339724,0.6563328646522676
