%time,field.header.seq,field.header.frame_id,field.point_id,field.x,field.y,field.z,field.velocity,field.intensity,normalized_x,normalized_y,normalized_z,normalized_intensity,normalized_velocity,normalized_range,range
1648383073001251969,18724,0,0,0.00767798768356,0.0454158857465,0.00873304437846,0.0,21.8999996185,0.0025678888573779264,0.015189259446989964,0.0029207506282474915,21.8999996185,0.0,0.01561735281395875,0.046880915489399225
1648383073001255671,18725,0,1,0.0317215062678,0.0161153152585,-0.0305264294147,0.0,21.8999996185,0.010609199420668895,0.005389737544648829,-0.010209508165451504,21.8999996185,0.0,0.015942380483956582,0.04688091550502805
1648383073001417664,18726,0,2,0.795417308807,-0.0498109720647,-0.000428399158409,0.0,21.8999996185,0.2660258557882943,-0.016659187981505015,-0.00014327731050468227,21.8999996185,0.0,0.37658603325135653,0.7969755401601982
1648383073301473438,18727,3,0,0.00767798768356,0.0454158857465,0.00873304437846,0.0,16.0,0.0025678888573779264,0.015189259446989964,0.0029207506282474915,16.0,0.0,0.01561735281395875,0.046880915489399225
1648383073301500527,18728,3,1,0.0317215062678,0.0161153152585,-0.0305264294147,0.0,16.0,0.010609199420668895,0.005389737544648829,-0.010209508165451504,16.0,0.0,0.015942380483956582,0.04688091550502805
1648383073301503593,18729,3,2,0.796167910099,-0.0249054860324,0.0258158482611,0.0,16.0,0.266276893009699,-0.00832959399076923,0.008634062963578595,16.0,0.0,0.3766645054127723,0.7969755845239925
1648383073601265168,18730,6,0,0.00765076000243,0.0454158857465,0.00875690765679,0.0,12.1999998093,0.002558782609508361,0.015189259446989964,0.0029287316577892974,12.1999998093,0.0,0.015614363241369104,0.04688091550368306
1648383073601270606,18731,6,1,0.0317974686623,0.0161153152585,-0.0304472967982,0.0,12.1999998093,0.010634604903779264,0.005389737544648829,-0.010183042407424748,12.1999998093,0.0,0.015976198350019604,0.04688091596298513
1648383073601276796,18732,6,2,0.795420944691,-0.0249054860324,0.0430723428726,0.0,12.1999998093,0.26602707180301,-0.00832959399076923,0.014405465843678928,12.1999998093,0.0,0.37631129135360625,0.7969755261036362
1648383073601279287,18733,6,3,0.673043966293,0.0659262910485,0.19280846417,0.404594063759,12.1999998093,0.22509831648595316,0.022048926772073575,0.06448443617725752,12.1999998093,0.05467487348094594,0.3190997639319417,0.7032137372594612
