%time,field.header.seq,field.header.frame_id,field.point_id,field.x,field.y,field.z,field.velocity,field.intensity,normalized_x,normalized_y,normalized_z,normalized_intensity,normalized_velocity,normalized_range,range
1648382901398164423,14977,0,0,0.00769860949367,0.0454158857465,0.00871487054974,0.0,21.7000007629,0.00257478578383612,0.015189259446989964,0.002914672424662207,21.7000007629,0.0,0.015619623753895707,0.04688091546646559
1648382901398170467,14978,0,1,0.0316855758429,0.0161153152585,-0.0305637232959,0.0,21.7000007629,0.010597182556153845,0.005389737544648829,-0.010221981035418059,21.7000007629,0.0,0.015926387759222112,0.04688091599025505
1648382901593324241,14979,2,0,0.00756888370961,0.0454158857465,0.00882777199149,0.0,21.7000007629,0.0025313992339832773,0.015189259446989964,0.002952432104177257,21.7000007629,0.0,0.015605433884118575,0.04688091548895431
1648382901593331158,14980,2,1,0.0317776091397,0.0161153152585,-0.0304680205882,0.0,21.7000007629,0.010627962922976587,0.005389737544648829,-0.010189973440869565,21.7000007629,0.0,0.015967356155122465,0.046880914102429436
1648382901593395722,14981,2,2,1.0307918787,0.032230630517,0.0132003147155,0.0,21.7000007629,0.3447464477257525,0.010779475089297658,0.004414820975083612,21.7000007629,0.0,0.4876642528648689,1.0313801234491518
1648382901593419607,14982,2,3,0.775548696518,-0.149432912469,-0.106602340937,-0.566431701183,21.7000007629,0.2593808349558528,-0.04997756269866221,-0.03565295683511705,21.7000007629,-0.07654482448418919,0.3702088489732375,0.7969755548904778
1648382901698435916,14983,3,0,0.00759660825133,0.0454158857465,0.00880392547697,0.0,24.6000003815,0.0025406716559632104,0.015189259446989964,0.0029444566812608696,24.6000003815,0.0,0.015608447311465786,0.04688091550799065
1648382901698441100,14984,3,1,0.0316855758429,0.0161153152585,-0.0305637232959,0.0,24.6000003815,0.010597182556153845,0.005389737544648829,-0.010221981035418059,24.6000003815,0.0,0.015926387759222112,0.04688091599025505
1648382901698445695,14985,3,2,0.795995771885,-0.0249054860324,0.0306676421314,0.0809188112617,24.6000003815,0.26621932170066887,-0.00832959399076923,0.010256736498795986,24.6000003815,0.010934974494824324,0.3765831072015572,0.7969755682373247
1648382901893327872,14986,5,0,0.00759660825133,0.0454158857465,0.00880392547697,0.0,14.6000003815,0.0025406716559632104,0.015189259446989964,0.0029444566812608696,14.6000003815,0.0,0.015608447311465786,0.04688091550799065
1648382901893330480,14987,5,1,0.0317776091397,0.0161153152585,-0.0304680205882,0.0,14.6000003815,0.010627962922976587,0.005389737544648829,-0.010189973440869565,14.6000003815,0.0,0.015967356155122465,0.046880914102429436
1648382901893333091,14988,5,2,0.800756037235,0.184593603015,0.191855847836,0.404594063759,14.6000003815,0.26781138369063545,0.06173699097491638,0.0641658353966555,14.6000003815,0.05467487348094594,0.383741228594508,0.8438564426436705
1648382901998365566,14989,6,0,0.00769860949367,0.0454158857465,0.00871487054974,0.0,39.0999984741,0.00257478578383612,0.015189259446989964,0.002914672424662207,39.0999984741,0.0,0.015619623753895707,0.04688091546646559
1648382901998368945,14990,6,1,0.0317120365798,0.0161153152585,-0.0305362660438,0.0,39.0999984741,0.010606032300936454,0.005389737544648829,-0.010212798007959866,39.0999984741,0.0,0.015938165300222358,0.046880915027515714
1648382901998370580,14991,6,2,0.287012994289,-1.18081307411,-0.0950288102031,0.0,39.0999984741,0.09599096798963211,-0.39492076057190634,-0.031782210770267556,39.0999984741,0.0,0.4176014116377795,1.2189037901526365
1648382901998372749,14992,6,3,0.819863140583,0.334026515484,0.0983051434159,0.242756426334,39.0999984741,0.27420171925852843,0.11171455367357858,0.032877974386588626,39.0999984741,0.03280492247756756,0.40355087311410015,0.8907374380562566
