%time,field.header.seq,field.header.frame_id,field.point_id,field.x,field.y,field.z,field.velocity,field.intensity,normalized_x,normalized_y,normalized_z,normalized_intensity,normalized_velocity,normalized_range,range
1648383695711890485,32396,0,0,0.00772431911901,0.0454158857465,0.00869209133089,0.0,19.6000003815,0.0025833843207391303,0.015189259446989964,0.0029070539568193977,19.6000003815,0.0,0.015622463046691949,0.04688091547416686
1648383695711901081,32397,0,1,0.0316930636764,0.0161153152585,-0.0305559579283,0.0,19.6000003815,0.010599686848294314,0.005389737544648829,-0.010219383922508362,19.6000003815,0.0,0.01592972044211712,0.04688091547733712
1648383695711908638,32398,0,2,0.745117306709,0.0703213736415,-0.0499707236886,-0.242756426334,19.6000003815,0.24920311261170566,0.023518854060702338,-0.01671261661826087,19.6000003815,-0.03280492247756756,0.3532103044463079,0.7500946404115042
1648383695711923407,32399,0,3,0.585605502129,0.061531201005,-0.788998603821,-0.0809188112617,19.6000003815,0.1958546829862876,0.020578996991638794,-0.263879131712709,19.6000003815,-0.010934974494824324,0.2777437826711884,0.9844992075427806
1648383695906900502,32400,2,0,0.00778307579458,0.0454158857465,0.00863951910287,0.0,20.8999996185,0.0026030353828026755,0.015189259446989964,0.002889471271862876,20.8999996185,0.0,0.015628985538294518,0.046880915491190805
1648383695906929820,32401,2,1,0.0317701548338,0.0161153152585,-0.0304757971317,0.0,20.8999996185,0.010625469844080268,0.005389737544648829,-0.010192574291538461,20.8999996185,0.0,0.015964037384543907,0.046880916531750985
1648383695906936982,32402,2,2,0.899214804173,-0.0,0.265595287085,0.0,20.8999996185,0.3007407371816053,-0.0,0.08882785521237459,20.8999996185,0.0,0.4253116292803088,0.9376183235014397
1648383695906942095,32403,2,3,0.535102427006,-0.247589826584,0.15426042676,-0.647350490093,20.8999996185,0.17896402241003342,-0.08280596206822742,0.051592115973244146,20.8999996185,-0.08747979595851352,0.2662950806687998,0.6094518921783606
1648383695906953144,32404,2,4,0.476337343454,-0.0190453715622,-0.379699379206,-0.647350490093,20.8999996185,0.15931014831237456,-0.006369689485685618,-0.12698975893177256,20.8999996185,-0.08747979595851352,0.2253885969936492,0.6094518927004641
1648383696012164411,32405,3,0,0.00782407168299,0.0454158857465,0.00860241055489,0.0,38.7000007629,0.002616746382270903,0.015189259446989964,0.002877060386250836,38.7000007629,0.0,0.01563356407880908,0.04688091555414197
1648383696012170297,32406,3,1,0.0315993279219,0.0161153152585,-0.0306528843939,0.0,38.7000007629,0.010568337097625417,0.005389737544648829,-0.01025180080063545,38.7000007629,0.0,0.015888007075095616,0.04688091544181289
1648383696012174949,32407,3,2,0.983758807182,-0.0307656005025,-0.0226004831493,0.0809188112617,38.7000007629,0.3290163234722408,-0.010289498495819397,-0.007558690016488294,38.7000007629,0.010934974494824324,0.46541310252470963,0.984499210117008
1648383696012197638,32408,3,3,0.539620876312,-0.0351606868207,0.155110135674,-0.242756426334,38.7000007629,0.18047520946889628,-0.011759427030334446,0.05187629955652174,38.7000007629,-0.03280492247756756,0.2555012457694986,0.5625709895099824
1648383696207413576,32409,5,0,0.00772431911901,0.0454158857465,0.00869209133089,0.0,37.2999992371,0.0025833843207391303,0.015189259446989964,0.0029070539568193977,37.2999992371,0.0,0.015622463046691949,0.04688091547416686
1648383696207493265,32410,5,1,0.0316930636764,0.0161153152585,-0.0305559579283,0.0,37.2999992371,0.010599686848294314,0.005389737544648829,-0.010219383922508362,37.2999992371,0.0,0.01592972044211712,0.04688091547733712
1648383696207550248,32411,5,2,0.911891162395,-0.0,0.218134343624,0.0,37.2999992371,0.3049803218712374,-0.0,0.07295462997458194,37.2999992371,0.0,0.4313073074472158,0.9376183039608269
1648383696207581700,32412,5,3,1.029296875,-0.064461261034,-0.0117391161621,0.0,37.2999992371,0.3442464464882943,-0.021558950178595316,-0.0039261258067224076,37.2999992371,0.0,0.4873151138354312,1.0313802004630137
1648383696207600182,32413,5,4,0.234940290451,0.32230630517,-0.951139688492,0.0,37.2999992371,0.07857534797692307,0.10779475089297658,-0.31810691922809364,37.2999992371,0.0,0.15481562886048675,1.0313801440081132
1648383696207660050,32414,5,5,2.51837992668,0.164083212614,0.723328649998,0.0,37.2999992371,0.842267534006689,0.054877328633444813,0.24191593645418058,37.2999992371,0.0,1.1924096271337972,2.6253314251108226
1648383696207688447,32415,5,6,0.53144210577,0.171408340335,0.244172230363,0.323675245047,37.2999992371,0.17773983470568558,0.05732720412541805,0.0816629532986622,37.2999992371,0.04373989797932432,0.2578164192119001,0.6094518922787039
1648383696207700981,32416,5,7,0.473365932703,0.246124818921,-0.382256567478,-0.647350490093,37.2999992371,0.15831636545250835,0.08231599295016721,-0.12784500584548494,37.2999992371,-0.08747979595851352,0.23854573111996016,0.6563328546650236
1648383696207710179,32417,5,8,0.377215623856,0.47173923254,0.256794214249,-0.647350490093,37.2999992371,0.1261590715237458,0.15777231857525081,0.08588435259163879,37.2999992371,-0.08747979595851352,0.23816869476083052,0.6563328415295556
1648383696312464108,32418,6,0,0.00772431911901,0.0454158857465,0.00869209133089,0.0,29.3999996185,0.0025833843207391303,0.015189259446989964,0.0029070539568193977,29.3999996185,0.0,0.015622463046691949,0.04688091547416686
1648383696312484014,32419,6,1,0.0316930636764,0.0161153152585,-0.0305559579283,0.0,29.3999996185,0.010599686848294314,0.005389737544648829,-0.010219383922508362,29.3999996185,0.0,0.01592972044211712,0.04688091547733712
1648383696312515604,32420,6,2,0.919429421425,-0.0,0.183786869049,0.0,29.3999996185,0.30750147873745814,-0.0,0.06146718028394648,29.3999996185,0.0,0.43487276168029526,0.9376182987851424
1648383696312562888,32421,6,3,2.5237903595,0.082041606307,0.718412041664,0.0,29.3999996185,0.8440770433110367,0.027438664316722407,0.24027158584080266,29.3999996185,0.0,1.1940205150619854,2.625331305850446
1648383696312600377,32422,6,4,0.518336951733,0.34867683053,0.20130597055,0.566431701183,29.3999996185,0.1733568400444816,0.11661432459197323,0.06732641155518394,29.3999996185,0.07654482448418919,0.2714849695295451,0.6563328587381423
