%time,field.header.seq,field.header.frame_id,field.point_id,field.x,field.y,field.z,field.velocity,field.intensity,normalized_x,normalized_y,normalized_z,normalized_intensity,normalized_velocity,normalized_range,range
1648383704511728154,32647,0,0,0.00772431911901,0.0454158857465,0.00869209133089,0.0,30.2000007629,0.0025833843207391303,0.015189259446989964,0.0029070539568193977,30.2000007629,0.0,0.015622463046691949,0.04688091547416686
1648383704511735376,32648,0,1,0.0316940024495,0.0161153152585,-0.0305549837649,0.0,30.2000007629,0.010600000819230768,0.005389737544648829,-0.01021905811535117,30.2000007629,0.0,0.01593013827735287,0.046880915200356935
1648383704511737477,32649,0,2,0.974583208561,-0.0,0.139378219843,0.0,30.2000007629,0.3259475613916388,-0.0,0.0466147892451505,30.2000007629,0.0,0.46095946194249254,0.984499222232124
1648383704511741446,32650,0,3,0.0905129760504,-0.205104023218,-0.616856992245,0.566431701183,30.2000007629,0.030271898344615383,-0.06859666328361204,-0.2063066863695652,30.2000007629,0.07654482448418919,0.08085961830492834,0.6563328485267655
1648383704511744283,32651,0,4,0.609982192516,0.580151319504,-0.0586508139968,0.566431701183,30.2000007629,0.20400742224615384,0.19403054164013378,-0.019615656855117056,30.2000007629,0.07654482448418919,0.34768650786621663,0.8438564728028968
1648383704707282865,32652,2,0,0.00772431911901,0.0454158857465,0.00869209133089,0.0,23.5,0.0025833843207391303,0.015189259446989964,0.0029070539568193977,23.5,0.0,0.015622463046691949,0.04688091547416686
1648383704707326022,32653,2,1,0.0316940024495,0.0161153152585,-0.0305549837649,0.0,23.5,0.010600000819230768,0.005389737544648829,-0.01021905811535117,23.5,0.0,0.01593013827735287,0.046880915200356935
1648383704707403255,32654,2,2,0.998209536076,-0.064461261034,0.251331478357,0.0809188112617,23.5,0.33384934316923076,-0.021558950178595316,0.08405735062107023,23.5,0.010934974494824324,0.4726262330868408,1.031380164682389
1648383704707559387,32655,2,3,0.600897908211,0.082041606307,0.250925689936,0.323675245047,23.5,0.20096920007056854,0.027438664316722407,0.08392163543010032,23.5,0.04373989797932432,0.2855347948210414,0.6563328600090398
1648383704707580581,32656,2,4,0.571891486645,-0.0,0.409206211567,0.485512852669,23.5,0.1912680557341137,-0.0,0.13685826473812707,23.5,0.06560984495527027,0.2704938784679166,0.7032137627222924
1648383704812473881,32657,3,0,0.00782407168299,0.0454158857465,0.00860241055489,0.0,31.5,0.002616746382270903,0.015189259446989964,0.002877060386250836,31.5,0.0,0.01563356407880908,0.04688091555414197
1648383704812520181,32658,3,1,0.0315993279219,0.0161153152585,-0.0306528843939,0.0,31.5,0.010568337097625417,0.005389737544648829,-0.01025180080063545,31.5,0.0,0.015888007075095616,0.04688091544181289
1648383704812537928,32659,3,2,0.904433310032,-0.0,0.388894736767,0.0809188112617,31.5,0.3024860568668896,-0.0,0.1300651293535117,31.5,0.010934974494824324,0.42777988404991457,0.9844992273133149
1648383704812549738,32660,3,3,0.508628249168,0.28568059206,0.392674833536,0.242756426334,31.5,0.17010978233043475,0.09554534851505017,0.1313293757645485,31.5,0.03280492247756756,0.2588505161514618,0.7032137807409512
1648383704812559749,32661,3,4,0.615261793137,0.153828009963,0.30380833149,-0.0809188112617,31.5,0.20577317496220734,0.05144749497090301,0.10160813762207357,31.5,-0.010934974494824324,0.2955199550061476,0.7032137889902836
1648383705007318616,32662,5,0,0.00788187514991,0.0454158857465,0.00854947976768,0.0,14.5,0.002636078645454849,0.015189259446989964,0.0028593577818327755,14.5,0.0,0.01564005830545462,0.046880915502108954
1648383705007357818,32663,5,1,0.0316260531545,0.0161153152585,-0.0306253097951,0.0,14.5,0.01057727530250836,0.005389737544648829,-0.010242578526789297,14.5,0.0,0.01589989863018956,0.046880915350043566
1648383705007382957,32664,5,2,0.944351553917,-0.061531201005,0.271390497684,0.0,14.5,0.31583664010602003,-0.020578996991638794,0.09076605273712374,14.5,0.0,0.44713427690583185,0.9844992373362914
1648383705007414231,32665,5,3,0.561951339245,0.417533159256,0.0662296712399,0.242756426334,14.5,0.18794359172073577,0.13964319707558526,0.0221503917190301,14.5,0.03280492247756756,0.300242918030171,0.7032137769626605
1648383705112260713,32666,6,0,0.00772431911901,0.0454158857465,0.00869209133089,0.0,35.9000015259,0.0025833843207391303,0.015189259446989964,0.0029070539568193977,35.9000015259,0.0,0.015622463046691949,0.04688091547416686
1648383705112269533,32667,6,1,0.0315993279219,0.0161153152585,-0.0306528843939,0.0,35.9000015259,0.010568337097625417,0.005389737544648829,-0.01025180080063545,35.9000015259,0.0,0.015888007075095616,0.04688091544181289
1648383705112341228,32668,6,2,0.576928734779,0.39555773139,-0.0720892772079,0.323675245047,35.9000015259,0.19295275410668894,0.13229355564882941,-0.02411012615648829,35.9000015259,0.04373989797932432,0.30325420937049274,0.7032137283674562
1648383705112360671,32669,6,3,0.983654499054,-0.032230630517,0.308431565762,-0.0809188112617,35.9000015259,0.3289814378107023,-0.010779475089297658,0.10315436982006687,35.9000015259,-0.010934974494824324,0.46537487032627234,1.0313801519377315
