%time,field.header.seq,field.header.frame_id,field.point_id,field.x,field.y,field.z,field.velocity,field.intensity,normalized_x,normalized_y,normalized_z,normalized_intensity,normalized_velocity,normalized_range,range
1648383599411620875,29822,0,0,0.00770388310775,0.0454158857465,0.00871020928025,0.0,21.6000003815,0.0025765495343645483,0.015189259446989964,0.002913113471655518,21.6000003815,0.0,0.015620205426115311,0.04688091550708849
1648383599411627425,29823,0,1,0.0316433869302,0.0161153152585,-0.0306073985994,0.0,21.6000003815,0.010583072551906355,0.005389737544648829,-0.010236588160334447,21.6000003815,0.0,0.015907612016830955,0.04688091478755239
1648383599411637012,29824,0,2,0.941448867321,0.161153152585,0.389164090157,0.0,21.6000003815,0.3148658419133779,0.05389737544648829,0.1301552140993311,21.6000003815,0.0,0.4485375389949656,1.0313801420600475
1648383599411645671,29825,0,3,0.6500659585,-1.02845001221,0.0736970677972,0.0,21.6000003815,0.21741336404682274,-0.34396321478595315,0.02464784876160535,21.6000003815,0.0,0.4613543484765265,1.2189037844789794
1648383599411653597,29826,0,4,0.260552883148,-0.703213751316,-0.0156398788095,0.404594063759,21.6000003815,0.0871414324909699,-0.23518854559063543,-0.005230728698829431,21.6000003815,0.05467487348094594,0.2655200754937278,0.7500946545375672
1648383599510218531,29827,1,0,0.00780410459265,0.0454158857465,0.00862052850425,0.0,28.7999992371,0.0026100684256354515,0.015189259446989964,0.0028831199010869563,28.7999992371,0.0,0.01563133125875631,0.046880915502203545
1648383599510225955,29828,1,1,0.031720533967,0.0161153152585,-0.0305274389684,0.0,28.7999992371,0.01060887423645485,0.005389737544648829,-0.010209845808829431,28.7999992371,0.0,0.015941947683079008,0.04688091499748945
1648383599510232207,29829,1,2,1.037951231,0.134782627225,0.259109556675,0.0,28.7999992371,0.3471408799331104,0.04507780174749164,0.08665871460702342,28.7999992371,0.0,0.49299654081124594,1.0782610430208466
1648383599510236997,29830,1,3,0.946223139763,0.439508616924,-0.533977329731,0.0,28.7999992371,0.3164625885494983,0.1469928484695652,-0.1785877356959866,28.7999992371,0.0,0.4710669139348408,1.172022970440446
1648383599510260605,29831,1,4,1.1052479744,0.0366257168353,0.388231098652,0.0,28.7999992371,0.36964815197324413,0.012249403623846153,0.12984317680668894,28.7999992371,0.0,0.5229049248224854,1.1720230006316181
1648383599510289807,29832,1,5,0.245624512434,-0.307656019926,-0.525156319141,0.485512852669,28.7999992371,0.08214866636588627,-0.10289498994180601,-0.17563756493010033,28.7999992371,0.06560984495527027,0.15519080425885984,0.6563328326686632
1648383599611813179,29833,2,0,0.00772431911901,0.0454158857465,0.00869209133089,0.0,34.9000015259,0.0025833843207391303,0.015189259446989964,0.0029070539568193977,34.9000015259,0.0,0.015622463046691949,0.04688091547416686
1648383599611838845,29834,2,1,0.0317873544991,0.0161153152585,-0.0304578561336,0.0,34.9000015259,0.010631222240501672,0.005389737544648829,-0.010186573957725752,34.9000015259,0.0,0.015971695071409043,0.04688091607666568
1648383599611841728,29835,2,2,0.971116364002,0.0703213736415,0.563855051994,0.0,34.9000015259,0.32478808160602,0.023518854060702338,0.18858028494782608,34.9000015259,0.0,0.45992144155601844,1.1251420388921787
1648383599611853789,29836,2,3,0.936949014664,0.457088917494,-0.423250257969,0.0,34.9000015259,0.31336087446956523,0.15287254765685618,-0.1415552702237458,34.9000015259,0.0,0.4687857625011227,1.125141997903599
1648383599611875556,29837,2,4,0.588548958302,0.533270418644,-0.924640059471,0.0,34.9000015259,0.1968391164889632,0.1783513105832776,-0.3092441670471572,34.9000015259,0.0,0.3306062091780552,1.2189037924699597
1648383599611926729,29838,2,5,0.487115442753,-0.323771327734,0.171237513423,-0.566431701183,34.9000015259,0.16291486379698997,-0.10828472499464883,0.05727007137892976,34.9000015259,-0.07654482448418919,0.25457432580515715,0.6094518957509121
1648383599611936014,29839,2,6,0.498647719622,-0.228544458747,0.124916009605,-0.404594063759,34.9000015259,0.16677181258260868,-0.07643627382842809,0.041777929633779264,34.9000015259,-0.05467487348094594,0.24792776952360934,0.5625709976205816
1648383599612058435,29840,2,7,1.15572023392,-0.109877154231,0.160858988762,-0.242756426334,34.9000015259,0.38652850632775915,-0.0367482121173913,0.053798992896989965,34.9000015259,-0.03280492247756756,0.5478676879519012,1.172022978605597
1648383599612174413,29841,2,8,0.486855477095,0.329631447792,-1.01388001442,-0.242756426334,34.9000015259,0.16282791876086955,0.11024463136856186,-0.3390903058260869,34.9000015259,-0.03280492247756756,0.25530323343346584,1.1720229650442646
1648383599612185856,29842,2,9,0.980611205101,-0.061531201005,-0.0620825812221,-0.161837622523,34.9000015259,0.3279636137461538,-0.020578996991638794,-0.020763405091003342,34.9000015259,-0.021869948989594594,0.46426690491575495,0.9844991981499791
1648383599806881266,29843,4,0,0.00772431911901,0.0454158857465,0.00869209133089,0.0,24.7000007629,0.0025833843207391303,0.015189259446989964,0.0029070539568193977,24.7000007629,0.0,0.015622463046691949,0.04688091547416686
1648383599806886217,29844,4,1,0.0316930636764,0.0161153152585,-0.0305559579283,0.0,24.7000007629,0.010599686848294314,0.005389737544648829,-0.010219383922508362,24.7000007629,0.0,0.01592972044211712,0.04688091547733712
1648383599806980096,29845,4,2,1.0551378727,0.202173948288,0.0919589474797,0.0,24.7000007629,0.35288892063545146,0.06761670511304348,0.030755500829331102,24.7000007629,0.0,0.5036200943418085,1.078260953477318
1648383599807121018,29846,4,3,2.50189495087,0.164083212614,0.778436720371,0.0,24.7000007629,0.8367541641705686,0.054877328633444813,0.2603467292210702,24.7000007629,0.0,1.1846208607447013,2.6253314787798683
1648383599807123855,29847,4,4,0.519215524197,0.0527410283685,0.210046976805,-0.0809188112617,24.7000007629,0.1736506769889632,0.017639139922575247,0.07024982501839465,24.7000007629,-0.010934974494824324,0.24621180819501456,0.5625709813929729
1648383599911740544,29848,5,0,0.00769781274721,0.0454158857465,0.0087155746296,0.0,11.6000003815,0.00257451931344816,0.015189259446989964,0.0029149079028762542,11.6000003815,0.0,0.015619535906633368,0.04688091552385018
1648383599911748511,29849,5,1,0.0317368544638,0.0161153152585,-0.0305104702711,0.0,11.6000003815,0.010614332596588628,0.005389737544648829,-0.01020417065923077,11.6000003815,0.0,0.015949212637061585,0.04688091416878453
1648383599911754845,29850,5,2,0.126530215144,0.549385726452,-0.420327246189,-0.242756426334,11.6000003815,0.04231779770702341,0.1837410456361204,-0.14057767431070234,11.6000003815,-0.03280492247756756,0.1932417239029915,0.7032137410932803
1648383599911775267,29851,5,3,0.147081360221,0.50543487072,-0.466274857521,-0.242756426334,11.6000003815,0.04919109037491638,0.16904176278260868,-0.15594476840167223,11.6000003815,-0.03280492247756756,0.182796729481679,0.7032137497378955
