%time,field.header.seq,field.header.frame_id,field.point_id,field.x,field.y,field.z,field.velocity,field.intensity,normalized_x,normalized_y,normalized_z,normalized_intensity,normalized_velocity,normalized_range,range
1648383594912435463,29699,0,0,0.00782407168299,0.0454158857465,0.00860241055489,0.0,18.3999996185,0.002616746382270903,0.015189259446989964,0.002877060386250836,18.3999996185,0.0,0.01563356407880908,0.04688091555414197
1648383594912445588,29700,0,1,0.0316167213023,0.0161153152585,-0.0306349415332,0.0,18.3999996185,0.010574154281705684,0.005389737544648829,-0.010245799843879598,18.3999996185,0.0,0.01589574623434919,0.04688091396859425
1648383594912451117,29701,0,2,0.980256557465,0.161153152585,0.277257591486,0.0,18.3999996185,0.3278450024966555,0.05389737544648829,0.09272829146688961,18.3999996185,0.0,0.46676505696558285,1.0313801573997023
1648383594912473995,29702,0,3,0.653217017651,-1.02845001221,0.0363941676915,0.0,18.3999996185,0.21846722998361204,-0.34396321478595315,0.012171962438628761,18.3999996185,0.0,0.4623489529341584,1.218903784228096
1648383594912479080,29703,0,4,2.50493788719,-0.918572902679,-0.149087756872,0.242756426334,18.3999996185,0.8377718686254181,-0.30721501761839465,-0.04986212604414715,18.3999996185,0.03280492247756756,1.2239707818287657,2.672212034151697
1648383595106867814,29704,2,0,0.00772431911901,0.0454158857465,0.00869209133089,0.0,20.6000003815,0.0025833843207391303,0.015189259446989964,0.0029070539568193977,20.6000003815,0.0,0.015622463046691949,0.04688091547416686
1648383595106877672,29705,2,1,0.031720533967,0.0161153152585,-0.0305274389684,0.0,20.6000003815,0.01060887423645485,0.005389737544648829,-0.010209845808829431,20.6000003815,0.0,0.015941947683079008,0.04688091499748945
1648383595106882923,29706,2,2,0.997165977955,0.161153152585,0.208409965038,0.0,20.6000003815,0.3335003270752508,0.05389737544648829,0.06970232944414716,20.6000003815,0.0,0.4747102941780579,1.0313801625521872
1648383595107004121,29707,2,3,0.130588531494,-0.351606875658,0.649585425854,0.485512852669,20.6000003815,0.04367509414515049,-0.11759427279531771,0.21725265078729097,20.6000003815,0.06560984495527027,0.13282861397844636,0.750094650727268
1648383595211811924,29708,3,0,0.00782407168299,0.0454158857465,0.00860241055489,0.0,23.2999992371,0.002616746382270903,0.015189259446989964,0.002877060386250836,23.2999992371,0.0,0.01563356407880908,0.04688091555414197
1648383595211816700,29709,3,1,0.0316167213023,0.0161153152585,-0.0306349415332,0.0,23.2999992371,0.010574154281705684,0.005389737544648829,-0.010245799843879598,23.2999992371,0.0,0.01589574623434919,0.04688091396859425
1648383595211819567,29710,3,2,1.05650889874,0.101086974144,0.190307497978,0.0,23.2999992371,0.3533474577725752,0.03380835255652174,0.0636479926347826,23.2999992371,0.0,0.5008511321054089,1.0782609022147855
1648383595211821784,29711,3,3,0.58786714077,-1.06654083729,-0.0512772873044,0.0,23.2999992371,0.19661108386956522,-0.35670262116722407,-0.01714959441618729,23.2999992371,0.0,0.4522704904681474,1.2189038079346735
1648383595211911501,29712,3,4,0.21887126565,-0.659262895584,0.109441235662,0.404594063759,23.2999992371,0.07320109219063545,-0.22048926273712371,0.03660241995384615,23.2999992371,0.05467487348094594,0.24358225464545688,0.7032137516319332
1648383595406751966,29713,5,0,0.00772431911901,0.0454158857465,0.00869209133089,0.0,24.8999996185,0.0025833843207391303,0.015189259446989964,0.0029070539568193977,24.8999996185,0.0,0.015622463046691949,0.04688091547416686
1648383595406903600,29714,5,1,0.0317103527486,0.0161153152585,-0.0305380169302,0.0,24.8999996185,0.010605469146688962,0.005389737544648829,-0.010213383588695652,24.8999996185,0.0,0.01593741580190905,0.046880916537016086
1648383595407146321,29715,5,2,0.98137485981,0.061531201005,0.0485388971865,0.0,24.8999996185,0.3282190166588629,0.020578996991638794,0.016233744878428092,24.8999996185,0.0,0.4646277444473196,0.9844992273761807
1648383595407155181,29716,5,3,1.07779276371,0.316446185112,-0.0645677670836,0.0,24.8999996185,0.3604658072608695,0.10583484451906354,-0.0215945709309699,24.8999996185,0.0,0.5206459552544657,1.125141958209603
1648383595407163693,29717,5,4,0.508848011494,-0.285680562258,0.175760984421,-0.404594063759,24.8999996185,0.1701832814361204,-0.09554533854782607,0.05878293793344481,24.8999996185,-0.05467487348094594,0.2589471186921187,0.609451889896228
1648383595407180103,29718,5,5,1.05351626873,-0.0,0.229674354196,-0.242756426334,24.8999996185,0.3523465781705685,-0.0,0.07681416528294313,24.8999996185,-0.03280492247756756,0.4982933095045699,1.0782610247310858
1648383595407182872,29719,5,6,0.150327205658,0.336956560612,-1.01316773891,-0.242756426334,24.8999996185,0.05027665741070234,0.11269450187692308,-0.33885208659197324,24.8999996185,-0.03280492247756756,0.1332498979889819,1.0782610350320616
1648383595511951981,29720,6,0,0.00782407168299,0.0454158857465,0.00860241055489,0.0,20.2999992371,0.002616746382270903,0.015189259446989964,0.002877060386250836,20.2999992371,0.0,0.01563356407880908,0.04688091555414197
1648383595511953845,29721,6,1,0.0316167213023,0.0161153152585,-0.0306349415332,0.0,20.2999992371,0.010574154281705684,0.005389737544648829,-0.010245799843879598,20.2999992371,0.0,0.01589574623434919,0.04688091396859425
1648383595511956220,29722,6,2,0.967802047729,0.193383783102,0.29951107502,0.0,20.2999992371,0.3236796146250836,0.06467685053578595,0.10017092810033444,20.2999992371,0.0,0.46229869223578135,1.0313801312876465
1648383595511960049,29723,6,3,0.477002233267,-0.193383783102,0.227063179016,-0.323675245047,20.2999992371,0.15953251948729094,-0.06467685053578595,0.07594086254715719,20.2999992371,-0.04373989797932432,0.2347005422728165,0.5625709780760103
1648383595512049954,29724,6,4,0.417260855436,0.0351606868207,-0.375690370798,-0.323675245047,20.2999992371,0.13955212556387958,0.011759427030334446,-0.12564895344414714,20.2999992371,-0.04373989797932432,0.1977065391505182,0.5625710178166171
1648383595512062882,29725,6,5,0.501272797585,-0.105482056737,0.232562348247,-0.161837622523,20.2999992371,0.1676497650785953,-0.035278279845150494,0.07778004958093646,20.2999992371,-0.021869948989594594,0.23970282537060164,0.5625709979321001
