%time,field.header.seq,field.header.frame_id,field.point_id,field.x,field.y,field.z,field.velocity,field.intensity,normalized_x,normalized_y,normalized_z,normalized_intensity,normalized_velocity,normalized_range,range
1648383438007469970,25640,0,0,0.00777811044827,0.0454158857465,0.00864398945123,0.0,18.2999992371,0.002601374731862876,0.015189259446989964,0.0028909663716488294,18.2999992371,0.0,0.015628432536218186,0.04688091545519993
1648383438007553083,25641,0,1,0.0316167213023,0.0161153152585,-0.0306349415332,0.0,18.2999992371,0.010574154281705684,0.005389737544648829,-0.010245799843879598,18.2999992371,0.0,0.01589574623434919,0.04688091396859425
1648383438007558752,25642,0,2,1.0641412735,0.168478280306,0.0431871414185,0.0,18.2999992371,0.35590009147157187,0.05634725093846154,0.01444386000618729,18.2999992371,0.0,0.5064629926334879,1.0782609656687803
1648383438007565962,25643,0,3,0.667878270149,-0.219754293561,0.0124983973801,0.161837622523,18.2999992371,0.22337065891270902,-0.07349641925117056,0.004180066013411371,18.2999992371,0.021869948989594594,0.32433104410299585,0.7032137251311196
1648383438112709509,25644,1,0,0.00779817998409,0.0454158857465,0.00862588826567,0.0,23.7000007629,0.002608086951200669,0.015189259446989964,0.002884912463434782,23.7000007629,0.0,0.01563066977573323,0.04688091549420965
1648383438112720893,25645,1,1,0.0317103527486,0.0161153152585,-0.0305380169302,0.0,23.7000007629,0.010605469146688962,0.005389737544648829,-0.010213383588695652,23.7000007629,0.0,0.01593741580190905,0.046880916537016086
1648383438112723775,25646,1,2,1.06125605106,0.134782627225,0.134967282414,0.0,23.7000007629,0.35493513413377925,0.04507780174749164,0.04513955933578595,23.7000007629,0.0,0.5039741135172658,1.0782610675691482
1648383438112728815,25647,1,3,0.40444907546,-0.187523663044,-0.603239417076,-0.323675245047,23.7000007629,0.13526724931772574,-0.0627169441618729,-0.20175231340334449,23.7000007629,-0.04373989797932432,0.20131535599891784,0.7500946427992142
1648383438112901089,25648,1,4,0.72602802515,0.117202289402,0.147610649467,-0.323675245047,23.7000007629,0.2428187375083612,0.03919809010100334,0.04936811018963211,23.7000007629,-0.04373989797932432,0.34562750011808263,0.7500946432153404
1648383438307816857,25649,3,0,0.00779817998409,0.0454158857465,0.00862588826567,0.0,39.0999984741,0.002608086951200669,0.015189259446989964,0.002884912463434782,39.0999984741,0.0,0.01563066977573323,0.04688091549420965
1648383438307840311,25650,3,1,0.0316433869302,0.0161153152585,-0.0306073985994,0.0,39.0999984741,0.010583072551906355,0.005389737544648829,-0.010236588160334447,39.0999984741,0.0,0.015907612016830955,0.04688091478755239
1648383438307848555,25651,3,2,0.822089612484,0.105482056737,0.158543035388,0.0809188112617,39.0999984741,0.274946358690301,0.035278279845150494,0.05302442655117056,39.0999984741,0.010934974494824324,0.39042996470934965,0.8438564388079299
1648383438413157433,25652,4,0,0.00777811044827,0.0454158857465,0.00864398945123,0.0,16.7999992371,0.002601374731862876,0.015189259446989964,0.0028909663716488294,16.7999992371,0.0,0.015628432536218186,0.04688091545519993
1648383438413191578,25653,4,1,0.0316167213023,0.0161153152585,-0.0306349415332,0.0,16.7999992371,0.010574154281705684,0.005389737544648829,-0.010245799843879598,16.7999992371,0.0,0.01589574623434919,0.04688091396859425
1648383438413226465,25654,4,2,0.801696538925,0.210964113474,0.157704055309,-0.0809188112617,16.7999992371,0.2681259327508361,0.07055655969030099,0.05274383120702341,16.7999992371,-0.010934974494824324,0.38569581245113715,0.8438564846933979
