%time,field.header.seq,field.header.frame_id,field.point_id,field.x,field.y,field.z,field.velocity,field.intensity,normalized_x,normalized_y,normalized_z,normalized_intensity,normalized_velocity,normalized_range,range
1648382855197498058,13988,0,0,0.0075960252434,0.0454158857465,0.00880442839116,0.0,22.7000007629,0.002540476670033445,0.015189259446989964,0.0029446248799866216,22.7000007629,0.0,0.015608383835937094,0.046880915487355575
1648382855197518870,13989,0,1,0.0318039134145,0.0161153152585,-0.030440563336,0.0,22.7000007629,0.010636760339297658,0.005389737544648829,-0.010180790413377926,22.7000007629,0.0,0.015979067927495285,0.04688091499289325
1648382855197523188,13990,0,2,0.806340575218,-0.131852567196,-0.211005881429,-0.323675245047,22.7000007629,0.26967912214648826,-0.04409784856053511,-0.07057052890602006,22.7000007629,-0.04373989797932432,0.38392483390771814,0.8438564479321705
1648382855197529796,13991,0,3,0.831351399422,-0.0263705141842,-0.142313480377,-0.161837622523,22.7000007629,0.27804394629498325,-0.008819569961270902,-0.04759648173143813,22.7000007629,-0.021869948989594594,0.393312416479415,0.8438564333085763
1648382855197541882,13992,0,4,0.204311385751,-0.953733623028,-0.133744999766,-0.0809188112617,22.7000007629,0.06833156714080267,-0.31897445586220735,-0.04473076915250836,22.7000007629,-0.010934974494824324,0.33329132846269394,0.9844992082292482
1648382855392896868,13993,2,0,0.00764421746135,0.0454158857465,0.00876261945814,0.0,12.3999996185,0.0025565944686789296,0.015189259446989964,0.0029306419592441467,12.3999996185,0.0,0.015613646374326955,0.046880915504112365
1648382855392930208,13994,2,1,0.0318039134145,0.0161153152585,-0.030440563336,0.0,12.3999996185,0.010636760339297658,0.005389737544648829,-0.010180790413377926,12.3999996185,0.0,0.015979067927495285,0.04688091499289325
1648382855392962431,13995,2,2,0.832632005215,-0.0263705141842,0.134619027376,0.0809188112617,12.3999996185,0.27847224254682273,-0.008819569961270902,0.04502308607892977,12.3999996185,0.010934974494824324,0.3939179667804132,0.8438564704132755
1648382855498098431,13996,3,0,0.00762368738651,0.0454158857465,0.00878048688173,0.0,19.7000007629,0.0025497282229130433,0.015189259446989964,0.002936617686197324,19.7000007629,0.0,0.015611400660075716,0.04688091549219795
1648382855498162269,13997,3,1,0.0318039134145,0.0161153152585,-0.030440563336,0.0,19.7000007629,0.010636760339297658,0.005389737544648829,-0.010180790413377926,19.7000007629,0.0,0.015979067927495285,0.04688091499289325
1648382855498205291,13998,3,2,0.829869866371,0.105482056737,0.110829852521,0.242756426334,19.7000007629,0.2775484502913043,0.035278279845150494,0.037066840308026754,19.7000007629,0.03280492247756756,0.3940949651378992,0.8438564543889652
1648382855498236622,13999,3,3,1.06845283508,0.134782627225,-0.0537490770221,0.242756426334,19.7000007629,0.3573420853110368,0.04507780174749164,-0.01797627994050167,19.7000007629,0.03280492247756756,0.5073645041577768,1.0782609984010785
1648382855498296750,14000,3,4,0.818025410175,0.0263705141842,0.205506071448,-0.0809188112617,19.7000007629,0.27358709370401335,0.008819569961270902,0.06873112757458194,19.7000007629,-0.010934974494824324,0.38701108575481263,0.8438564576468599
1648382855693127080,14001,5,0,0.00762368738651,0.0454158857465,0.00878048688173,0.0,19.3999996185,0.0025497282229130433,0.015189259446989964,0.002936617686197324,19.3999996185,0.0,0.015611400660075716,0.04688091549219795
1648382855693163985,14002,5,1,0.0317120365798,0.0161153152585,-0.0305362660438,0.0,19.3999996185,0.010606032300936454,0.005389737544648829,-0.010212798007959866,19.3999996185,0.0,0.015938165300222358,0.046880915027515714
1648382855693185741,14003,5,2,0.829686164856,0.306190997362,0.106212720275,0.0809188112617,19.3999996185,0.27748701165752504,0.10240501584013377,0.03552264892140468,19.3999996185,0.010934974494824324,0.4055673440335957,0.8907374478302847
1648382855798150035,14004,6,0,0.00762368738651,0.0454158857465,0.00878048688173,0.0,17.1000003815,0.0025497282229130433,0.015189259446989964,0.002936617686197324,17.1000003815,0.0,0.015611400660075716,0.04688091549219795
1648382855798213675,14005,6,1,0.0318207964301,0.0161153152585,-0.0304229147732,0.0,17.1000003815,0.010642406832809365,0.005389737544648829,-0.010174887884013377,17.1000003815,0.0,0.015986585538827612,0.04688091524942851
1648382855798226803,14006,6,2,0.677923679352,0.448298752308,0.227027311921,0.161837622523,17.1000003815,0.2267303275424749,0.14993269307959864,0.0759288668632107,17.1000003815,0.021869948989594594,0.35396764726332974,0.8438564372599986
