%time,field.header.seq,field.header.frame_id,field.point_id,field.x,field.y,field.z,field.velocity,field.intensity,normalized_x,normalized_y,normalized_z,normalized_intensity,normalized_velocity,normalized_range,range
1648382877292936348,14468,0,0,0.00771166058257,0.0454158857465,0.00870332401246,0.0,21.5,0.002579150696511705,0.015189259446989964,0.002910810706508361,21.5,0.0,0.015621063957957778,0.04688091547683095
1648382877292941110,14469,0,1,0.031702619046,0.0161153152585,-0.0305460430682,0.0,21.5,0.010602882624080266,0.005389737544648829,-0.010216067915785953,21.5,0.0,0.015933973474317183,0.046880914958871846
1648382877292958553,14470,0,2,0.397282391787,-1.0987714529,-0.0922265425324,0.0,21.5,0.13287036514615383,-0.3674820912709029,-0.03084499750247491,21.5,0.0,0.4127373926275407,1.172022926260172
1648382877293117858,14471,0,3,0.811509490013,-0.0527410283685,-0.22530952096,-0.161837622523,21.5,0.27140785619163876,-0.017639139922575247,-0.0753543548361204,21.5,-0.021869948989594594,0.3842337674675284,0.843856414735203
1648382877398110764,14472,1,0,0.00765111856163,0.0454158857465,0.0087565947324,0.0,15.5,0.0025589025289732437,0.015189259446989964,0.0029286270008026753,15.5,0.0,0.01561440254552012,0.04688091557009905
1648382877398126917,14473,1,1,0.03179455176,0.0161153152585,-0.0304503403604,0.0,15.5,0.010633629351170567,0.005389737544648829,-0.010184060321204013,15.5,0.0,0.0159748995976923,0.04688091440623111
1648382877398140543,14474,1,2,0.717642247677,-0.249054864049,-0.241104424,-0.485512852669,15.5,0.2400141296578595,-0.0832959411535117,-0.08063693110367892,15.5,-0.06560984495527027,0.34950218695093865,0.7969755731700529
1648382877398404419,14475,1,3,0.621845960617,0.0747164562345,0.492843866348,-0.485512852669,15.5,0.20797523766454848,0.024988781349331104,0.16483072453110367,15.5,-0.06560984495527027,0.29518102607819413,0.7969755480344216
1648382877398407506,14476,1,4,0.816275835037,-0.079111546278,-0.198818698525,-0.323675245047,15.5,0.27300195151739126,-0.026458711129765885,-0.06649454800167223,15.5,-0.04373989797932432,0.3869886231651475,0.843856475061383
1648382877398412120,14477,1,5,0.601633012295,0.237334623933,0.542036652565,-0.323675245047,15.5,0.2012150542792642,0.07937612840568561,0.18128316139297657,15.5,-0.04373989797932432,0.2954243827071326,0.8438564676083514
1648382877398425111,14478,1,6,0.324119091034,0.892202436924,-0.261075258255,-0.323675245047,15.5,0.10840103379063544,0.2983954638541806,-0.08731613988461538,15.5,-0.04373989797932432,0.3354719378763425,0.9844991945648028
1648382877398436749,14479,1,7,0.360645443201,-0.769140005112,0.497591435909,-0.323675245047,15.5,0.12061720508394648,-0.2572374599036789,0.16641854043779264,15.5,-0.04373989797932432,0.3086553597497092,0.9844992230851752
1648382877593233666,14480,3,0,0.00756888370961,0.0454158857465,0.00882777199149,0.0,20.2000007629,0.0025313992339832773,0.015189259446989964,0.002952432104177257,20.2000007629,0.0,0.015605433884118575,0.04688091548895431
1648382877593245831,14481,3,1,0.0317776091397,0.0161153152585,-0.0304680205882,0.0,20.2000007629,0.010627962922976587,0.005389737544648829,-0.010189973440869565,20.2000007629,0.0,0.015967356155122465,0.046880914102429436
1648382877593256103,14482,3,2,0.78813713789,-0.0747164562345,0.0918004140258,0.404594063759,20.2000007629,0.26359101601672236,-0.024988781349331104,0.030702479607290965,20.2000007629,0.05467487348094594,0.37361060831135484,0.7969755410105075
1648382877698128000,14483,4,0,0.00767153082415,0.0454158857465,0.00873871706426,0.0,37.0,0.002565729372625418,0.015189259446989964,0.002922647847578595,37.0,0.0,0.015616642948312533,0.04688091551211659
1648382877698131818,14484,4,1,0.031702619046,0.0161153152585,-0.0305460430682,0.0,37.0,0.010602882624080266,0.005389737544648829,-0.010216067915785953,37.0,0.0,0.015933973474317183,0.046880914958871846
1648382877698134638,14485,4,2,0.608636260033,-0.988894343376,-0.159021005034,0.161837622523,37.0,0.20355727760301,-0.3307338941056856,-0.05318428262006688,37.0,0.021869948989594594,0.4384701121406208,1.1720229517505325
1648382877698136326,14486,4,3,0.837797164917,-0.0,0.100943654776,0.404594063759,37.0,0.28019972070802673,-0.0,0.033760419657525076,37.0,0.05467487348094594,0.3962622451984448,0.8438564516447682
1648382877893155626,14487,6,0,0.00756888370961,0.0454158857465,0.00882777199149,0.0,38.5,0.0025313992339832773,0.015189259446989964,0.002952432104177257,38.5,0.0,0.015605433884118575,0.04688091548895431
1648382877893163179,14488,6,1,0.03179455176,0.0161153152585,-0.0304503403604,0.0,38.5,0.010633629351170567,0.005389737544648829,-0.010184060321204013,38.5,0.0,0.0159748995976923,0.04688091440623111
1648382877893175739,14489,6,2,0.829820871353,0.194848805666,0.258542895317,0.0809188112617,38.5,0.27753206399765884,0.06516682463745818,0.08646919575819396,38.5,0.010934974494824324,0.3978628006322411,0.8907374272598048
