%time,field.header.seq,field.header.frame_id,field.point_id,field.x,field.y,field.z,field.velocity,field.intensity,normalized_x,normalized_y,normalized_z,normalized_intensity,normalized_velocity,normalized_range,range
1648382905793566028,15069,0,0,0.00769860949367,0.0454158857465,0.00871487054974,0.0,21.7000007629,0.00257478578383612,0.015189259446989964,0.002914672424662207,21.7000007629,0.0,0.015619623753895707,0.04688091546646559
1648382905793572727,15070,0,1,0.0316855758429,0.0161153152585,-0.0305637232959,0.0,21.7000007629,0.010597182556153845,0.005389737544648829,-0.010221981035418059,21.7000007629,0.0,0.015926387759222112,0.04688091599025505
1648382905793578404,15071,0,2,0.39726293087,-1.14272224903,-0.148642152548,0.0,21.7000007629,0.13286385647826085,-0.3821813541906354,-0.04971309449765886,21.7000007629,0.0,0.42587345093060186,1.2189037961158815
1648382905793580893,15072,0,3,0.748814105988,-0.0498109720647,-0.268265396357,-0.485512852669,21.7000007629,0.25043950033043477,-0.016659187981505015,-0.08972086834682273,21.7000007629,-0.06560984495527027,0.35456651730771027,0.7969755461412955
1648382905793583648,15073,0,4,0.599286198616,0.273960351944,0.448298752308,-0.485512852669,21.7000007629,0.20043016676120398,0.09162553576722407,0.14993269307959864,21.7000007629,-0.06560984495527027,0.29789216555740256,0.7969755288650998
1648382905793587745,15074,0,5,0.170419320464,0.953733623028,-0.174894616008,-0.485512852669,21.7000007629,0.056996428248829424,0.31897445586220735,-0.05849318261137123,21.7000007629,-0.06560984495527027,0.3290013513024516,0.9844992103552509
1648382905898234985,15075,1,0,0.00756888370961,0.0454158857465,0.00882777199149,0.0,21.7000007629,0.0025313992339832773,0.015189259446989964,0.002952432104177257,21.7000007629,0.0,0.015605433884118575,0.04688091548895431
1648382905898240075,15076,1,1,0.0317776091397,0.0161153152585,-0.0304680205882,0.0,21.7000007629,0.010627962922976587,0.005389737544648829,-0.010189973440869565,21.7000007629,0.0,0.015967356155122465,0.046880914102429436
1648382905898256081,15077,1,2,0.981310844421,0.105482056737,0.54022860527,0.0,21.7000007629,0.3281976068297659,0.035278279845150494,0.18067846330100334,21.7000007629,0.0,0.46548028453029455,1.1251419393230764
1648382905898258845,15078,1,3,0.361296772957,-1.05482065678,-0.150872647762,0.0,21.7000007629,0.12083504112274247,-0.352782828354515,-0.05045907951906354,21.7000007629,0.0,0.3919922681738518,1.1251420052427379
1648382906093468655,15079,3,0,0.00759660825133,0.0454158857465,0.00880392547697,0.0,11.5,0.0025406716559632104,0.015189259446989964,0.0029444566812608696,11.5,0.0,0.015608447311465786,0.04688091550799065
1648382906093522184,15080,3,1,0.0317776091397,0.0161153152585,-0.0304680205882,0.0,11.5,0.010627962922976587,0.005389737544648829,-0.010189973440869565,11.5,0.0,0.015967356155122465,0.046880914102429436
1648382906093524327,15081,3,2,0.478088706732,-0.75155967474,0.00155262497719,0.242756426334,11.5,0.15989588853913042,-0.25135775074916383,0.0005192725676220736,11.5,0.03280492247756756,0.33810369593530737,0.8907374286759767
1648382906093526174,15082,3,3,1.07769262791,0.0336956568062,-0.00948628596961,0.242756426334,11.5,0.3604323170267559,0.011269450436856187,-0.0031726708928461536,11.5,0.03280492247756756,0.509852832519052,1.0782610014095197
1648382906093527142,15083,3,4,0.561214327812,-1.02552008629,0.0835756063461,0.323675245047,11.5,0.18769709960267555,-0.342983306451505,0.0279517078080602,11.5,0.04373989797932432,0.43370260652078213,1.1720229737943888
1648382906093549445,15084,3,5,0.717673361301,0.140642747283,0.166752904654,0.566431701183,11.5,0.2400245355521739,0.047037708121404675,0.05577020222541806,11.5,0.07654482448418919,0.3426895115398019,0.7500946387589579
1648382906198550435,15085,4,0,0.00756888370961,0.0454158857465,0.00882777199149,0.0,44.9000015259,0.0025313992339832773,0.015189259446989964,0.002952432104177257,44.9000015259,0.0,0.015605433884118575,0.04688091548895431
1648382906198568044,15086,4,1,0.0317776091397,0.0161153152585,-0.0304680205882,0.0,44.9000015259,0.010627962922976587,0.005389737544648829,-0.010189973440869565,44.9000015259,0.0,0.015967356155122465,0.046880914102429436
1648382906198571919,15087,4,2,0.744681835175,0.249054864049,0.136347398162,0.404594063759,44.9000015259,0.24905746995819394,0.0832959411535117,0.045601136509030096,44.9000015259,0.05467487348094594,0.36193571320968404,0.7969755165195596
1648382906393345957,15088,6,0,0.00769860949367,0.0454158857465,0.00871487054974,0.0,38.2000007629,0.00257478578383612,0.015189259446989964,0.002914672424662207,38.2000007629,0.0,0.015619623753895707,0.04688091546646559
1648382906393353823,15089,6,1,0.0317776091397,0.0161153152585,-0.0304680205882,0.0,38.2000007629,0.010627962922976587,0.005389737544648829,-0.010189973440869565,38.2000007629,0.0,0.015967356155122465,0.046880914102429436
1648382906393377284,15090,6,2,1.02360343933,0.032230630517,-0.122238449752,0.0,38.2000007629,0.34234228740133776,0.010779475089297658,-0.04088242466622073,38.2000007629,0.0,0.4842650932800764,1.03138016906934
1648382906498480861,15091,7,0,0.00767830573022,0.0454158857465,0.00873276498169,0.0,13.5,0.0025679952274983275,0.015189259446989964,0.0029206571845117055,13.5,0.0,0.015617387794534728,0.046880915533416175
1648382906498485149,15092,7,1,0.0317776091397,0.0161153152585,-0.0304680205882,0.0,13.5,0.010627962922976587,0.005389737544648829,-0.010189973440869565,13.5,0.0,0.015967356155122465,0.046880914102429436
1648382906498487661,15093,7,2,1.06096589565,0.0703213736415,0.367900520563,0.0,13.5,0.35483809219063545,0.023518854060702338,0.12304365236220735,13.5,0.0,0.5023676739553496,1.1251420000843275
1648382906498491575,15094,7,3,0.843242764473,0.461484014988,-0.212633222342,0.323675245047,13.5,0.2820209914625418,0.15434247992909697,-0.07111479008093645,13.5,0.04373989797932432,0.42766023939769504,0.9844992347224321
