%time,field.header.seq,field.header.frame_id,field.point_id,field.x,field.y,field.z,field.velocity,field.intensity,normalized_x,normalized_y,normalized_z,normalized_intensity,normalized_velocity,normalized_range,range
1648383748807005689,33870,0,0,0.00790154933929,0.0454158857465,0.00853130035102,0.0,22.3999996185,0.00264265864190301,0.015189259446989964,0.002853277709371237,22.3999996185,0.0,0.015642278988153333,0.046880915581712874
1648383748807035641,33871,0,1,0.0315993279219,0.0161153152585,-0.0306528843939,0.0,22.3999996185,0.010568337097625417,0.005389737544648829,-0.01025180080063545,22.3999996185,0.0,0.015888007075095616,0.04688091544181289
1648383748807041575,33872,0,2,0.896470963955,-0.0586011447012,0.268391042948,0.0,22.3999996185,0.29982306486789295,-0.019599045050568562,0.08976289061806018,22.3999996185,0.0,0.4244665629003629,0.9376182780371835
1648383748912018441,33873,1,0,0.00778307579458,0.0454158857465,0.00863951910287,0.0,19.5,0.0026030353828026755,0.015189259446989964,0.002889471271862876,19.5,0.0,0.015628985538294518,0.046880915491190805
1648383748912026574,33874,1,1,0.0317965820432,0.0161153152585,-0.0304482225329,0.0,19.5,0.010634308375652175,0.005389737544648829,-0.010183352017692307,19.5,0.0,0.015975803580951076,0.046880915849882784
1648383748912046657,33875,1,2,0.958213925362,-0.0307656005025,0.223870947957,0.0,19.5,0.32047288473645485,-0.010289498495819397,0.07487322674147157,19.5,0.0,0.45333388741842984,0.9844991875421217
1648383748912049498,33876,1,3,0.572010278702,-0.133317604661,0.162672251463,-0.647350490093,19.5,0.19130778551906355,-0.0445878276458194,0.05440543527190635,19.5,-0.08747979595851352,0.27419958419842533,0.6094518882154095
1648383749106995920,33877,3,0,0.00782407168299,0.0454158857465,0.00860241055489,0.0,37.7000007629,0.002616746382270903,0.015189259446989964,0.002877060386250836,37.7000007629,0.0,0.01563356407880908,0.04688091555414197
1648383749107029312,33878,3,1,0.0316260531545,0.0161153152585,-0.0306253097951,0.0,37.7000007629,0.01057727530250836,0.005389737544648829,-0.010242578526789297,37.7000007629,0.0,0.01589989863018956,0.046880915350043566
1648383749107147951,33879,3,2,0.86955165863,-0.0879017189145,0.339530974627,0.0,37.7000007629,0.2908199527190635,-0.02939856819882943,0.11355550990869565,37.7000007629,0.0,0.41233089335044726,0.9376183029066083
1648383749107151634,33880,3,3,0.576473534107,0.152362972498,0.126077100635,0.161837622523,37.7000007629,0.19280051307926419,0.05095751588561872,0.04216625439297658,37.7000007629,0.021869948989594594,0.2773819462627085,0.60945192281161
1648383749107153553,33881,3,4,0.443290412426,0.354536950588,0.86112844944,0.242756426334,37.7000007629,0.14825766301872909,0.11857423096588628,0.2880028258996655,37.7000007629,0.03280492247756756,0.2408744850263336,1.031380165368711
1648383749212092862,33882,4,0,0.0078032030724,0.0454158857465,0.00862134434283,0.0,21.1000003815,0.0026097669138461536,0.015189259446989964,0.002883392756799331,21.1000003815,0.0,0.015631230573348535,0.04688091546254084
1648383749212102861,33883,4,1,0.0317701548338,0.0161153152585,-0.0304757971317,0.0,21.1000003815,0.010625469844080268,0.005389737544648829,-0.010192574291538461,21.1000003815,0.0,0.015964037384543907,0.046880916531750985
1648383749212105850,33884,4,2,0.955229997635,-0.061531201005,0.230191707611,0.0,21.1000003815,0.31947491559699,-0.020578996991638794,0.07698719318093644,21.1000003815,0.0,0.45227418510079664,0.9844991921437762
1648383749212107669,33885,4,3,0.599518358707,0.246124818921,0.10379383713,0.0809188112617,21.1000003815,0.20050781227658862,0.08231599295016721,0.03471365790301003,21.1000003815,0.010934974494824324,0.2952671472806607,0.6563328801315679
1648383749212109330,33886,4,4,0.571616590023,0.307656019926,0.0968248471618,0.323675245047,21.1000003815,0.19117611706454848,0.10289498994180601,0.032382892027357855,21.1000003815,0.04373989797932432,0.289281859830305,0.6563328451434803
1648383749407113749,33887,6,0,0.00788187514991,0.0454158857465,0.00854947976768,0.0,40.7999992371,0.002636078645454849,0.015189259446989964,0.0028593577818327755,40.7999992371,0.0,0.01564005830545462,0.046880915502108954
1648383749407146729,33888,6,1,0.0317701548338,0.0161153152585,-0.0304757971317,0.0,40.7999992371,0.010625469844080268,0.005389737544648829,-0.010192574291538461,40.7999992371,0.0,0.015964037384543907,0.046880916531750985
1648383749407269112,33889,6,2,0.932183504105,0.0586011447012,0.0820235460997,0.0,40.7999992371,0.31176705822909695,0.019599045050568562,0.02743262411361204,40.7999992371,0.0,0.44134059382810514,0.9376182813920263
1648383749407273093,33890,6,3,1.02218949795,-0.0,0.137381091714,0.0,40.7999992371,0.3418693973076923,-0.0,0.045946853416053514,40.7999992371,0.0,0.48347633823285446,1.0313801113458623
1648383749407275080,33891,6,4,0.492612540722,0.562570989132,0.0590654946864,0.404594063759,40.7999992371,0.16475335810100333,0.1881508324856187,0.01975434604896321,40.7999992371,0.05467487348094594,0.2994796717243864,0.7500946378638431
1648383749512202924,33892,7,0,0.00788187514991,0.0454158857465,0.00854947976768,0.0,25.3999996185,0.002636078645454849,0.015189259446989964,0.0028593577818327755,25.3999996185,0.0,0.01564005830545462,0.046880915502108954
1648383749512209672,33893,7,1,0.0317965820432,0.0161153152585,-0.0304482225329,0.0,25.3999996185,0.010634308375652175,0.005389737544648829,-0.010183352017692307,25.3999996185,0.0,0.015975803580951076,0.046880915849882784
1648383749512216881,33894,7,2,0.965346872807,-0.0307656005025,0.190781727433,0.0,25.3999996185,0.32285848588862875,-0.010289498495819397,0.06380659780367892,25.3999996185,0.0,0.4567067741996951,0.9844992506522557
1648383749512219015,33895,7,3,2.48775172234,0.246124818921,0.801796972752,0.0,25.3999996185,0.8320239874046822,0.08231599295016721,0.26815952265953175,25.3999996185,0.0,1.179535397488751,2.6253313017615136
