%time,field.header.seq,field.header.frame_id,field.point_id,field.x,field.y,field.z,field.velocity,field.intensity,normalized_x,normalized_y,normalized_z,normalized_intensity,normalized_velocity,normalized_range,range
1648383590606774671,29576,0,0,0.00779817998409,0.0454158857465,0.00862588826567,0.0,24.7000007629,0.002608086951200669,0.015189259446989964,0.002884912463434782,24.7000007629,0.0,0.01563066977573323,0.04688091549420965
1648383590606779302,29577,0,1,0.0316167213023,0.0161153152585,-0.0306349415332,0.0,24.7000007629,0.010574154281705684,0.005389737544648829,-0.010245799843879598,24.7000007629,0.0,0.01589574623434919,0.04688091396859425
1648383590606781942,29578,0,2,0.984465062618,0.161153152585,0.26192227006,0.0,24.7000007629,0.32925252930367893,0.05389737544648829,0.08759942142474916,24.7000007629,0.0,0.4687423420022557,1.0313801790110817
1648383590711798543,29579,1,0,0.00779817998409,0.0454158857465,0.00862588826567,0.0,26.5,0.002608086951200669,0.015189259446989964,0.002884912463434782,26.5,0.0,0.01563066977573323,0.04688091549420965
1648383590711805551,29580,1,1,0.0317368544638,0.0161153152585,-0.0305104702711,0.0,26.5,0.010614332596588628,0.005389737544648829,-0.01020417065923077,26.5,0.0,0.015949212637061585,0.04688091416878453
1648383590711814765,29581,1,2,0.983197331429,0.161153152585,0.266641587019,0.0,26.5,0.32882853893946484,0.05389737544648829,0.08917778830066889,26.5,0.0,0.4681467111089706,1.0313801758057997
1648383590711832903,29582,1,3,0.0598679892719,-0.263705164194,0.649141728878,0.566431701183,26.5,0.020022738886923075,-0.0881957070882943,0.21710425714983278,26.5,0.07654482448418919,0.09262992439742143,0.7032137469736807
1648383590906869255,29583,3,0,0.00782407168299,0.0454158857465,0.00860241055489,0.0,18.2000007629,0.002616746382270903,0.015189259446989964,0.002877060386250836,18.2000007629,0.0,0.01563356407880908,0.04688091555414197
1648383590906878667,29584,3,1,0.0317368544638,0.0161153152585,-0.0305104702711,0.0,18.2000007629,0.010614332596588628,0.005389737544648829,-0.01020417065923077,18.2000007629,0.0,0.015949212637061585,0.04688091416878453
1648383590906885457,29585,3,2,0.975531995296,0.128922522068,0.308968216181,0.0,18.2000007629,0.3262648813698996,0.04311790035719063,0.10333385156555183,18.2000007629,0.0,0.4634184922527822,1.031380167131712
1648383590906971451,29586,3,3,0.463465929031,-0.361862063408,0.160271048546,-0.485512852669,18.2000007629,0.15500532743511705,-0.12102410147424747,0.05360235737324414,18.2000007629,-0.06560984495527027,0.2503999524843898,0.609451908938267
1648383590906974117,29587,3,4,0.495585888624,-0.210964113474,0.162403434515,-0.242756426334,18.2000007629,0.1657477888374582,-0.07055655969030099,0.054315529938127084,18.2000007629,-0.03280492247756756,0.24479151767237414,0.5625709783835089
1648383591011902599,29588,4,0,0.00779817998409,0.0454158857465,0.00862588826567,0.0,30.8999996185,0.002608086951200669,0.015189259446989964,0.002884912463434782,30.8999996185,0.0,0.01563066977573323,0.04688091549420965
1648383591011906776,29589,4,1,0.0316433869302,0.0161153152585,-0.0306073985994,0.0,30.8999996185,0.010583072551906355,0.005389737544648829,-0.010236588160334447,30.8999996185,0.0,0.015907612016830955,0.04688091478755239
1648383591011908454,29590,4,2,0.993100047112,0.128922522068,0.246731236577,0.0,30.8999996185,0.33214048398394647,0.04311790035719063,0.08251880821973244,30.8999996185,0.0,0.4716924374350229,1.031380154634093
1648383591011911305,29591,4,3,0.553131639957,-0.171408340335,0.189989849925,-0.242756426334,30.8999996185,0.18499385951739128,-0.05732720412541805,0.0635417558277592,30.8999996185,-0.03280492247756756,0.2678280501574059,0.6094518630149911
1648383591206734824,29592,6,0,0.00772431911901,0.0454158857465,0.00869209133089,0.0,36.0,0.0025833843207391303,0.015189259446989964,0.0029070539568193977,36.0,0.0,0.015622463046691949,0.04688091547416686
1648383591206740502,29593,6,1,0.0316433869302,0.0161153152585,-0.0306073985994,0.0,36.0,0.010583072551906355,0.005389737544648829,-0.010236588160334447,36.0,0.0,0.015907612016830955,0.04688091478755239
1648383591206744715,29594,6,2,0.914038181305,0.193383783102,0.436900317669,0.0,36.0,0.3056983883963211,0.06467685053578595,0.14612050758160533,36.0,0.0,0.4371339661150164,1.0313801297433776
1648383591206747875,29595,6,3,1.12400782108,0.329631447792,0.0398412980139,0.0,36.0,0.3759223481872909,0.11024463136856186,0.013324848834080267,36.0,0.0,0.5429448429434464,1.172022952953521
1648383591206751083,29596,6,4,0.520131766796,0.0879017189145,0.195505410433,0.0809188112617,36.0,0.17395711264080269,0.02939856819882943,0.06538642489397993,36.0,0.010934974494824324,0.247762850098216,0.5625710022095238
